AAH73964.1	m.14999	38.298	47	28	1	889	935	828	873	0.032	37.7
AAH73964.1	m.291841	34.375	64	41	1	893	956	172	234	0.039	37.0
AAH73964.1	m.96550	37.778	45	25	2	890	934	168	209	0.25	34.7
AAH73964.1	m.21818	33.333	66	37	4	893	955	247	308	0.36	34.3
AAH73964.1	m.14230	48.571	35	17	1	894	928	933	966	0.56	33.5
AAH73964.1	m.15702	28.302	53	37	1	883	935	130	181	1.2	32.3
AAH73964.1	m.302626	33.333	63	41	1	893	954	131	193	1.6	32.0
AAH73964.1	m.166316	27.523	109	72	3	79	184	17	121	2.7	31.2
AAH73964.1	m.152426	33.962	53	34	1	469	520	383	435	3.4	30.8
AAH73964.1	m.291896	26.506	83	54	2	846	925	5	83	4.2	30.8
AAH73964.1	m.186459	41.026	39	23	0	372	410	9	47	5.0	30.4
AAH73964.1	m.289914	34.043	47	27	1	875	917	179	225	5.7	29.6
AAH73964.1	m.19660	27.160	81	59	0	483	563	458	538	8.7	29.6
AAH73964.1	m.114029	36.364	33	20	1	893	925	840	871	8.9	29.6
AAH73964.1	m.95638	28.000	50	36	0	430	479	105	154	9.8	28.9
