AAH73964.1	XP_020625665.1	36.301	292	126	12	684	955	22	273	1.45e-41	154
AAH73964.1	XP_020625666.1	29.861	288	113	10	684	955	22	236	8.02e-21	93.2
AAH73964.1	XP_020626314.1	47.692	65	34	0	893	957	685	749	4.62e-15	80.1
AAH73964.1	XP_020611323.1	48.571	70	35	1	886	955	1490	1558	3.12e-12	71.2
AAH73964.1	XP_020627343.1	49.275	69	34	1	887	955	778	845	7.57e-11	66.6
AAH73964.1	XP_020603475.1	46.154	65	34	1	891	955	662	725	2.66e-10	64.7
AAH73964.1	XP_020603474.1	46.154	65	34	1	891	955	663	726	2.75e-10	64.7
AAH73964.1	XP_020619581.1	52.542	59	27	1	889	947	418	475	7.18e-10	62.8
AAH73964.1	XP_020631808.1	48.214	56	28	1	892	947	619	673	4.37e-09	60.5
AAH73964.1	XP_020631808.1	36.000	50	24	1	749	798	130	171	0.008	40.0
AAH73964.1	XP_020628056.1	45.588	68	36	1	889	956	1052	1118	1.72e-08	58.9
AAH73964.1	XP_020628056.1	50.000	44	16	2	738	780	132	170	4.28e-04	44.7
AAH73964.1	XP_020628056.1	43.137	51	21	2	741	783	202	252	0.001	43.1
AAH73964.1	XP_020606785.1	37.879	66	40	1	891	956	763	827	7.16e-08	56.6
AAH73964.1	XP_020612299.1	43.077	65	34	2	891	955	403	464	1.14e-07	55.8
AAH73964.1	XP_020612298.1	43.077	65	34	2	891	955	403	464	1.14e-07	55.8
AAH73964.1	XP_020608095.1	44.068	59	32	1	893	951	904	961	2.65e-07	55.1
AAH73964.1	XP_020608095.1	42.857	42	24	0	739	780	220	261	0.003	41.6
AAH73964.1	XP_020608094.1	44.068	59	32	1	893	951	904	961	2.65e-07	55.1
AAH73964.1	XP_020608094.1	42.857	42	24	0	739	780	220	261	0.003	41.6
AAH73964.1	XP_020608093.1	44.068	59	32	1	893	951	904	961	2.65e-07	55.1
AAH73964.1	XP_020608093.1	42.857	42	24	0	739	780	220	261	0.003	41.6
AAH73964.1	XP_020608092.1	44.068	59	32	1	893	951	904	961	2.65e-07	55.1
AAH73964.1	XP_020608092.1	42.857	42	24	0	739	780	220	261	0.003	41.6
AAH73964.1	XP_020608097.1	44.068	59	32	1	893	951	903	960	2.76e-07	55.1
AAH73964.1	XP_020608097.1	42.857	42	24	0	739	780	220	261	0.003	41.6
AAH73964.1	XP_020608098.1	44.068	59	32	1	893	951	898	955	2.93e-07	54.7
AAH73964.1	XP_020608098.1	42.857	42	24	0	739	780	220	261	0.003	41.6
AAH73964.1	XP_020616074.1	30.508	118	76	3	840	956	4	116	0.005	40.0
AAH73964.1	XP_020624256.1	28.125	96	67	1	426	521	63	156	0.47	33.9
AAH73964.1	XP_020623595.1	30.612	49	34	0	891	939	317	365	2.4	32.3
AAH73964.1	XP_020632936.1	41.860	43	24	1	892	933	163	205	5.5	30.8
AAH73964.1	XP_020607318.1	21.649	97	70	1	118	208	1589	1685	6.5	30.8
AAH73964.1	XP_020607318.1	21.649	97	70	1	118	208	1839	1935	6.5	30.8
AAH73964.1	XP_020631104.1	21.384	159	102	5	338	494	8129	8266	8.1	30.8
