AAH73964.1	XP_029211190.1	35.664	286	137	8	684	955	23	275	6.79e-40	149
AAH73964.1	XP_029211189.1	35.192	287	138	8	684	955	23	276	1.32e-39	149
AAH73964.1	XP_029211192.1	30.420	286	114	8	684	955	23	237	1.21e-25	107
AAH73964.1	XP_029211191.1	29.965	287	115	8	684	955	23	238	2.40e-25	106
AAH73964.1	XP_029211193.1	30.085	236	113	10	684	902	23	223	5.59e-19	87.8
AAH73964.1	XP_029193992.1	54.167	72	33	0	886	957	666	737	5.06e-17	86.7
AAH73964.1	XP_029193991.1	54.167	72	33	0	886	957	666	737	5.06e-17	86.7
AAH73964.1	XP_029193990.1	54.167	72	33	0	886	957	666	737	5.06e-17	86.7
AAH73964.1	XP_029193989.1	54.167	72	33	0	886	957	666	737	5.06e-17	86.7
AAH73964.1	XP_029193988.1	54.167	72	33	0	886	957	666	737	5.06e-17	86.7
AAH73964.1	XP_029189732.1	47.143	70	36	1	886	955	1600	1668	2.34e-11	68.6
AAH73964.1	XP_029189731.1	47.143	70	36	1	886	955	1602	1670	2.36e-11	68.6
AAH73964.1	XP_029189730.1	47.143	70	36	1	886	955	1602	1670	2.36e-11	68.6
AAH73964.1	XP_029201199.1	32.450	151	73	6	822	955	651	789	6.43e-11	67.0
AAH73964.1	XP_029201138.1	33.553	152	71	7	822	955	651	790	1.78e-10	65.5
AAH73964.1	XP_029201075.1	33.553	152	71	7	822	955	651	790	1.78e-10	65.5
AAH73964.1	XP_029189526.1	54.098	61	27	1	891	951	413	472	3.03e-10	64.3
AAH73964.1	XP_029185643.1	47.692	65	33	1	891	955	675	738	1.27e-09	62.8
AAH73964.1	XP_029185645.1	47.692	65	33	1	891	955	656	719	1.35e-09	62.4
AAH73964.1	XP_029185644.1	47.692	65	33	1	891	955	656	719	1.35e-09	62.4
AAH73964.1	XP_029185642.1	47.692	65	33	1	891	955	681	744	1.52e-09	62.4
AAH73964.1	XP_029213323.1	45.588	68	36	1	889	956	1067	1133	1.14e-08	59.7
AAH73964.1	XP_029213323.1	45.098	51	20	2	741	783	218	268	7.24e-04	44.3
AAH73964.1	XP_029213323.1	54.545	33	14	1	749	780	152	184	0.001	43.1
AAH73964.1	XP_029187358.1	41.667	60	34	1	892	951	915	973	6.64e-08	57.4
AAH73964.1	XP_029187358.1	51.613	31	15	0	750	780	248	278	0.002	42.7
AAH73964.1	XP_029187359.1	41.667	60	34	1	892	951	909	967	6.86e-08	57.4
AAH73964.1	XP_029187359.1	51.613	31	15	0	750	780	242	272	0.002	42.7
AAH73964.1	XP_029192659.1	44.615	65	33	2	891	955	353	414	1.65e-07	55.5
AAH73964.1	XP_029192658.1	44.615	65	33	2	891	955	354	415	1.67e-07	55.5
AAH73964.1	XP_029192662.1	44.615	65	33	2	891	955	351	412	1.69e-07	55.5
AAH73964.1	XP_029192660.1	44.615	65	33	2	891	955	351	412	1.69e-07	55.5
AAH73964.1	XP_029190754.1	41.667	60	34	1	892	951	872	930	2.58e-07	55.5
AAH73964.1	XP_029190753.1	41.667	60	34	1	892	951	872	930	2.58e-07	55.5
AAH73964.1	XP_029205106.1	37.705	61	37	1	887	947	826	885	2.66e-06	52.0
AAH73964.1	XP_029205105.1	37.705	61	37	1	887	947	826	885	2.66e-06	52.0
AAH73964.1	XP_029205104.1	37.705	61	37	1	887	947	826	885	2.66e-06	52.0
AAH73964.1	XP_029205103.1	37.705	61	37	1	887	947	826	885	2.66e-06	52.0
AAH73964.1	XP_029182121.1	42.222	45	25	1	887	931	5	48	0.029	38.5
AAH73964.1	XP_029196470.1	33.333	69	41	2	866	933	30	94	0.18	35.4
AAH73964.1	XP_029204313.1	41.667	36	20	1	893	928	421	455	0.89	33.9
AAH73964.1	XP_029200632.1	38.462	52	29	2	893	944	369	417	1.7	32.7
AAH73964.1	XP_029203484.1	23.529	85	57	1	102	186	110	186	2.4	32.7
AAH73964.1	XP_029207074.1	21.569	102	79	1	337	437	3190	3291	3.0	32.3
AAH73964.1	XP_029197340.1	36.364	33	21	0	843	875	573	605	5.0	31.6
AAH73964.1	XP_029201530.1	31.250	80	46	3	695	766	172	250	6.0	31.2
AAH73964.1	XP_029205283.1	27.273	88	62	1	235	320	659	746	9.8	30.8
AAH73964.1	XP_029205282.1	27.273	88	62	1	235	320	659	746	9.8	30.8
AAH73964.1	XP_029205281.1	27.273	88	62	1	235	320	659	746	9.8	30.8
