AAH73964.1	RDD42395.1	46.667	75	40	0	881	955	135	209	3.98e-17	80.9
AAH73964.1	RDD42395.1	55.000	20	9	0	684	703	13	32	0.43	32.7
AAH73964.1	RDD44261.1	52.542	59	28	0	893	951	353	411	1.58e-14	75.9
AAH73964.1	RDD47832.1	45.455	66	35	1	889	954	481	545	3.77e-09	59.3
AAH73964.1	RDD44572.1	47.619	63	32	1	893	955	867	928	4.20e-09	59.7
AAH73964.1	RDD47741.1	34.921	63	40	1	893	955	680	741	7.23e-06	48.9
AAH73964.1	RDD47741.1	42.857	42	24	0	739	780	115	156	0.022	37.4
AAH73964.1	RDD47860.1	29.851	67	47	0	873	939	353	419	0.006	39.3
AAH73964.1	RDD42766.1	29.091	55	36	1	752	803	104	158	0.17	34.7
AAH73964.1	RDD43283.1	32.500	40	27	0	726	765	117	156	0.18	34.3
AAH73964.1	RDD37907.1	31.429	70	45	2	888	955	11	79	0.25	33.9
AAH73964.1	RDD46091.1	40.351	57	31	3	896	951	426	480	2.0	31.2
AAH73964.1	RDD46039.1	28.182	110	54	6	404	513	122	206	2.2	31.2
AAH73964.1	RDD41163.1	29.268	82	56	1	746	825	100	181	3.5	29.6
AAH73964.1	RDD43325.1	28.302	53	37	1	341	392	27	79	4.9	30.0
AAH73964.1	RDD46967.1	31.373	51	34	1	597	647	260	309	6.5	29.3
AAH73964.1	RDD47840.1	27.660	94	58	2	398	491	510	593	7.5	29.3
AAH73964.1	RDD39746.1	32.353	68	36	3	745	803	5	71	9.9	28.5
