AAH73964.1	XP_012559657.1	31.104	299	151	10	683	955	40	309	3.13e-28	116
AAH73964.1	XP_012559663.1	29.897	291	150	10	683	955	40	294	4.30e-25	106
AAH73964.1	XP_002160469.3	42.254	71	38	2	886	955	746	814	4.47e-10	63.2
AAH73964.1	XP_012559766.1	44.048	84	39	3	880	956	986	1068	9.80e-09	58.9
AAH73964.1	XP_012559766.1	51.724	29	13	1	753	780	132	160	0.010	39.3
AAH73964.1	XP_012563849.1	46.774	62	32	1	893	954	794	854	1.40e-08	58.5
AAH73964.1	XP_012553884.1	40.323	62	36	1	886	947	1568	1628	8.52e-07	52.8
AAH73964.1	XP_004207258.1	43.636	55	30	1	893	947	422	475	1.76e-06	51.2
AAH73964.1	XP_012553804.1	40.845	71	41	1	886	956	833	902	1.85e-06	51.6
AAH73964.1	XP_002164997.2	31.818	66	45	0	891	956	56	121	0.021	37.7
AAH73964.1	XP_012561821.1	32.075	53	35	1	887	939	343	394	0.18	35.0
AAH73964.1	XP_012557203.1	31.667	60	38	1	896	955	554	610	0.29	34.7
AAH73964.1	XP_012557203.1	28.571	63	40	3	886	947	628	686	5.1	30.4
AAH73964.1	XP_002155304.2	29.231	65	37	3	695	757	160	217	0.83	33.1
AAH73964.1	XP_012555705.1	25.000	92	67	1	1	92	313	402	1.5	32.3
AAH73964.1	XP_012555706.1	25.000	92	67	1	1	92	313	402	1.5	32.3
AAH73964.1	XP_002159813.1	26.190	84	58	1	429	512	400	479	3.1	31.2
AAH73964.1	XP_012566655.1	23.622	127	87	4	695	819	113	231	4.1	30.4
AAH73964.1	XP_012559867.1	29.508	61	33	1	340	390	1189	1249	5.4	30.4
AAH73964.1	XP_012562660.1	19.841	126	84	4	291	406	4475	4593	9.4	29.6
AAH73964.1	XP_002163418.3	22.449	98	75	1	337	433	3159	3256	9.7	29.6
