AAI44122.1	m.249620	30.657	137	74	6	708	829	133	263	0.001	42.0
AAI44122.1	m.196348	33.333	60	39	1	761	820	53	111	0.029	37.0
AAI44122.1	m.256181	53.846	26	12	0	228	253	131	156	0.74	31.6
AAI44122.1	m.18212	33.766	77	46	2	204	277	425	499	3.5	30.4
AAI44122.1	m.86969	23.622	127	87	2	332	457	52	169	6.5	29.3
AAI44122.1	m.9145	40.909	44	26	0	390	433	117	160	7.5	28.9
