AAI44122.1	m.91810	31.429	70	47	1	759	828	43	111	0.050	36.2
AAI44122.1	m.95723	37.037	54	31	1	758	811	306	356	0.29	33.5
AAI44122.1	m.95738	37.037	54	31	1	758	811	25	75	0.33	32.0
AAI44122.1	m.6374	27.273	55	39	1	758	812	6	59	1.2	32.0
AAI44122.1	m.56753	38.462	39	23	1	304	342	258	295	2.1	30.8
AAI44122.1	m.90067	28.736	87	46	3	138	220	2494	2568	3.3	30.4
AAI44122.1	m.84374	40.909	44	19	2	700	736	54	97	4.5	28.9
AAI44122.1	m.225657	28.125	64	46	0	197	260	317	380	7.0	29.3
AAI44122.1	m.7318	32.203	59	39	1	82	139	85	143	7.1	28.5
AAI44122.1	m.225395	28.125	64	46	0	197	260	290	353	8.4	28.9
AAI44122.1	m.149544	27.500	80	46	3	758	827	74	151	8.6	28.5
AAI44122.1	m.225419	28.125	64	46	0	197	260	294	357	9.4	28.9
