AAI44122.1	scpid92276|	24.194	248	139	7	613	820	130	368	4.02e-10	63.5
AAI44122.1	scpid92276|	63.158	19	7	0	540	558	21	39	2.4	32.3
AAI44122.1	scpid23244|	43.939	66	36	1	763	828	1036	1100	6.95e-09	60.5
AAI44122.1	scpid23244|	40.541	37	20	2	607	641	39	75	0.98	33.9
AAI44122.1	scpid55889|	34.783	69	44	1	760	828	374	441	2.10e-08	58.2
AAI44122.1	scpid41679|	38.889	72	43	1	757	828	898	968	4.91e-08	57.4
AAI44122.1	scpid41679|	44.828	29	15	1	614	641	164	192	6.7	31.2
AAI44122.1	scpid40985|	38.889	72	43	1	757	828	909	979	4.93e-08	57.4
AAI44122.1	scpid40985|	44.828	29	15	1	614	641	164	192	6.7	31.2
AAI44122.1	scpid40697|	38.889	72	43	1	757	828	913	983	6.16e-08	57.4
AAI44122.1	scpid40059|	38.889	72	43	1	757	828	924	994	6.50e-08	57.0
AAI44122.1	scpid68366|	35.294	68	43	1	756	822	449	516	2.68e-05	48.5
AAI44122.1	scpid68366|	38.710	31	19	0	612	642	250	280	4.3	31.6
AAI44122.1	scpid82657|	31.746	63	41	2	750	812	445	505	0.25	35.4
AAI44122.1	scpid30656|	26.984	126	53	5	224	335	172	272	7.4	30.8
