AAI44122.1	m.311052	28.041	296	142	11	539	828	18	248	9.29e-14	71.6
AAI44122.1	m.78950	35.294	119	66	3	712	830	270	377	3.82e-13	71.6
AAI44122.1	m.27369	40.000	70	41	1	759	828	339	407	9.78e-11	64.3
AAI44122.1	m.14233	43.284	67	37	1	763	829	902	967	3.71e-09	60.1
AAI44122.1	m.126548	31.250	64	43	1	765	828	1473	1535	0.14	35.4
AAI44122.1	m.158210	36.170	47	29	1	760	806	5393	5438	0.94	32.7
AAI44122.1	m.3346	42.500	40	23	0	788	827	55	94	1.5	30.0
AAI44122.1	m.12112	26.984	63	44	2	766	827	788	849	1.7	32.0
AAI44122.1	m.161900	28.090	89	49	3	454	541	892	966	1.8	31.6
AAI44122.1	m.83134	22.727	66	51	0	631	696	405	470	4.8	30.4
AAI44122.1	m.761	23.636	110	53	4	556	647	470	566	5.3	30.0
AAI44122.1	m.301157	31.507	73	34	3	191	248	5166	5237	6.4	30.0
