AAI44122.1	m.63883	45.714	35	19	0	649	683	66	100	0.43	31.6
AAI44122.1	m.234511	35.897	39	24	1	757	795	17	54	0.43	33.5
AAI44122.1	m.125306	29.630	81	42	2	197	272	77	147	4.6	29.3
AAI44122.1	m.12729	34.831	89	54	3	293	378	817	904	6.8	29.6
AAI44122.1	m.5789	31.429	70	47	1	759	828	540	608	6.8	30.0
AAI44122.1	m.131984	44.828	29	16	0	767	795	51	79	7.4	29.6
