AAI44122.1	XP_028393778.1	30.068	296	152	10	537	828	9	253	9.25e-23	99.4
AAI44122.1	XP_028393777.1	29.766	299	152	11	537	828	9	256	4.17e-21	94.4
AAI44122.1	XP_028394259.1	51.562	64	31	0	765	828	499	562	5.55e-16	82.4
AAI44122.1	XP_028398470.1	40.385	104	58	3	729	830	321	422	1.41e-13	73.9
AAI44122.1	XP_028404723.1	46.377	69	36	1	760	828	405	472	1.87e-10	64.3
AAI44122.1	XP_028402346.1	49.153	59	29	1	766	824	826	883	3.99e-09	60.8
AAI44122.1	XP_028402346.1	39.286	28	17	0	614	641	154	181	1.4	33.1
AAI44122.1	XP_028402345.1	49.153	59	29	1	766	824	827	884	4.13e-09	60.8
AAI44122.1	XP_028402345.1	39.286	28	17	0	614	641	154	181	1.4	33.1
AAI44122.1	XP_028402344.1	49.153	59	29	1	766	824	827	884	4.13e-09	60.8
AAI44122.1	XP_028402344.1	39.286	28	17	0	614	641	154	181	1.4	33.1
AAI44122.1	XP_028409566.1	44.118	68	37	1	761	828	628	694	9.95e-09	59.3
AAI44122.1	XP_028409565.1	44.118	68	37	1	761	828	658	724	1.14e-08	59.3
AAI44122.1	XP_028395289.1	46.479	71	37	1	758	828	1751	1820	7.17e-08	57.0
AAI44122.1	XP_028400132.1	41.304	46	22	2	606	648	125	168	0.006	40.4
AAI44122.1	XP_028400130.1	41.304	46	22	2	606	648	125	168	0.009	40.0
AAI44122.1	XP_028400131.1	41.304	46	22	2	606	648	99	142	0.010	40.0
AAI44122.1	XP_028392389.1	32.258	62	40	2	766	827	9	68	0.013	38.9
AAI44122.1	XP_028413638.1	32.258	62	40	2	766	827	9	68	0.018	38.9
AAI44122.1	XP_028397135.1	32.258	62	40	2	766	827	9	68	0.022	38.5
AAI44122.1	XP_028414671.1	32.258	62	40	2	766	827	9	68	0.023	38.5
AAI44122.1	XP_028399973.1	32.258	62	40	2	766	827	9	68	0.029	38.1
AAI44122.1	XP_028418060.1	32.258	62	40	2	766	827	9	68	0.031	38.1
AAI44122.1	XP_028417239.1	32.258	62	40	2	766	827	9	68	0.031	38.1
AAI44122.1	XP_028416373.1	40.000	50	29	1	499	548	449	497	0.086	37.0
AAI44122.1	XP_028391350.1	38.000	50	27	2	780	829	579	624	1.1	33.1
AAI44122.1	XP_028413398.1	36.735	49	29	2	766	813	9	56	2.1	32.3
AAI44122.1	XP_028410482.1	30.088	113	55	6	203	296	12418	12525	3.5	32.0
AAI44122.1	XP_028410482.1	22.727	176	101	7	408	571	12388	12540	7.8	30.8
AAI44122.1	XP_028410478.1	30.088	113	55	6	203	296	12261	12368	3.5	32.0
AAI44122.1	XP_028410478.1	22.727	176	101	7	408	571	12231	12383	7.8	30.8
AAI44122.1	XP_028410472.1	30.088	113	55	6	203	296	12418	12525	3.5	32.0
AAI44122.1	XP_028410472.1	22.727	176	101	7	408	571	12388	12540	7.8	30.8
AAI44122.1	XP_028395686.1	34.043	47	31	0	499	545	1686	1732	6.3	30.8
