AAI31773.1	maker-SC_scaffold10708-snap-gene-0.13-mRNA-1	44.118	68	38	0	915	982	597	664	7.92e-13	71.6
AAI31773.1	snap_masked-SC_scaffold78-processed-gene-0.1-mRNA-1	42.857	63	35	1	919	981	18	79	7.37e-11	58.9
AAI31773.1	maker-SC_scaffold5347-augustus-gene-0.153-mRNA-1	31.915	94	63	1	889	982	414	506	1.74e-10	63.9
AAI31773.1	maker-SC_scaffold6310-augustus-gene-0.10-mRNA-1	38.356	73	44	1	909	981	377	448	4.52e-08	55.8
AAI31773.1	maker-SC_scaffold105997-snap-gene-0.3-mRNA-1	35.593	59	36	2	919	976	63	120	0.013	36.2
AAI31773.1	maker-SC_scaffold39962-augustus-gene-0.10-mRNA-1	25.532	94	68	2	86	178	2	94	2.3	30.0
AAI31773.1	maker-SC_scaffold92816-snap-gene-0.25-mRNA-1	48.000	25	11	1	351	373	57	81	2.3	29.3
AAI31773.1	maker-SC_scaffold937-snap-gene-0.4-mRNA-1	23.841	151	81	6	840	981	130	255	4.5	30.0
AAI31773.1	maker-SC_scaffold143252-snap-gene-0.42-mRNA-1	34.043	47	30	1	723	768	228	274	4.7	30.0
AAI31773.1	maker-SC_scaffold1642-snap-gene-0.9-mRNA-1	27.119	118	76	4	114	231	26	133	6.8	29.6
AAI31773.1	snap_masked-SC_scaffold54579-processed-gene-0.15-mRNA-1	55.000	20	9	0	935	954	26	45	8.6	29.3
AAI31773.1	maker-SC_scaffold2793-snap-gene-0.5-mRNA-1	39.394	33	20	0	924	956	108	140	8.8	28.1
