AAI31773.1	XP_014158797.1	36.508	63	39	1	919	981	119	180	0.017	36.6
AAI31773.1	XP_014156351.1	32.258	31	21	0	778	808	269	299	0.19	34.3
AAI31773.1	XP_014155272.1	32.812	64	40	2	917	977	935	998	0.54	33.1
AAI31773.1	XP_014152911.1	32.353	34	23	0	338	371	127	160	3.0	29.6
AAI31773.1	XP_014150973.1	35.185	54	35	0	344	397	1202	1255	5.3	29.6
AAI31773.1	XP_014161768.1	39.130	46	28	0	575	620	557	602	6.9	29.3
