AAI31773.1	XP_001629910.2	30.263	304	145	11	700	981	26	284	1.30e-26	111
AAI31773.1	XP_032223466.1	56.250	64	28	0	919	982	457	520	2.97e-15	80.5
AAI31773.1	XP_032223465.1	56.250	64	28	0	919	982	575	638	4.28e-15	80.1
AAI31773.1	XP_032223464.1	56.250	64	28	0	919	982	645	708	5.23e-15	80.1
AAI31773.1	XP_001617912.2	42.188	64	36	1	919	982	75	137	7.20e-11	61.6
AAI31773.1	XP_032234511.1	45.588	68	36	1	914	981	1543	1609	1.25e-09	63.2
AAI31773.1	XP_032234510.1	45.588	68	36	1	914	981	1543	1609	1.25e-09	63.2
AAI31773.1	XP_032234512.1	45.588	68	36	1	914	981	1542	1608	1.30e-09	63.2
AAI31773.1	XP_032236032.1	52.459	61	28	1	917	977	1106	1165	1.59e-09	62.8
AAI31773.1	XP_032236032.1	42.424	33	19	0	779	811	385	417	0.025	39.3
AAI31773.1	XP_032238163.1	44.595	74	39	2	911	983	18	90	1.55e-08	53.5
AAI31773.1	XP_032230517.1	47.273	55	28	1	919	973	838	891	2.88e-08	58.5
AAI31773.1	XP_032230518.1	47.368	57	29	1	917	973	812	867	2.98e-08	58.2
AAI31773.1	XP_032238213.1	44.595	74	39	2	911	983	783	855	3.33e-08	58.2
AAI31773.1	XP_032242215.1	43.478	69	38	1	915	983	974	1041	5.47e-08	57.4
AAI31773.1	XP_032242215.1	50.000	44	21	1	782	824	149	192	1.73e-05	49.3
AAI31773.1	XP_001630217.2	39.683	63	37	1	919	981	866	927	1.54e-07	55.8
AAI31773.1	XP_032236029.1	50.877	57	27	1	917	973	909	964	2.29e-07	55.5
AAI31773.1	XP_032236029.1	55.172	29	13	0	780	808	225	253	4.82e-04	44.7
AAI31773.1	XP_001635968.2	39.394	66	39	1	915	980	397	461	4.10e-07	54.3
AAI31773.1	XP_001635967.2	38.806	67	40	1	915	981	128	193	4.20e-07	52.0
AAI31773.1	XP_032230850.1	27.434	113	76	2	863	973	9	117	0.004	40.8
AAI31773.1	XP_032235571.1	33.333	66	41	2	919	983	319	382	0.004	41.2
AAI31773.1	XP_032235570.1	33.333	66	41	2	919	983	319	382	0.004	41.2
AAI31773.1	XP_032235569.1	33.333	66	41	2	919	983	319	382	0.004	41.2
AAI31773.1	XP_032230853.1	39.655	58	33	2	917	973	32	88	0.006	40.0
AAI31773.1	XP_032230852.1	37.931	58	34	2	917	973	34	90	0.024	38.1
AAI31773.1	XP_032230851.1	37.500	64	38	2	911	973	37	99	0.031	37.7
AAI31773.1	XP_032219626.1	31.707	82	45	3	584	656	3215	3294	0.28	35.8
AAI31773.1	XP_032240887.1	25.126	199	109	9	291	476	503	674	9.7	30.8
