AAI31773.1	m.5426	29.085	306	135	15	704	980	31	283	2.23e-19	89.4
AAI31773.1	m.98980	43.750	64	36	0	919	982	147	210	2.73e-11	63.9
AAI31773.1	m.98975	43.750	64	36	0	919	982	107	170	3.68e-11	62.4
AAI31773.1	m.98977	43.750	64	36	0	919	982	315	378	3.83e-11	65.5
AAI31773.1	m.98976	43.750	64	36	0	919	982	337	400	4.17e-11	65.5
AAI31773.1	m.98988	43.750	64	36	0	919	982	320	383	2.03e-10	63.5
AAI31773.1	m.286108	41.667	72	41	1	909	980	312	382	1.72e-09	60.5
AAI31773.1	m.60457	34.848	66	39	2	916	980	206	268	8.15e-05	45.1
AAI31773.1	m.128030	41.463	41	23	1	919	959	148	187	0.38	33.5
AAI31773.1	m.36901	38.235	68	38	2	353	420	90	153	0.85	33.1
AAI31773.1	m.88537	39.130	46	23	1	762	807	7	47	2.1	31.6
AAI31773.1	m.36813	28.302	53	38	0	919	971	30	82	4.1	29.6
AAI31773.1	m.58551	32.727	55	32	2	856	909	352	402	4.7	30.4
AAI31773.1	m.42388	26.699	206	125	6	59	240	1822	2025	6.3	30.4
AAI31773.1	m.38169	25.581	129	84	2	853	981	20	136	6.3	29.6
AAI31773.1	m.28308	42.857	49	20	2	750	798	47	87	6.6	30.0
