AAI31773.1	m.72510	33.333	66	43	1	916	981	221	285	0.002	41.2
AAI31773.1	m.146173	37.500	64	39	1	917	980	143	205	0.007	39.7
AAI31773.1	m.59031	36.066	61	38	1	922	982	294	353	0.11	35.8
AAI31773.1	m.179399	32.308	65	42	1	919	981	175	239	0.22	34.3
AAI31773.1	m.59023	36.066	61	38	1	922	982	294	353	0.22	34.7
AAI31773.1	m.194258	39.024	41	24	1	919	959	14	53	1.3	29.6
AAI31773.1	m.281411	32.727	55	34	2	919	973	841	892	2.3	31.6
AAI31773.1	m.321248	42.500	40	22	1	912	951	242	280	2.9	30.8
AAI31773.1	m.26994	32.203	59	33	4	910	965	10	64	3.1	30.8
AAI31773.1	m.326334	28.986	69	48	1	915	982	20	88	3.4	30.8
AAI31773.1	m.107037	26.220	164	87	7	430	591	36	167	4.7	30.8
AAI31773.1	m.158570	28.125	64	46	0	719	782	31	94	5.4	30.4
AAI31773.1	m.77618	39.024	41	24	1	919	959	168	207	5.5	30.4
AAI31773.1	m.30264	36.364	77	44	3	908	981	189	263	6.1	30.0
AAI31773.1	m.21548	26.966	89	57	2	120	200	6	94	7.2	29.6
AAI31773.1	m.228791	32.500	40	26	1	912	951	28	66	7.5	29.3
