AAI31773.1	NP_180635.3	26.506	83	53	3	865	940	170	251	5.3	31.2
AAI31773.1	NP_001190804.1	25.899	139	99	3	156	292	2036	2172	8.5	30.8
AAI31773.1	NP_194028.2	25.899	139	99	3	156	292	2039	2175	8.5	30.8
AAI31773.1	NP_001328112.1	25.899	139	99	3	156	292	2040	2176	8.6	30.8
