sp|Q99496|RING2_HUMAN	NP_013348.1	44.186	43	22	2	49	91	1237	1277	4.59e-04	40.0
sp|Q99496|RING2_HUMAN	NP_010209.1	37.500	48	29	1	49	96	646	692	0.002	37.7
sp|Q99496|RING2_HUMAN	NP_009992.1	43.478	46	24	2	45	90	22	65	0.011	35.4
sp|Q99496|RING2_HUMAN	NP_013975.1	24.324	111	65	5	5	98	1454	1562	0.012	35.4
sp|Q99496|RING2_HUMAN	NP_013132.1	32.787	61	30	3	49	100	912	970	0.037	33.9
sp|Q99496|RING2_HUMAN	NP_012864.1	25.806	93	61	3	15	103	255	343	0.038	33.5
sp|Q99496|RING2_HUMAN	NP_010748.3	34.091	44	24	1	50	88	12	55	0.040	33.5
sp|Q99496|RING2_HUMAN	NP_013427.1	25.974	77	46	4	17	92	172	238	0.44	30.0
sp|Q99496|RING2_HUMAN	NP_014917.3	32.955	88	48	3	236	322	320	397	0.48	30.0
sp|Q99496|RING2_HUMAN	NP_013739.1	31.111	45	30	1	51	95	334	377	2.4	27.7
sp|Q99496|RING2_HUMAN	NP_010896.3	30.508	59	39	2	48	104	181	239	4.2	26.9
sp|Q99496|RING2_HUMAN	NP_014416.1	25.926	108	63	5	145	250	11	103	4.5	26.9
sp|Q99496|RING2_HUMAN	NP_014799.1	30.000	50	30	2	49	94	336	384	5.5	26.9
sp|Q99496|RING2_HUMAN	NP_014026.1	42.308	26	15	0	233	258	380	405	6.1	26.6
sp|Q99496|RING2_HUMAN	NP_015069.1	37.500	40	25	0	128	167	168	207	8.8	26.2
sp|Q99496|RING2_HUMAN	NP_012668.3	32.759	58	36	1	235	292	277	331	9.0	26.2
