sp|Q99496|RING2_HUMAN	m.146848	43.827	162	80	3	19	176	39	193	1.07e-39	140
sp|Q99496|RING2_HUMAN	m.104002	45.455	143	76	2	16	158	29	169	2.59e-37	135
sp|Q99496|RING2_HUMAN	m.94663	34.615	52	33	1	42	93	134	184	6.13e-06	47.0
sp|Q99496|RING2_HUMAN	m.149924	42.857	63	31	3	50	109	430	490	1.74e-05	45.8
sp|Q99496|RING2_HUMAN	m.28796	31.522	92	45	4	50	138	38	114	1.75e-05	44.7
sp|Q99496|RING2_HUMAN	m.94888	32.692	52	34	1	43	94	712	762	1.84e-05	45.8
sp|Q99496|RING2_HUMAN	m.98363	32.394	71	44	2	49	116	68	137	3.11e-05	44.3
sp|Q99496|RING2_HUMAN	m.98363	33.333	36	19	1	247	277	216	251	7.7	27.7
sp|Q99496|RING2_HUMAN	m.62101	39.286	56	33	1	43	98	111	165	4.89e-05	44.3
sp|Q99496|RING2_HUMAN	m.103580	39.130	69	38	3	44	110	73	139	8.95e-05	43.1
sp|Q99496|RING2_HUMAN	m.77862	32.353	68	44	2	50	116	303	369	3.45e-04	41.6
sp|Q99496|RING2_HUMAN	m.148646	39.623	53	30	2	42	94	57	107	4.30e-04	41.2
sp|Q99496|RING2_HUMAN	m.8823	39.535	43	24	1	51	93	31	71	0.001	39.3
sp|Q99496|RING2_HUMAN	m.250867	32.787	61	35	2	34	94	1180	1234	0.001	40.0
sp|Q99496|RING2_HUMAN	m.124765	33.333	51	33	1	45	95	72	121	0.001	39.3
sp|Q99496|RING2_HUMAN	m.50301	31.915	94	53	4	32	125	94	176	0.003	38.9
sp|Q99496|RING2_HUMAN	m.156762	36.000	50	31	1	43	91	945	994	0.009	37.4
sp|Q99496|RING2_HUMAN	m.164485	36.000	50	29	2	44	91	81	129	0.010	37.0
sp|Q99496|RING2_HUMAN	m.23910	28.182	110	64	5	45	147	28	129	0.015	35.8
sp|Q99496|RING2_HUMAN	m.27338	34.694	49	31	1	43	91	12	59	0.018	36.2
sp|Q99496|RING2_HUMAN	m.46412	32.609	46	29	2	49	94	87	130	0.019	35.4
sp|Q99496|RING2_HUMAN	m.236619	34.783	46	26	2	51	94	3586	3629	0.028	35.8
sp|Q99496|RING2_HUMAN	m.89164	32.353	68	34	2	31	92	3	64	0.030	33.9
sp|Q99496|RING2_HUMAN	m.193201	24.286	140	94	3	116	254	1371	1499	0.032	35.4
sp|Q99496|RING2_HUMAN	m.24195	36.364	44	24	1	51	90	11	54	0.055	34.7
sp|Q99496|RING2_HUMAN	m.30329	35.185	54	33	2	49	102	124	175	0.071	34.3
sp|Q99496|RING2_HUMAN	m.54057	37.736	53	29	2	45	94	279	330	0.073	33.9
sp|Q99496|RING2_HUMAN	m.177258	31.915	47	27	1	47	93	55	96	0.077	33.5
sp|Q99496|RING2_HUMAN	m.115413	37.500	48	22	2	50	90	326	372	0.091	33.9
sp|Q99496|RING2_HUMAN	m.238245	33.333	48	30	1	47	92	302	349	0.10	33.5
sp|Q99496|RING2_HUMAN	m.49846	28.846	52	36	1	44	94	12	63	0.39	32.0
sp|Q99496|RING2_HUMAN	m.24331	31.250	48	29	3	50	94	349	395	0.51	31.6
sp|Q99496|RING2_HUMAN	m.86801	31.915	47	29	2	49	94	200	244	0.72	31.2
sp|Q99496|RING2_HUMAN	m.173179	31.579	57	32	3	39	92	153	205	0.98	30.8
sp|Q99496|RING2_HUMAN	m.78895	34.615	52	31	3	51	101	269	318	1.0	30.4
sp|Q99496|RING2_HUMAN	m.224155	32.787	61	35	2	256	313	390	447	1.2	30.4
sp|Q99496|RING2_HUMAN	m.225465	26.804	97	56	3	48	135	3824	3914	1.8	30.0
sp|Q99496|RING2_HUMAN	m.245333	33.333	48	23	2	51	94	4200	4242	3.0	29.3
sp|Q99496|RING2_HUMAN	m.27272	29.348	92	43	5	49	128	14	95	3.8	27.7
sp|Q99496|RING2_HUMAN	m.9455	40.000	30	18	0	71	100	100	129	3.9	28.5
sp|Q99496|RING2_HUMAN	m.153190	31.250	48	26	2	51	91	1842	1889	3.9	28.9
sp|Q99496|RING2_HUMAN	m.105824	38.298	47	24	4	51	95	644	687	4.9	28.5
sp|Q99496|RING2_HUMAN	m.138973	29.412	34	24	0	49	82	39	72	5.1	28.5
sp|Q99496|RING2_HUMAN	m.203676	32.857	70	45	2	60	129	98	165	5.8	28.1
sp|Q99496|RING2_HUMAN	m.21796	27.551	98	43	6	50	130	229	315	5.9	28.1
sp|Q99496|RING2_HUMAN	m.69227	32.432	37	25	0	232	268	551	587	6.1	28.1
sp|Q99496|RING2_HUMAN	m.4979	27.027	74	46	2	54	127	520	585	7.0	28.1
sp|Q99496|RING2_HUMAN	m.14857	42.105	38	20	2	103	140	181	216	8.2	27.7
