sp|Q06587|RING1_HUMAN	XP_002108615.1	73.973	146	38	0	15	160	1	146	4.69e-78	236
sp|Q06587|RING1_HUMAN	XP_002117642.1	32.632	95	58	4	21	111	3	95	1.63e-06	45.1
sp|Q06587|RING1_HUMAN	XP_002114733.1	44.444	54	24	3	46	94	118	170	9.65e-06	44.7
sp|Q06587|RING1_HUMAN	XP_002114614.1	34.568	81	49	2	46	123	14	93	3.42e-05	43.5
sp|Q06587|RING1_HUMAN	XP_002109891.1	30.682	88	56	4	23	109	25	108	2.37e-04	42.0
sp|Q06587|RING1_HUMAN	XP_002111243.1	26.506	83	57	2	33	112	3	84	6.01e-04	39.3
sp|Q06587|RING1_HUMAN	XP_002117834.1	43.478	46	24	2	45	90	225	268	0.002	38.9
sp|Q06587|RING1_HUMAN	XP_002114795.1	26.829	82	56	2	40	118	6	86	0.002	38.1
sp|Q06587|RING1_HUMAN	XP_002113932.1	46.429	28	15	0	64	91	25	52	0.008	37.0
sp|Q06587|RING1_HUMAN	XP_002110348.1	37.288	59	32	3	36	91	181	237	0.010	36.2
sp|Q06587|RING1_HUMAN	XP_002109608.1	32.759	58	31	1	41	90	1186	1243	0.023	35.8
sp|Q06587|RING1_HUMAN	XP_002114236.1	35.417	48	26	2	48	91	87	133	0.032	34.7
sp|Q06587|RING1_HUMAN	XP_002115187.1	35.556	45	27	2	47	91	176	218	0.038	34.3
sp|Q06587|RING1_HUMAN	XP_002113939.1	29.688	64	38	2	34	91	235	297	0.058	33.9
sp|Q06587|RING1_HUMAN	XP_002108239.1	25.490	102	53	4	48	126	280	381	0.13	33.1
sp|Q06587|RING1_HUMAN	XP_002115875.1	39.130	46	24	2	48	89	34	79	0.19	30.4
sp|Q06587|RING1_HUMAN	XP_002109650.1	37.500	56	33	2	44	97	105	160	0.37	31.6
sp|Q06587|RING1_HUMAN	XP_002116960.1	27.273	55	37	2	47	99	27	80	0.92	29.6
sp|Q06587|RING1_HUMAN	XP_002113584.1	23.881	67	36	2	65	116	23	89	1.4	29.3
sp|Q06587|RING1_HUMAN	XP_002117466.1	32.500	40	26	1	48	87	566	604	1.5	29.6
sp|Q06587|RING1_HUMAN	XP_002107666.1	29.787	47	31	1	47	91	221	267	1.5	29.3
sp|Q06587|RING1_HUMAN	XP_002113156.1	29.787	47	30	1	46	89	1	47	2.1	29.3
sp|Q06587|RING1_HUMAN	XP_002112826.1	44.000	25	14	0	310	334	877	901	5.1	28.1
sp|Q06587|RING1_HUMAN	XP_002113634.1	40.000	40	23	1	48	86	22	61	5.8	27.7
sp|Q06587|RING1_HUMAN	XP_002116583.1	32.353	34	20	1	58	88	25	58	6.1	27.3
sp|Q06587|RING1_HUMAN	XP_002107658.1	36.585	41	24	2	46	86	10	48	8.6	27.3
sp|Q06587|RING1_HUMAN	XP_002115433.1	26.923	52	31	2	48	93	25	75	9.2	27.3
