sp|Q06587|RING1_HUMAN	XP_004995828.1	41.358	162	90	2	8	169	3	159	5.93e-34	126
sp|Q06587|RING1_HUMAN	XP_004995496.1	43.262	141	79	1	15	155	4	143	7.56e-32	122
sp|Q06587|RING1_HUMAN	XP_004989461.1	31.731	104	67	2	25	125	314	416	9.39e-11	62.8
sp|Q06587|RING1_HUMAN	XP_004989461.1	47.826	23	12	0	283	305	497	519	1.6	30.0
sp|Q06587|RING1_HUMAN	XP_004989731.1	48.889	45	20	2	47	91	4874	4915	8.43e-06	47.4
sp|Q06587|RING1_HUMAN	XP_004997949.1	41.463	41	23	1	48	88	135	174	1.41e-05	46.6
sp|Q06587|RING1_HUMAN	XP_004990757.1	31.944	72	48	1	45	116	342	412	2.09e-05	46.2
sp|Q06587|RING1_HUMAN	XP_004989812.1	46.667	45	21	2	47	91	4558	4599	3.60e-05	45.4
sp|Q06587|RING1_HUMAN	XP_004991042.1	47.727	44	20	2	48	91	4303	4343	9.36e-05	44.3
sp|Q06587|RING1_HUMAN	XP_004990562.1	34.000	50	32	1	42	91	581	629	1.14e-04	43.5
sp|Q06587|RING1_HUMAN	XP_004997812.1	32.258	93	56	4	44	133	690	778	2.34e-04	42.7
sp|Q06587|RING1_HUMAN	XP_004994505.1	37.037	54	28	1	42	89	9	62	2.57e-04	39.7
sp|Q06587|RING1_HUMAN	XP_004998238.1	35.821	67	39	3	46	110	15	79	3.50e-04	42.0
sp|Q06587|RING1_HUMAN	XP_004989948.1	39.286	56	31	3	44	99	80	132	7.76e-04	40.0
sp|Q06587|RING1_HUMAN	XP_004998507.1	30.263	76	48	3	41	112	46	120	0.001	40.0
sp|Q06587|RING1_HUMAN	XP_004998000.1	39.130	46	23	1	48	93	351	391	0.002	39.7
sp|Q06587|RING1_HUMAN	XP_004996950.1	33.333	69	43	2	42	108	310	377	0.002	39.3
sp|Q06587|RING1_HUMAN	XP_004992291.1	40.476	42	24	1	48	89	23	63	0.002	39.3
sp|Q06587|RING1_HUMAN	XP_004989339.1	35.185	54	31	2	50	100	420	472	0.003	38.9
sp|Q06587|RING1_HUMAN	XP_004993285.1	29.231	65	43	3	46	110	434	495	0.004	38.5
sp|Q06587|RING1_HUMAN	XP_004988240.1	30.120	83	51	4	45	122	313	393	0.011	37.4
sp|Q06587|RING1_HUMAN	XP_004989936.1	35.000	60	35	3	47	104	361	418	0.015	36.6
sp|Q06587|RING1_HUMAN	XP_004998268.1	30.612	49	31	2	44	91	64	110	0.016	36.6
sp|Q06587|RING1_HUMAN	XP_004998535.1	34.375	64	34	3	41	102	83	140	0.021	36.2
sp|Q06587|RING1_HUMAN	XP_004993216.1	30.000	50	29	2	45	89	875	923	0.035	35.8
sp|Q06587|RING1_HUMAN	XP_004996157.1	33.333	45	28	2	46	90	276	318	0.043	35.0
sp|Q06587|RING1_HUMAN	XP_004997126.1	27.869	61	35	2	60	120	159	210	0.14	33.1
sp|Q06587|RING1_HUMAN	XP_004997145.1	27.869	61	35	2	60	120	154	205	0.18	32.7
sp|Q06587|RING1_HUMAN	XP_004995179.1	30.357	56	37	1	181	234	2230	2285	0.24	33.1
sp|Q06587|RING1_HUMAN	XP_004994120.1	30.000	60	40	2	40	98	1379	1437	0.25	33.1
sp|Q06587|RING1_HUMAN	XP_004996392.1	34.884	43	27	1	48	89	35	77	0.26	30.4
sp|Q06587|RING1_HUMAN	XP_004993132.1	28.169	71	30	3	47	100	1537	1603	0.37	32.3
sp|Q06587|RING1_HUMAN	XP_004989982.1	35.849	53	30	2	42	91	399	450	0.38	32.3
sp|Q06587|RING1_HUMAN	XP_004991282.1	35.417	48	30	1	45	91	27	74	0.76	31.2
sp|Q06587|RING1_HUMAN	XP_004990160.1	22.989	174	112	5	90	260	187	341	0.77	31.2
sp|Q06587|RING1_HUMAN	XP_004991218.1	30.579	121	72	5	145	258	4915	5030	1.1	31.2
sp|Q06587|RING1_HUMAN	XP_004996126.1	26.087	92	63	2	204	290	1207	1298	1.2	30.8
sp|Q06587|RING1_HUMAN	XP_004995309.1	35.714	28	18	0	46	73	31	58	1.3	30.8
sp|Q06587|RING1_HUMAN	XP_004998821.1	40.000	30	18	0	98	127	171	200	1.8	30.0
sp|Q06587|RING1_HUMAN	XP_004991433.1	38.983	59	31	2	192	245	1399	1457	2.9	29.6
sp|Q06587|RING1_HUMAN	XP_004996237.1	30.667	75	48	4	46	120	28	98	4.2	28.5
sp|Q06587|RING1_HUMAN	XP_004989406.1	43.590	39	19	1	310	348	775	810	4.4	28.9
sp|Q06587|RING1_HUMAN	XP_004989830.1	63.636	22	8	0	318	339	1149	1170	5.2	28.9
sp|Q06587|RING1_HUMAN	XP_004996596.1	27.778	108	62	5	103	200	2468	2569	5.3	28.9
sp|Q06587|RING1_HUMAN	XP_004995233.1	23.077	78	52	2	131	205	532	604	7.3	28.1
sp|Q06587|RING1_HUMAN	XP_004991221.1	25.000	56	37	2	45	98	1146	1198	7.8	28.1
sp|Q06587|RING1_HUMAN	XP_004995339.1	33.333	54	36	0	102	155	955	1008	8.2	28.1
sp|Q06587|RING1_HUMAN	XP_004988521.1	25.000	92	64	2	204	290	675	766	9.3	27.7
sp|Q06587|RING1_HUMAN	XP_004991750.1	29.508	61	37	1	202	262	1400	1454	9.6	27.7
