sp|Q99496|RING2_HUMAN	m.59066	48.101	158	79	3	15	171	14	169	8.31e-45	157
sp|Q99496|RING2_HUMAN	m.24574	47.482	139	67	3	19	155	25	159	1.04e-36	129
sp|Q99496|RING2_HUMAN	m.160853	23.746	299	152	10	34	331	23	246	6.36e-12	63.9
sp|Q99496|RING2_HUMAN	m.4824	43.478	46	25	1	45	90	663	707	1.21e-06	49.3
sp|Q99496|RING2_HUMAN	m.59264	33.333	66	40	2	34	96	9	73	2.41e-05	43.5
sp|Q99496|RING2_HUMAN	m.249355	34.483	58	35	3	34	91	13	67	4.23e-05	40.4
sp|Q99496|RING2_HUMAN	m.41739	35.484	62	38	2	49	110	26	85	7.07e-05	42.7
sp|Q99496|RING2_HUMAN	m.203421	37.255	51	30	1	48	96	183	233	2.44e-04	42.0
sp|Q99496|RING2_HUMAN	m.154829	33.333	66	36	3	45	103	46	110	2.46e-04	40.4
sp|Q99496|RING2_HUMAN	m.138678	39.535	43	24	2	51	92	83	124	4.14e-04	41.2
sp|Q99496|RING2_HUMAN	m.26245	47.368	38	19	1	51	88	10	46	4.59e-04	40.8
sp|Q99496|RING2_HUMAN	m.51348	31.765	85	50	4	38	119	10	89	6.01e-04	40.4
sp|Q99496|RING2_HUMAN	m.155763	28.926	121	68	4	51	158	23	138	0.001	39.7
sp|Q99496|RING2_HUMAN	m.17438	33.333	63	40	2	48	110	5	65	0.004	38.1
sp|Q99496|RING2_HUMAN	m.53026	39.535	43	25	1	49	91	73	114	0.004	38.1
sp|Q99496|RING2_HUMAN	m.247174	38.636	44	25	2	51	94	126	167	0.004	37.0
sp|Q99496|RING2_HUMAN	m.240659	28.261	92	57	3	9	92	27	117	0.004	37.4
sp|Q99496|RING2_HUMAN	m.127118	43.902	41	21	2	51	91	222	260	0.004	37.4
sp|Q99496|RING2_HUMAN	m.220294	37.705	61	30	4	34	90	216	272	0.020	35.8
sp|Q99496|RING2_HUMAN	m.26855	26.374	91	56	3	49	136	343	425	0.036	35.0
sp|Q99496|RING2_HUMAN	m.72476	32.353	68	40	2	31	95	149	213	0.082	33.9
sp|Q99496|RING2_HUMAN	m.51442	32.759	58	35	2	50	104	354	410	0.10	33.5
sp|Q99496|RING2_HUMAN	m.28622	31.915	94	55	5	8	94	290	381	0.20	32.7
sp|Q99496|RING2_HUMAN	m.82644	27.027	74	46	2	50	120	830	898	0.22	32.7
sp|Q99496|RING2_HUMAN	m.78070	34.091	44	26	2	51	94	154	194	0.68	30.4
sp|Q99496|RING2_HUMAN	m.78053	35.556	45	26	2	51	95	154	195	1.2	30.0
sp|Q99496|RING2_HUMAN	m.51757	31.818	44	29	1	51	93	219	262	1.3	29.6
sp|Q99496|RING2_HUMAN	m.93527	25.000	76	51	3	39	110	287	360	1.6	29.6
sp|Q99496|RING2_HUMAN	m.51743	35.556	45	26	2	51	93	249	292	2.3	29.3
sp|Q99496|RING2_HUMAN	m.40897	31.818	44	28	1	51	92	218	261	3.8	28.5
sp|Q99496|RING2_HUMAN	m.164424	27.119	59	34	1	48	97	2347	2405	4.2	28.5
sp|Q99496|RING2_HUMAN	m.6489	41.935	31	18	0	71	101	50	80	4.6	27.7
sp|Q99496|RING2_HUMAN	m.158862	37.209	43	26	1	51	92	20	62	4.8	27.3
sp|Q99496|RING2_HUMAN	m.13786	30.769	52	32	1	61	112	368	415	5.3	28.1
sp|Q99496|RING2_HUMAN	m.139733	34.146	41	26	1	50	90	547	586	6.6	27.7
sp|Q99496|RING2_HUMAN	m.108219	28.261	46	29	1	51	92	54	99	7.6	27.7
sp|Q99496|RING2_HUMAN	m.161029	36.364	44	27	1	127	169	1225	1268	7.8	27.7
sp|Q99496|RING2_HUMAN	m.250146	34.483	29	19	0	47	75	13	41	8.3	26.2
sp|Q99496|RING2_HUMAN	m.41875	31.481	54	27	3	40	85	24	75	9.5	25.4
