sp|Q99496|RING2_HUMAN	m.789755	46.259	147	79	0	13	159	1	147	9.44e-45	154
sp|Q99496|RING2_HUMAN	m.284112	32.453	265	155	6	15	267	34	286	2.22e-40	144
sp|Q99496|RING2_HUMAN	m.92734	22.917	288	142	11	49	331	75	287	4.56e-09	56.6
sp|Q99496|RING2_HUMAN	m.712501	36.471	85	46	5	32	116	113	189	1.75e-05	46.2
sp|Q99496|RING2_HUMAN	m.112311	38.333	60	36	1	44	102	244	303	3.36e-04	42.0
sp|Q99496|RING2_HUMAN	m.531635	33.333	75	39	4	46	113	348	418	6.59e-04	41.2
sp|Q99496|RING2_HUMAN	m.531623	33.333	75	39	4	46	113	348	418	8.26e-04	40.8
sp|Q99496|RING2_HUMAN	m.36484	43.902	41	21	2	51	91	49	87	0.002	39.7
sp|Q99496|RING2_HUMAN	m.179681	35.294	51	31	2	51	101	302	350	0.004	38.5
sp|Q99496|RING2_HUMAN	m.88827	30.303	99	61	4	1	94	54	149	0.004	37.7
sp|Q99496|RING2_HUMAN	m.37888	45.238	42	21	1	51	92	588	627	0.006	38.1
sp|Q99496|RING2_HUMAN	m.143270	40.909	44	24	1	51	92	269	312	0.007	37.7
sp|Q99496|RING2_HUMAN	m.38693	31.481	54	31	1	43	90	13	66	0.016	36.6
sp|Q99496|RING2_HUMAN	m.443671	33.333	48	28	1	51	94	656	703	0.016	37.0
sp|Q99496|RING2_HUMAN	m.402166	39.623	53	28	2	45	94	14	65	0.017	36.6
sp|Q99496|RING2_HUMAN	m.36474	40.909	44	24	2	51	94	49	90	0.018	36.6
sp|Q99496|RING2_HUMAN	m.177104	34.783	46	29	1	49	94	626	670	0.020	36.6
sp|Q99496|RING2_HUMAN	m.615022	29.825	57	37	2	38	94	9	62	0.031	35.8
sp|Q99496|RING2_HUMAN	m.21567	40.426	47	19	2	51	91	247	290	0.038	35.4
sp|Q99496|RING2_HUMAN	m.421533	36.364	55	27	2	48	94	251	305	0.052	35.0
sp|Q99496|RING2_HUMAN	m.374347	30.000	70	38	3	51	110	296	364	0.072	34.7
sp|Q99496|RING2_HUMAN	m.159064	38.000	50	24	2	49	92	167	215	0.080	34.3
sp|Q99496|RING2_HUMAN	m.132943	35.714	56	31	3	51	104	183	235	0.083	34.3
sp|Q99496|RING2_HUMAN	m.175042	35.417	48	28	2	51	96	162	208	0.10	33.9
sp|Q99496|RING2_HUMAN	m.82778	33.333	81	49	4	51	128	361	439	0.11	34.3
sp|Q99496|RING2_HUMAN	m.21508	40.426	47	19	2	51	91	247	290	0.22	33.1
sp|Q99496|RING2_HUMAN	m.309197	39.130	46	25	2	51	94	359	403	0.23	33.1
sp|Q99496|RING2_HUMAN	m.430855	30.357	56	34	2	51	102	223	277	0.23	33.1
sp|Q99496|RING2_HUMAN	m.16860	23.567	157	96	6	49	202	21	156	0.30	32.7
sp|Q99496|RING2_HUMAN	m.375838	36.170	47	27	2	51	94	587	633	0.35	32.7
sp|Q99496|RING2_HUMAN	m.293949	27.368	95	58	5	45	136	147	233	0.37	32.0
sp|Q99496|RING2_HUMAN	m.294021	27.368	95	58	5	45	136	229	315	0.38	32.3
sp|Q99496|RING2_HUMAN	m.277660	36.364	55	30	3	46	97	276	328	0.42	32.3
sp|Q99496|RING2_HUMAN	m.200174	29.688	64	40	2	32	94	10	69	0.50	32.0
sp|Q99496|RING2_HUMAN	m.585677	27.083	48	34	1	45	92	782	828	1.00	31.2
sp|Q99496|RING2_HUMAN	m.163506	35.714	56	28	3	48	96	476	530	1.1	30.8
sp|Q99496|RING2_HUMAN	m.21554	41.667	36	15	1	51	80	247	282	1.3	30.8
sp|Q99496|RING2_HUMAN	m.265909	29.167	48	32	1	45	92	164	209	2.1	30.0
sp|Q99496|RING2_HUMAN	m.1033977	28.070	57	38	2	41	95	452	507	2.5	30.0
sp|Q99496|RING2_HUMAN	m.661486	25.781	128	89	3	34	157	356	481	3.0	29.6
sp|Q99496|RING2_HUMAN	m.333535	30.000	80	42	3	25	91	66	144	3.5	29.3
sp|Q99496|RING2_HUMAN	m.121177	27.907	129	84	5	180	308	323	442	3.5	29.3
sp|Q99496|RING2_HUMAN	m.333489	30.000	80	42	3	25	91	66	144	3.9	29.3
sp|Q99496|RING2_HUMAN	m.1222925	31.250	48	31	1	249	296	5	50	4.0	26.9
sp|Q99496|RING2_HUMAN	m.95812	33.333	42	27	1	50	91	114	154	4.4	28.9
sp|Q99496|RING2_HUMAN	m.904778	44.444	27	12	1	72	95	17	43	4.7	26.2
sp|Q99496|RING2_HUMAN	m.864308	47.059	34	16	1	56	89	462	493	4.8	28.9
sp|Q99496|RING2_HUMAN	m.321691	28.947	76	37	3	28	94	6	73	8.6	26.2
sp|Q99496|RING2_HUMAN	m.76660	35.556	45	24	3	49	90	270	312	9.8	27.7
