sp|Q99496-2|RING2_HUMAN	m.61076	45.714	70	37	1	14	83	9	77	2.55e-12	64.7
sp|Q99496-2|RING2_HUMAN	m.61396	47.619	63	30	3	19	81	7	66	9.92e-10	57.4
sp|Q99496-2|RING2_HUMAN	m.152733	33.803	71	45	1	14	82	194	264	1.03e-04	42.4
sp|Q99496-2|RING2_HUMAN	m.49862	27.869	61	42	1	45	105	13	71	0.014	35.0
sp|Q99496-2|RING2_HUMAN	m.214393	35.897	39	24	1	44	82	93	130	0.015	35.8
sp|Q99496-2|RING2_HUMAN	m.328578	50.000	32	15	1	45	76	13	43	0.017	35.8
sp|Q99496-2|RING2_HUMAN	m.168438	34.545	55	33	2	24	76	698	751	0.020	35.4
sp|Q99496-2|RING2_HUMAN	m.152742	32.051	78	50	2	14	89	194	270	0.025	35.0
sp|Q99496-2|RING2_HUMAN	m.34183	32.432	37	25	0	45	81	243	279	0.043	34.7
sp|Q99496-2|RING2_HUMAN	m.11939	30.435	69	35	2	49	105	257	324	0.061	33.9
sp|Q99496-2|RING2_HUMAN	m.54052	33.333	45	30	0	34	78	62	106	0.14	32.7
sp|Q99496-2|RING2_HUMAN	m.11441	38.462	39	18	1	51	83	366	404	0.14	32.7
sp|Q99496-2|RING2_HUMAN	m.360971	45.714	35	18	1	48	82	107	140	0.19	32.3
sp|Q99496-2|RING2_HUMAN	m.207990	39.024	41	24	1	44	84	24	63	0.22	32.0
sp|Q99496-2|RING2_HUMAN	m.165298	41.935	31	17	1	51	81	9	38	0.23	31.6
sp|Q99496-2|RING2_HUMAN	m.147595	34.375	32	21	0	45	76	16	47	0.69	30.8
sp|Q99496-2|RING2_HUMAN	m.165289	41.935	31	17	1	51	81	9	38	0.70	30.0
sp|Q99496-2|RING2_HUMAN	m.40124	25.610	82	48	1	21	89	102	183	0.82	30.4
sp|Q99496-2|RING2_HUMAN	m.127038	43.750	32	17	1	51	82	255	285	1.2	29.6
sp|Q99496-2|RING2_HUMAN	m.50891	32.143	56	36	1	32	85	58	113	1.5	28.5
sp|Q99496-2|RING2_HUMAN	m.52988	33.333	60	35	3	19	76	156	212	2.3	28.9
sp|Q99496-2|RING2_HUMAN	m.363452	26.866	67	37	2	26	89	62	119	3.0	28.5
sp|Q99496-2|RING2_HUMAN	m.170415	26.786	56	40	1	48	103	76	130	3.2	28.5
sp|Q99496-2|RING2_HUMAN	m.126991	43.750	32	17	1	51	82	293	323	3.7	28.1
sp|Q99496-2|RING2_HUMAN	m.8130	33.333	30	19	1	49	77	156	185	4.5	27.7
sp|Q99496-2|RING2_HUMAN	m.46622	35.556	45	21	2	51	87	278	322	4.8	28.1
sp|Q99496-2|RING2_HUMAN	m.278900	29.310	58	38	2	119	174	385	441	5.0	28.1
sp|Q99496-2|RING2_HUMAN	m.166589	30.303	33	23	0	44	76	180	212	5.3	27.7
sp|Q99496-2|RING2_HUMAN	m.81618	41.667	36	20	1	51	86	70	104	5.4	27.3
sp|Q99496-2|RING2_HUMAN	m.329911	25.352	71	50	2	31	100	958	1026	6.0	27.7
sp|Q99496-2|RING2_HUMAN	m.68196	31.034	29	20	0	61	89	92	120	6.6	27.3
sp|Q99496-2|RING2_HUMAN	m.166598	30.303	33	23	0	44	76	183	215	7.6	27.3
sp|Q99496-2|RING2_HUMAN	m.50873	31.373	51	33	1	32	80	258	308	8.2	27.3
sp|Q99496-2|RING2_HUMAN	m.40853	38.462	26	16	0	51	76	121	146	9.2	26.9
