sp|Q06587|RING1_HUMAN	maker-XT_scaffold3710-snap-gene-0.39-mRNA-1	68.548	124	39	0	1	124	33	156	1.31e-60	193
sp|Q06587|RING1_HUMAN	maker-XT_scaffold2528-snap-gene-0.61-mRNA-1	37.079	89	51	4	31	118	21	105	1.06e-07	52.8
sp|Q06587|RING1_HUMAN	maker-XT_scaffold1479-augustus-gene-0.58-mRNA-1	29.577	142	88	6	31	161	1449	1589	3.64e-06	48.5
sp|Q06587|RING1_HUMAN	maker-XT_scaffold1479-augustus-gene-0.58-mRNA-1	28.037	107	58	4	32	127	187	285	4.77e-04	41.6
sp|Q06587|RING1_HUMAN	maker-XT_scaffold1479-augustus-gene-0.58-mRNA-1	41.304	46	24	2	46	89	1040	1084	5.97e-04	41.6
sp|Q06587|RING1_HUMAN	maker-XT_scaffold5134-augustus-gene-0.53-mRNA-1	43.860	57	30	2	30	86	16	70	1.97e-05	42.0
sp|Q06587|RING1_HUMAN	maker-XT_scaffold2431-augustus-gene-0.22-mRNA-1	38.095	42	25	1	46	87	420	460	2.06e-05	45.8
sp|Q06587|RING1_HUMAN	maker-XT_scaffold3171-augustus-gene-0.8-mRNA-1	36.066	61	32	2	41	95	216	275	3.03e-05	44.7
sp|Q06587|RING1_HUMAN	maker-XT_scaffold3960-augustus-gene-0.35-mRNA-1	44.444	45	24	1	45	89	206	249	7.59e-05	44.3
sp|Q06587|RING1_HUMAN	maker-XT_scaffold3960-augustus-gene-0.35-mRNA-1	34.783	46	29	1	44	89	608	652	0.006	38.1
sp|Q06587|RING1_HUMAN	maker-XT_scaffold439-augustus-gene-0.33-mRNA-1	43.902	41	22	1	48	88	1015	1054	1.09e-04	43.9
sp|Q06587|RING1_HUMAN	maker-XT_scaffold184971-snap-gene-0.15-mRNA-1	35.294	68	41	2	26	91	136	202	3.29e-04	40.8
sp|Q06587|RING1_HUMAN	maker-XT_scaffold2457-augustus-gene-0.53-mRNA-1	36.842	57	33	3	44	100	6	59	3.82e-04	39.7
sp|Q06587|RING1_HUMAN	augustus_masked-XT_scaffold8957-processed-gene-0.0-mRNA-1	36.364	55	30	2	40	90	15	68	4.41e-04	41.6
sp|Q06587|RING1_HUMAN	augustus_masked-XT_scaffold1806-processed-gene-0.5-mRNA-1	45.238	42	22	1	45	86	20	60	0.001	40.4
sp|Q06587|RING1_HUMAN	maker-XT_scaffold977-snap-gene-0.4-mRNA-1	41.176	34	19	1	40	73	24	56	0.002	35.4
sp|Q06587|RING1_HUMAN	snap_masked-XT_scaffold87200-processed-gene-0.0-mRNA-1	40.741	54	24	3	40	87	50	101	0.002	37.4
sp|Q06587|RING1_HUMAN	maker-XT_scaffold1508-augustus-gene-0.52-mRNA-1	32.727	55	36	1	47	101	7	60	0.002	39.3
sp|Q06587|RING1_HUMAN	maker-XT_scaffold190599-snap-gene-0.4-mRNA-1	32.258	62	41	1	30	91	150	210	0.006	37.7
sp|Q06587|RING1_HUMAN	maker-XT_scaffold6370-snap-gene-0.10-mRNA-1	36.111	72	33	4	40	107	59	121	0.006	38.1
sp|Q06587|RING1_HUMAN	maker-XT_scaffold6212-augustus-gene-0.18-mRNA-1	33.333	54	35	1	45	98	2	54	0.007	37.7
sp|Q06587|RING1_HUMAN	snap_masked-XT_scaffold57835-processed-gene-0.1-mRNA-1	34.884	43	25	1	48	90	123	162	0.008	37.7
sp|Q06587|RING1_HUMAN	snap_masked-XT_scaffold121699-processed-gene-0.1-mRNA-1	38.182	55	28	2	40	89	13	66	0.011	37.0
sp|Q06587|RING1_HUMAN	maker-XT_scaffold5747-snap-gene-0.37-mRNA-1	28.571	70	44	2	44	110	27	93	0.012	37.0
sp|Q06587|RING1_HUMAN	maker-XT_scaffold2969-snap-gene-0.35-mRNA-1	46.875	32	16	1	42	73	356	386	0.012	37.0
sp|Q06587|RING1_HUMAN	maker-XT_scaffold618-snap-gene-0.33-mRNA-1	38.889	54	27	3	40	88	47	99	0.021	34.7
sp|Q06587|RING1_HUMAN	maker-XT_scaffold5871-snap-gene-0.10-mRNA-1	37.037	54	28	3	40	88	87	139	0.024	34.7
sp|Q06587|RING1_HUMAN	augustus_masked-XT_scaffold5432-processed-gene-0.7-mRNA-1	25.532	94	56	4	38	118	3	95	0.029	35.8
sp|Q06587|RING1_HUMAN	snap_masked-XT_scaffold131003-processed-gene-0.1-mRNA-1	44.118	34	18	1	40	73	13	45	0.057	33.5
sp|Q06587|RING1_HUMAN	maker-XT_scaffold56638-snap-gene-0.33-mRNA-1	35.714	56	30	3	40	90	360	414	0.059	34.7
sp|Q06587|RING1_HUMAN	maker-XT_scaffold5108-snap-gene-0.36-mRNA-1	34.921	63	31	3	45	98	24	85	0.073	34.3
sp|Q06587|RING1_HUMAN	maker-XT_scaffold4942-augustus-gene-0.23-mRNA-1	26.761	71	44	3	29	93	1	69	0.081	34.7
sp|Q06587|RING1_HUMAN	maker-XT_scaffold128751-snap-gene-0.11-mRNA-1	35.714	42	26	1	32	73	107	147	0.084	33.5
sp|Q06587|RING1_HUMAN	augustus_masked-XT_scaffold38224-processed-gene-0.1-mRNA-1	31.667	60	38	1	45	104	19	75	0.088	34.3
sp|Q06587|RING1_HUMAN	snap_masked-XT_scaffold181326-processed-gene-0.2-mRNA-1	39.394	33	19	1	46	78	171	202	0.10	33.5
sp|Q06587|RING1_HUMAN	maker-XT_scaffold4635-augustus-gene-0.5-mRNA-1	38.333	60	34	3	39	98	60	116	0.11	33.9
sp|Q06587|RING1_HUMAN	maker-XT_scaffold1740-snap-gene-0.149-mRNA-1	29.167	72	41	2	12	73	472	543	0.13	33.9
sp|Q06587|RING1_HUMAN	maker-XT_scaffold6023-snap-gene-0.18-mRNA-1	38.095	42	24	2	48	88	373	413	0.17	33.5
sp|Q06587|RING1_HUMAN	maker-XT_scaffold23859-augustus-gene-0.10-mRNA-1	34.146	41	24	1	48	88	237	274	0.20	32.7
sp|Q06587|RING1_HUMAN	augustus_masked-XT_scaffold36865-processed-gene-0.0-mRNA-1	39.474	38	22	1	36	73	12	48	0.21	33.1
sp|Q06587|RING1_HUMAN	maker-XT_scaffold55087-snap-gene-0.3-mRNA-1	30.233	43	29	1	46	88	10	51	0.27	30.0
sp|Q06587|RING1_HUMAN	augustus_masked-XT_scaffold51302-processed-gene-0.0-mRNA-1	35.088	57	31	3	40	91	16	71	0.30	32.0
sp|Q06587|RING1_HUMAN	maker-XT_scaffold58127-augustus-gene-0.13-mRNA-1	33.929	56	36	1	34	89	26	80	0.32	32.0
sp|Q06587|RING1_HUMAN	augustus_masked-XT_scaffold24629-processed-gene-0.2-mRNA-1	39.623	53	26	3	41	88	13	64	0.35	32.3
sp|Q06587|RING1_HUMAN	maker-XT_scaffold4577-augustus-gene-0.295-mRNA-1	32.653	49	30	2	44	90	10	57	0.36	32.3
sp|Q06587|RING1_HUMAN	maker-XT_scaffold5154-augustus-gene-0.41-mRNA-1	38.806	67	31	5	22	86	102	160	0.37	32.3
sp|Q06587|RING1_HUMAN	maker-XT_scaffold1760-snap-gene-0.33-mRNA-1	41.176	34	19	1	40	73	7	39	0.61	31.6
sp|Q06587|RING1_HUMAN	maker-XT_scaffold3589-snap-gene-0.8-mRNA-1	37.255	51	27	3	64	109	4	54	0.62	31.6
sp|Q06587|RING1_HUMAN	augustus_masked-XT_scaffold27664-processed-gene-0.1-mRNA-1	27.660	47	32	1	26	72	3	47	0.63	28.5
sp|Q06587|RING1_HUMAN	augustus_masked-XT_scaffold131520-processed-gene-0.0-mRNA-1	37.037	54	28	3	40	88	16	68	0.80	30.8
sp|Q06587|RING1_HUMAN	maker-XT_scaffold20201-snap-gene-0.31-mRNA-1	31.148	61	39	2	48	106	61	120	0.81	30.4
sp|Q06587|RING1_HUMAN	augustus_masked-XT_scaffold189328-processed-gene-0.7-mRNA-1	39.506	81	33	5	149	221	342	414	0.93	30.8
sp|Q06587|RING1_HUMAN	snap_masked-XT_scaffold23044-processed-gene-0.5-mRNA-1	35.294	51	30	2	43	91	259	308	0.97	30.8
sp|Q06587|RING1_HUMAN	maker-XT_scaffold3172-snap-gene-0.24-mRNA-1	37.500	40	24	1	48	87	59	97	0.99	30.8
sp|Q06587|RING1_HUMAN	maker-XT_scaffold179589-snap-gene-0.4-mRNA-1	36.585	41	26	0	48	88	176	216	1.1	30.4
sp|Q06587|RING1_HUMAN	maker-XT_scaffold4147-snap-gene-0.3-mRNA-1	27.941	68	38	2	45	104	21	85	1.1	30.4
sp|Q06587|RING1_HUMAN	maker-XT_scaffold11840-augustus-gene-0.4-mRNA-1	23.656	93	48	2	45	115	282	373	1.2	30.8
sp|Q06587|RING1_HUMAN	maker-XT_scaffold202-augustus-gene-0.717-mRNA-1	30.357	56	28	1	100	155	215	259	1.4	30.8
sp|Q06587|RING1_HUMAN	snap_masked-XT_scaffold45180-processed-gene-0.1-mRNA-1	31.746	63	43	0	273	335	14	76	1.6	30.4
sp|Q06587|RING1_HUMAN	maker-XT_scaffold4311-snap-gene-0.32-mRNA-1	29.032	62	32	2	48	109	43	92	1.7	30.0
sp|Q06587|RING1_HUMAN	maker-XT_scaffold2800-snap-gene-0.6-mRNA-1	42.500	40	19	1	233	268	47	86	1.8	30.0
sp|Q06587|RING1_HUMAN	maker-XT_scaffold127246-augustus-gene-0.9-mRNA-1	38.298	47	29	0	192	238	719	765	2.2	30.0
sp|Q06587|RING1_HUMAN	maker-XT_scaffold3172-augustus-gene-0.23-mRNA-1	34.146	41	26	1	48	88	676	715	2.4	29.6
sp|Q06587|RING1_HUMAN	maker-XT_scaffold4011-snap-gene-0.12-mRNA-1	31.250	48	21	3	48	87	22	65	2.5	29.6
sp|Q06587|RING1_HUMAN	maker-XT_scaffold1885-augustus-gene-0.16-mRNA-1	22.535	71	49	2	30	97	688	755	2.9	29.6
sp|Q06587|RING1_HUMAN	snap_masked-XT_scaffold5769-processed-gene-0.1-mRNA-1	40.741	27	15	1	64	89	13	39	3.3	28.9
sp|Q06587|RING1_HUMAN	maker-XT_scaffold3785-augustus-gene-0.59-mRNA-1	26.923	52	37	1	47	98	292	342	3.6	29.3
sp|Q06587|RING1_HUMAN	augustus_masked-XT_scaffold4579-processed-gene-0.2-mRNA-1	31.915	47	32	0	32	78	76	122	4.9	28.5
sp|Q06587|RING1_HUMAN	maker-XT_scaffold66238-snap-gene-0.5-mRNA-1	36.667	30	15	1	64	89	38	67	5.0	28.9
sp|Q06587|RING1_HUMAN	maker-XT_scaffold95313-snap-gene-0.2-mRNA-1	41.379	29	15	1	64	90	38	66	5.6	27.3
sp|Q06587|RING1_HUMAN	maker-XT_scaffold1703-augustus-gene-0.43-mRNA-1	24.528	53	40	0	100	152	2346	2398	6.2	28.5
sp|Q06587|RING1_HUMAN	maker-XT_scaffold4169-snap-gene-0.7-mRNA-1	39.286	28	16	1	64	91	1524	1550	8.0	28.1
sp|Q06587|RING1_HUMAN	maker-XT_scaffold180904-augustus-gene-0.30-mRNA-1	41.667	24	14	0	64	87	42	65	8.7	27.7
sp|Q06587|RING1_HUMAN	maker-XT_scaffold2119-augustus-gene-0.7-mRNA-1	26.168	107	57	4	180	282	536	624	8.9	27.7
sp|Q06587|RING1_HUMAN	maker-XT_scaffold64192-snap-gene-0.10-mRNA-1	36.735	49	28	2	45	90	34	82	9.6	27.3
