sp|Q99496|RING2_HUMAN	XP_028399738.1	61.111	342	109	8	4	333	2	331	7.82e-136	389
sp|Q99496|RING2_HUMAN	XP_028419146.1	29.464	112	66	4	45	153	10	111	1.06e-08	55.5
sp|Q99496|RING2_HUMAN	XP_028391248.1	38.462	78	34	4	37	102	144	219	1.27e-08	55.1
sp|Q99496|RING2_HUMAN	XP_028396470.1	35.632	87	50	3	44	125	10	95	1.61e-08	55.5
sp|Q99496|RING2_HUMAN	XP_028393262.1	38.806	67	39	2	47	113	22	86	1.51e-07	52.8
sp|Q99496|RING2_HUMAN	XP_028393263.1	38.806	67	39	2	47	113	22	86	1.52e-07	52.8
sp|Q99496|RING2_HUMAN	XP_028393264.1	38.806	67	39	2	47	113	22	86	2.13e-07	52.4
sp|Q99496|RING2_HUMAN	XP_028393265.1	38.806	67	39	2	47	113	22	86	2.40e-07	52.0
sp|Q99496|RING2_HUMAN	XP_028394945.1	35.227	88	53	3	25	112	14	97	1.09e-06	50.4
sp|Q99496|RING2_HUMAN	XP_028393161.1	45.455	44	23	1	51	94	26	68	1.35e-06	49.7
sp|Q99496|RING2_HUMAN	XP_028391209.1	23.849	239	118	7	38	269	10	191	1.68e-06	48.9
sp|Q99496|RING2_HUMAN	XP_028401000.1	30.097	103	52	4	47	130	13	114	6.33e-06	47.8
sp|Q99496|RING2_HUMAN	XP_028418591.1	43.902	41	22	1	51	91	26	65	7.37e-06	44.7
sp|Q99496|RING2_HUMAN	XP_028391630.1	31.183	93	60	2	39	128	4	95	1.48e-05	46.2
sp|Q99496|RING2_HUMAN	XP_028395989.1	35.714	70	38	4	49	113	19	86	1.59e-05	47.0
sp|Q99496|RING2_HUMAN	XP_028393168.1	46.341	41	21	1	51	91	26	65	2.38e-05	45.8
sp|Q99496|RING2_HUMAN	XP_028391214.1	34.211	76	46	2	43	115	8	82	3.17e-05	45.1
sp|Q99496|RING2_HUMAN	XP_028391213.1	34.211	76	46	2	43	115	8	82	3.17e-05	45.1
sp|Q99496|RING2_HUMAN	XP_028391211.1	34.211	76	46	2	43	115	8	82	3.17e-05	45.1
sp|Q99496|RING2_HUMAN	XP_028391210.1	34.211	76	46	2	43	115	8	82	3.17e-05	45.1
sp|Q99496|RING2_HUMAN	XP_028409935.1	37.500	56	34	1	47	102	825	879	4.38e-05	45.8
sp|Q99496|RING2_HUMAN	XP_028409935.1	30.769	91	60	2	41	131	616	703	0.001	41.2
sp|Q99496|RING2_HUMAN	XP_028400450.1	36.538	52	32	1	50	101	365	415	4.98e-05	45.1
sp|Q99496|RING2_HUMAN	XP_028393216.1	43.902	41	22	1	51	91	16	55	5.41e-05	44.7
sp|Q99496|RING2_HUMAN	XP_028410485.1	29.670	91	58	3	4	91	174	261	5.74e-05	45.1
sp|Q99496|RING2_HUMAN	XP_028418593.1	43.902	41	22	1	51	91	26	65	6.26e-05	44.7
sp|Q99496|RING2_HUMAN	XP_028393154.1	43.902	41	22	1	51	91	26	65	6.74e-05	44.7
sp|Q99496|RING2_HUMAN	XP_028393152.1	43.902	41	22	1	51	91	26	65	7.95e-05	44.3
sp|Q99496|RING2_HUMAN	XP_028393153.1	43.902	41	22	1	51	91	26	65	8.11e-05	44.3
sp|Q99496|RING2_HUMAN	XP_028393157.1	43.902	41	22	1	51	91	26	65	9.21e-05	44.3
sp|Q99496|RING2_HUMAN	XP_028406645.1	32.812	64	41	2	45	108	19	80	9.69e-05	44.3
sp|Q99496|RING2_HUMAN	XP_028393156.1	43.902	41	22	1	51	91	26	65	1.06e-04	43.9
sp|Q99496|RING2_HUMAN	XP_028393155.1	43.902	41	22	1	51	91	26	65	1.10e-04	43.9
sp|Q99496|RING2_HUMAN	XP_028393158.1	43.902	41	22	1	51	91	26	65	1.11e-04	43.9
sp|Q99496|RING2_HUMAN	XP_028405719.1	30.137	73	48	2	27	98	23	93	1.11e-04	43.9
sp|Q99496|RING2_HUMAN	XP_028403185.1	32.099	81	53	2	49	128	18	97	1.39e-04	43.9
sp|Q99496|RING2_HUMAN	XP_028400993.1	31.169	77	46	3	47	117	13	88	1.60e-04	43.5
sp|Q99496|RING2_HUMAN	XP_028406759.1	30.769	91	57	3	45	130	18	107	1.93e-04	43.5
sp|Q99496|RING2_HUMAN	XP_028392565.1	34.568	81	51	2	49	128	18	97	2.13e-04	43.1
sp|Q99496|RING2_HUMAN	XP_028406563.1	32.258	62	41	1	45	106	17	77	2.23e-04	43.1
sp|Q99496|RING2_HUMAN	XP_028406706.1	28.571	91	59	2	45	130	17	106	4.36e-04	42.4
sp|Q99496|RING2_HUMAN	XP_028401629.1	41.379	58	29	3	39	92	1	57	4.39e-04	42.4
sp|Q99496|RING2_HUMAN	XP_028403186.1	30.233	86	58	2	44	128	13	97	5.76e-04	42.0
sp|Q99496|RING2_HUMAN	XP_028406545.1	37.500	56	34	1	49	104	18	72	5.76e-04	42.0
sp|Q99496|RING2_HUMAN	XP_028402954.1	47.727	44	21	2	49	91	16	58	6.27e-04	41.2
sp|Q99496|RING2_HUMAN	XP_028406704.1	32.394	71	44	3	48	117	6	73	6.58e-04	41.6
sp|Q99496|RING2_HUMAN	XP_028406703.1	32.394	71	44	3	48	117	6	73	6.58e-04	41.6
sp|Q99496|RING2_HUMAN	XP_028406702.1	32.394	71	44	3	48	117	6	73	6.58e-04	41.6
sp|Q99496|RING2_HUMAN	XP_028398975.1	31.944	72	33	3	45	105	13	79	6.78e-04	42.0
sp|Q99496|RING2_HUMAN	XP_028398975.1	43.182	44	24	1	47	90	1046	1088	0.004	39.7
sp|Q99496|RING2_HUMAN	XP_028419254.1	34.921	63	39	2	44	106	13	73	7.00e-04	40.4
sp|Q99496|RING2_HUMAN	XP_028415441.1	30.851	94	56	4	48	136	17	106	7.22e-04	40.0
sp|Q99496|RING2_HUMAN	XP_028404570.1	33.333	60	35	2	39	94	88	146	7.92e-04	40.8
sp|Q99496|RING2_HUMAN	XP_028413343.1	37.500	56	34	1	49	104	18	72	8.01e-04	41.6
sp|Q99496|RING2_HUMAN	XP_028415399.1	38.000	50	30	1	45	94	14	62	8.20e-04	41.6
sp|Q99496|RING2_HUMAN	XP_028392566.1	33.708	89	55	3	49	134	18	105	8.41e-04	41.2
sp|Q99496|RING2_HUMAN	XP_028395144.1	29.630	54	38	0	38	91	249	302	8.97e-04	41.6
sp|Q99496|RING2_HUMAN	XP_028408522.1	39.583	48	26	2	49	94	14	60	0.001	41.2
sp|Q99496|RING2_HUMAN	XP_028406705.1	32.258	62	41	1	45	106	17	77	0.001	41.2
sp|Q99496|RING2_HUMAN	XP_028398979.1	42.500	40	22	1	51	90	775	813	0.001	41.2
sp|Q99496|RING2_HUMAN	XP_028392635.1	34.848	66	42	1	49	114	18	82	0.001	40.8
sp|Q99496|RING2_HUMAN	XP_028391791.1	36.364	44	28	0	45	88	12	55	0.001	40.4
sp|Q99496|RING2_HUMAN	XP_028411775.1	31.818	88	56	3	49	134	21	106	0.002	40.4
sp|Q99496|RING2_HUMAN	XP_028404908.1	37.255	51	29	2	51	99	76	125	0.002	38.9
sp|Q99496|RING2_HUMAN	XP_028414909.1	44.444	45	23	2	49	92	13	56	0.002	39.7
sp|Q99496|RING2_HUMAN	XP_028415458.1	40.000	50	29	1	45	94	14	62	0.002	40.4
sp|Q99496|RING2_HUMAN	XP_028415458.1	29.577	71	48	2	43	113	622	690	0.43	33.1
sp|Q99496|RING2_HUMAN	XP_028415458.1	26.761	71	50	2	43	113	238	306	4.0	30.0
sp|Q99496|RING2_HUMAN	XP_028400648.1	38.095	42	25	1	49	90	824	864	0.002	40.4
sp|Q99496|RING2_HUMAN	XP_028398987.1	31.944	72	33	3	45	105	13	79	0.002	40.0
sp|Q99496|RING2_HUMAN	XP_028400905.1	36.207	58	34	2	38	94	90	145	0.003	40.0
sp|Q99496|RING2_HUMAN	XP_028391790.1	36.364	44	28	0	45	88	12	55	0.003	39.7
sp|Q99496|RING2_HUMAN	XP_028403574.1	32.609	46	30	1	51	96	66	110	0.003	39.7
sp|Q99496|RING2_HUMAN	XP_028401038.1	38.028	71	36	4	34	104	27	89	0.003	39.7
sp|Q99496|RING2_HUMAN	XP_028403573.1	32.609	46	30	1	51	96	66	110	0.003	39.7
sp|Q99496|RING2_HUMAN	XP_028400437.1	29.293	99	66	3	38	134	68	164	0.003	39.7
sp|Q99496|RING2_HUMAN	XP_028410190.1	39.130	46	23	2	48	88	441	486	0.003	39.7
sp|Q99496|RING2_HUMAN	XP_028398993.1	42.222	45	25	1	46	90	406	449	0.003	39.7
sp|Q99496|RING2_HUMAN	XP_028398995.1	31.944	72	33	3	45	105	13	79	0.003	39.7
sp|Q99496|RING2_HUMAN	XP_028406669.1	32.759	58	38	1	49	106	23	79	0.004	39.3
sp|Q99496|RING2_HUMAN	XP_028406699.1	32.258	62	40	2	45	106	19	78	0.004	39.3
sp|Q99496|RING2_HUMAN	XP_028398992.1	42.222	45	25	1	46	90	409	452	0.004	39.3
sp|Q99496|RING2_HUMAN	XP_028400919.1	30.189	53	36	1	45	97	32	83	0.004	39.3
sp|Q99496|RING2_HUMAN	XP_028400417.1	30.189	53	36	1	45	97	32	83	0.004	39.3
sp|Q99496|RING2_HUMAN	XP_028398988.1	28.000	100	50	4	45	133	13	101	0.004	39.3
sp|Q99496|RING2_HUMAN	XP_028398988.1	40.000	50	28	2	41	90	437	484	0.018	37.4
sp|Q99496|RING2_HUMAN	XP_028406566.1	31.667	60	41	0	43	102	19	78	0.004	39.3
sp|Q99496|RING2_HUMAN	XP_028399257.1	25.153	163	97	7	45	188	13	169	0.004	38.9
sp|Q99496|RING2_HUMAN	XP_028399180.1	34.426	61	33	2	36	94	11	66	0.005	38.5
sp|Q99496|RING2_HUMAN	XP_028411642.1	36.066	61	37	2	43	103	12	70	0.005	38.5
sp|Q99496|RING2_HUMAN	XP_028415398.1	36.170	47	30	0	48	94	41	87	0.005	38.9
sp|Q99496|RING2_HUMAN	XP_028393532.1	33.871	62	39	1	44	105	798	857	0.006	38.9
sp|Q99496|RING2_HUMAN	XP_028393531.1	33.871	62	39	1	44	105	798	857	0.006	38.9
sp|Q99496|RING2_HUMAN	XP_028398973.1	35.000	60	31	2	45	104	13	64	0.006	38.9
sp|Q99496|RING2_HUMAN	XP_028398973.1	42.500	40	22	1	51	90	1079	1117	0.010	38.1
sp|Q99496|RING2_HUMAN	XP_028406760.1	32.759	58	38	1	49	106	22	78	0.006	38.5
sp|Q99496|RING2_HUMAN	XP_028415397.1	36.170	47	30	0	48	94	42	88	0.006	38.9
sp|Q99496|RING2_HUMAN	XP_028415395.1	36.170	47	30	0	48	94	42	88	0.006	38.9
sp|Q99496|RING2_HUMAN	XP_028415394.1	36.170	47	30	0	48	94	42	88	0.006	38.9
sp|Q99496|RING2_HUMAN	XP_028401348.1	30.909	55	37	1	44	97	5	59	0.006	38.9
sp|Q99496|RING2_HUMAN	XP_028411643.1	35.714	70	42	3	35	103	3	70	0.006	37.7
sp|Q99496|RING2_HUMAN	XP_028398974.1	35.000	60	31	2	45	104	13	64	0.006	38.9
sp|Q99496|RING2_HUMAN	XP_028398974.1	24.699	166	106	4	51	200	1079	1241	0.008	38.5
sp|Q99496|RING2_HUMAN	XP_028403443.1	43.182	44	23	2	49	91	13	55	0.006	38.5
sp|Q99496|RING2_HUMAN	XP_028411301.1	38.000	50	27	2	45	91	15	63	0.007	38.5
sp|Q99496|RING2_HUMAN	XP_028408126.1	37.097	62	37	2	43	104	15	74	0.007	37.7
sp|Q99496|RING2_HUMAN	XP_028398985.1	36.508	63	30	3	45	105	13	67	0.008	38.1
sp|Q99496|RING2_HUMAN	XP_028398982.1	35.000	60	31	2	45	104	13	64	0.009	38.1
sp|Q99496|RING2_HUMAN	XP_028398983.1	35.000	60	31	2	45	104	13	64	0.009	38.1
sp|Q99496|RING2_HUMAN	XP_028414976.1	42.857	42	23	1	49	90	20	60	0.009	38.5
sp|Q99496|RING2_HUMAN	XP_028399437.1	34.783	69	34	4	49	116	16	74	0.009	38.1
sp|Q99496|RING2_HUMAN	XP_028404851.1	24.675	77	57	1	43	119	683	758	0.010	38.1
sp|Q99496|RING2_HUMAN	XP_028406761.1	34.615	52	34	0	51	102	27	78	0.010	37.7
sp|Q99496|RING2_HUMAN	XP_028396300.1	37.778	45	27	1	51	94	36	80	0.011	37.7
sp|Q99496|RING2_HUMAN	XP_028414696.1	37.500	64	35	4	44	106	20	79	0.011	37.7
sp|Q99496|RING2_HUMAN	XP_028414689.1	37.500	64	35	4	44	106	20	79	0.011	37.7
sp|Q99496|RING2_HUMAN	XP_028414688.1	37.500	64	35	4	44	106	20	79	0.011	37.7
sp|Q99496|RING2_HUMAN	XP_028416167.1	30.337	89	59	2	51	137	26	113	0.011	37.7
sp|Q99496|RING2_HUMAN	XP_028414713.1	37.500	64	35	4	44	106	20	79	0.011	37.7
sp|Q99496|RING2_HUMAN	XP_028414697.1	37.500	64	35	4	44	106	20	79	0.011	37.7
sp|Q99496|RING2_HUMAN	XP_028414690.1	37.500	64	35	4	44	106	20	79	0.011	37.7
sp|Q99496|RING2_HUMAN	XP_028414546.1	37.500	64	35	4	44	106	20	79	0.012	37.7
sp|Q99496|RING2_HUMAN	XP_028414692.1	37.500	64	35	4	44	106	20	79	0.013	37.7
sp|Q99496|RING2_HUMAN	XP_028414499.1	37.500	64	35	4	44	106	20	79	0.013	37.7
sp|Q99496|RING2_HUMAN	XP_028414699.1	37.500	64	35	4	44	106	20	79	0.013	37.7
sp|Q99496|RING2_HUMAN	XP_028414698.1	37.500	64	35	4	44	106	20	79	0.013	37.7
sp|Q99496|RING2_HUMAN	XP_028415404.1	27.778	54	39	0	49	102	26	79	0.013	37.4
sp|Q99496|RING2_HUMAN	XP_028414694.1	37.500	64	35	4	44	106	20	79	0.014	37.7
sp|Q99496|RING2_HUMAN	XP_028414693.1	37.500	64	35	4	44	106	20	79	0.014	37.7
sp|Q99496|RING2_HUMAN	XP_028414542.1	37.500	64	35	4	44	106	20	79	0.015	37.4
sp|Q99496|RING2_HUMAN	XP_028406286.1	39.216	51	29	2	44	94	386	434	0.016	37.4
sp|Q99496|RING2_HUMAN	XP_028415408.1	27.778	54	39	0	49	102	24	77	0.016	37.4
sp|Q99496|RING2_HUMAN	XP_028414700.1	37.500	64	35	4	44	106	20	79	0.017	37.4
sp|Q99496|RING2_HUMAN	XP_028415439.1	27.778	54	39	0	49	102	26	79	0.018	37.0
sp|Q99496|RING2_HUMAN	XP_028403919.1	38.636	44	25	2	33	76	76	117	0.018	37.0
sp|Q99496|RING2_HUMAN	XP_028404860.1	38.636	44	25	2	33	76	76	117	0.019	37.0
sp|Q99496|RING2_HUMAN	XP_028414717.1	37.500	64	35	4	44	106	20	79	0.019	37.0
sp|Q99496|RING2_HUMAN	XP_028409402.1	33.898	59	37	1	44	102	749	805	0.019	37.4
sp|Q99496|RING2_HUMAN	XP_028409401.1	33.898	59	37	1	44	102	749	805	0.019	37.4
sp|Q99496|RING2_HUMAN	XP_028409400.1	33.898	59	37	1	44	102	749	805	0.019	37.4
sp|Q99496|RING2_HUMAN	XP_028409399.1	33.898	59	37	1	44	102	749	805	0.019	37.4
sp|Q99496|RING2_HUMAN	XP_028409398.1	33.898	59	37	1	44	102	749	805	0.019	37.4
sp|Q99496|RING2_HUMAN	XP_028409397.1	33.898	59	37	1	44	102	749	805	0.019	37.4
sp|Q99496|RING2_HUMAN	XP_028409396.1	33.898	59	37	1	44	102	749	805	0.019	37.4
sp|Q99496|RING2_HUMAN	XP_028409395.1	33.898	59	37	1	44	102	749	805	0.019	37.4
sp|Q99496|RING2_HUMAN	XP_028409394.1	33.898	59	37	1	44	102	749	805	0.019	37.4
sp|Q99496|RING2_HUMAN	XP_028409393.1	33.898	59	37	1	44	102	749	805	0.019	37.4
sp|Q99496|RING2_HUMAN	XP_028411078.1	32.075	53	35	1	44	96	29	80	0.020	37.0
sp|Q99496|RING2_HUMAN	XP_028415440.1	27.778	54	39	0	49	102	26	79	0.020	37.0
sp|Q99496|RING2_HUMAN	XP_028406666.1	29.310	58	40	1	45	102	174	230	0.021	37.0
sp|Q99496|RING2_HUMAN	XP_028393379.1	27.368	95	67	2	43	136	14	107	0.022	37.0
sp|Q99496|RING2_HUMAN	XP_028409403.1	33.898	59	37	1	44	102	748	804	0.023	37.0
sp|Q99496|RING2_HUMAN	XP_028406665.1	29.310	58	40	1	45	102	179	235	0.024	37.0
sp|Q99496|RING2_HUMAN	XP_028415448.1	26.027	73	54	0	49	121	24	96	0.024	36.6
sp|Q99496|RING2_HUMAN	XP_028415411.1	27.778	54	39	0	49	102	24	77	0.024	36.6
sp|Q99496|RING2_HUMAN	XP_028392322.1	33.898	59	37	1	44	102	864	920	0.024	37.0
sp|Q99496|RING2_HUMAN	XP_028398989.1	36.508	63	30	3	45	105	13	67	0.025	36.6
sp|Q99496|RING2_HUMAN	XP_028415449.1	27.778	54	39	0	49	102	24	77	0.025	36.6
sp|Q99496|RING2_HUMAN	XP_028392320.1	33.898	59	37	1	44	102	895	951	0.026	37.0
sp|Q99496|RING2_HUMAN	XP_028392319.1	33.898	59	37	1	44	102	895	951	0.026	37.0
sp|Q99496|RING2_HUMAN	XP_028399259.1	35.000	60	31	2	45	104	13	64	0.028	36.6
sp|Q99496|RING2_HUMAN	XP_028403587.1	35.714	42	26	1	50	91	792	832	0.028	36.6
sp|Q99496|RING2_HUMAN	XP_028403586.1	35.714	42	26	1	50	91	792	832	0.028	36.6
sp|Q99496|RING2_HUMAN	XP_028411700.1	29.545	88	58	3	49	134	26	111	0.029	36.6
sp|Q99496|RING2_HUMAN	XP_028411702.1	29.545	88	58	3	49	134	26	111	0.031	36.6
sp|Q99496|RING2_HUMAN	XP_028411701.1	29.545	88	58	3	49	134	26	111	0.031	36.6
sp|Q99496|RING2_HUMAN	XP_028415456.1	37.500	48	29	1	48	95	23	69	0.037	35.4
sp|Q99496|RING2_HUMAN	XP_028415460.1	38.298	47	29	0	48	94	17	63	0.039	36.2
sp|Q99496|RING2_HUMAN	XP_028418143.1	33.333	51	33	1	44	94	16	65	0.039	36.2
sp|Q99496|RING2_HUMAN	XP_028412015.1	34.426	61	38	2	43	103	12	70	0.040	35.8
sp|Q99496|RING2_HUMAN	XP_028414537.1	30.263	76	52	1	27	102	3	77	0.040	36.2
sp|Q99496|RING2_HUMAN	XP_028399258.1	24.324	148	84	7	45	178	13	146	0.042	35.4
sp|Q99496|RING2_HUMAN	XP_028399255.1	30.556	72	34	3	45	105	13	79	0.042	36.2
sp|Q99496|RING2_HUMAN	XP_028415447.1	26.761	71	52	0	51	121	22	92	0.044	35.8
sp|Q99496|RING2_HUMAN	XP_028392297.1	28.244	131	82	6	2	121	173	302	0.045	36.2
sp|Q99496|RING2_HUMAN	XP_028394510.1	30.357	56	34	2	40	91	5	59	0.049	35.8
sp|Q99496|RING2_HUMAN	XP_028404579.1	28.000	75	43	3	28	102	9	72	0.052	35.8
sp|Q99496|RING2_HUMAN	XP_028416178.1	29.213	89	60	2	51	137	26	113	0.053	35.8
sp|Q99496|RING2_HUMAN	XP_028394723.1	36.957	46	25	2	49	91	13	57	0.053	35.8
sp|Q99496|RING2_HUMAN	XP_028411689.1	26.126	111	76	4	49	155	26	134	0.054	35.8
sp|Q99496|RING2_HUMAN	XP_028412016.1	34.426	61	38	2	43	103	12	70	0.055	35.0
sp|Q99496|RING2_HUMAN	XP_028415445.1	26.761	71	52	0	51	121	22	92	0.064	35.0
sp|Q99496|RING2_HUMAN	XP_028413827.1	36.508	63	27	4	49	103	20	77	0.069	35.4
sp|Q99496|RING2_HUMAN	XP_028401339.1	33.846	65	37	2	31	91	1858	1920	0.080	35.4
sp|Q99496|RING2_HUMAN	XP_028415431.1	36.170	47	30	0	48	94	27	73	0.094	35.0
sp|Q99496|RING2_HUMAN	XP_028414509.1	26.471	68	50	0	35	102	11	78	0.10	35.0
sp|Q99496|RING2_HUMAN	XP_028393533.1	32.258	62	40	1	44	105	790	849	0.10	35.0
sp|Q99496|RING2_HUMAN	XP_028406497.1	31.148	61	40	1	42	102	815	873	0.11	34.7
sp|Q99496|RING2_HUMAN	XP_028415914.1	32.258	62	36	2	28	89	2	57	0.11	34.7
sp|Q99496|RING2_HUMAN	XP_028415913.1	32.258	62	36	2	28	89	2	57	0.11	34.7
sp|Q99496|RING2_HUMAN	XP_028406500.1	31.148	61	40	1	42	102	805	863	0.11	34.7
sp|Q99496|RING2_HUMAN	XP_028406499.1	31.148	61	40	1	42	102	805	863	0.11	34.7
sp|Q99496|RING2_HUMAN	XP_028406498.1	31.148	61	40	1	42	102	805	863	0.11	34.7
sp|Q99496|RING2_HUMAN	XP_028411887.1	25.581	86	61	2	51	134	23	107	0.11	34.7
sp|Q99496|RING2_HUMAN	XP_028407073.1	30.769	65	43	2	49	113	21	83	0.11	34.7
sp|Q99496|RING2_HUMAN	XP_028407072.1	30.769	65	43	2	49	113	21	83	0.11	34.7
sp|Q99496|RING2_HUMAN	XP_028411872.1	25.581	86	61	2	51	134	23	107	0.12	34.7
sp|Q99496|RING2_HUMAN	XP_028404270.1	25.581	86	61	2	51	134	23	107	0.12	34.7
sp|Q99496|RING2_HUMAN	XP_028419244.1	28.571	63	44	1	51	113	23	84	0.13	34.3
sp|Q99496|RING2_HUMAN	XP_028407149.1	32.203	59	31	3	49	99	18	75	0.13	34.3
sp|Q99496|RING2_HUMAN	XP_028414539.1	28.947	76	53	1	27	102	3	77	0.13	33.9
sp|Q99496|RING2_HUMAN	XP_028412031.1	34.694	49	29	2	51	97	408	455	0.14	34.3
sp|Q99496|RING2_HUMAN	XP_028412030.1	34.694	49	29	2	51	97	408	455	0.14	34.3
sp|Q99496|RING2_HUMAN	XP_028411901.1	25.581	86	61	2	51	134	23	107	0.14	34.3
sp|Q99496|RING2_HUMAN	XP_028411900.1	25.581	86	61	2	51	134	23	107	0.14	34.3
sp|Q99496|RING2_HUMAN	XP_028414308.1	31.148	61	40	1	42	102	808	866	0.15	34.3
sp|Q99496|RING2_HUMAN	XP_028395246.1	34.091	44	26	3	49	91	277	318	0.15	34.3
sp|Q99496|RING2_HUMAN	XP_028404272.1	28.571	63	44	1	51	113	23	84	0.16	34.3
sp|Q99496|RING2_HUMAN	XP_028415841.1	34.043	47	31	0	48	94	29	75	0.18	33.9
sp|Q99496|RING2_HUMAN	XP_028394622.1	35.556	45	27	1	46	88	284	328	0.18	33.9
sp|Q99496|RING2_HUMAN	XP_028414522.1	29.310	58	41	0	45	102	21	78	0.19	33.9
sp|Q99496|RING2_HUMAN	XP_028415919.1	34.783	46	29	1	43	88	12	56	0.20	33.9
sp|Q99496|RING2_HUMAN	XP_028415918.1	34.783	46	29	1	43	88	12	56	0.20	33.9
sp|Q99496|RING2_HUMAN	XP_028415917.1	34.783	46	29	1	43	88	12	56	0.20	33.9
sp|Q99496|RING2_HUMAN	XP_028415916.1	34.783	46	29	1	43	88	12	56	0.20	33.9
sp|Q99496|RING2_HUMAN	XP_028412172.1	30.986	71	47	2	43	113	13	81	0.20	33.9
sp|Q99496|RING2_HUMAN	XP_028412171.1	30.986	71	47	2	43	113	13	81	0.20	33.9
sp|Q99496|RING2_HUMAN	XP_028408568.1	31.481	54	37	0	49	102	25	78	0.21	33.9
sp|Q99496|RING2_HUMAN	XP_028414527.1	29.310	58	41	0	45	102	21	78	0.21	33.9
sp|Q99496|RING2_HUMAN	XP_028414526.1	29.310	58	41	0	45	102	21	78	0.21	33.9
sp|Q99496|RING2_HUMAN	XP_028414523.1	29.310	58	41	0	45	102	21	78	0.21	33.9
sp|Q99496|RING2_HUMAN	XP_028395366.1	40.000	45	26	1	44	88	13	56	0.21	33.5
sp|Q99496|RING2_HUMAN	XP_028414708.1	29.310	58	41	0	45	102	21	78	0.21	33.5
sp|Q99496|RING2_HUMAN	XP_028407077.1	34.783	46	29	1	49	94	21	65	0.21	33.9
sp|Q99496|RING2_HUMAN	XP_028407075.1	34.783	46	29	1	49	94	21	65	0.21	33.9
sp|Q99496|RING2_HUMAN	XP_028402053.1	31.915	47	30	1	50	94	216	262	0.22	33.5
sp|Q99496|RING2_HUMAN	XP_028399256.1	28.767	73	36	3	45	106	13	80	0.24	33.5
sp|Q99496|RING2_HUMAN	XP_028411892.1	28.571	63	44	1	51	113	23	84	0.24	33.5
sp|Q99496|RING2_HUMAN	XP_028414513.1	29.310	58	41	0	45	102	21	78	0.25	33.5
sp|Q99496|RING2_HUMAN	XP_028414512.1	29.310	58	41	0	45	102	21	78	0.25	33.5
sp|Q99496|RING2_HUMAN	XP_028414511.1	29.310	58	41	0	45	102	21	78	0.25	33.5
sp|Q99496|RING2_HUMAN	XP_028414081.1	33.333	48	29	2	49	94	372	418	0.26	33.5
sp|Q99496|RING2_HUMAN	XP_028399229.1	36.538	52	30	3	41	90	6	56	0.26	33.5
sp|Q99496|RING2_HUMAN	XP_028414521.1	29.310	58	41	0	45	102	21	78	0.28	33.5
sp|Q99496|RING2_HUMAN	XP_028409330.1	27.451	51	31	2	49	94	17	66	0.29	33.5
sp|Q99496|RING2_HUMAN	XP_028396459.1	37.037	54	31	2	51	102	31	83	0.30	33.1
sp|Q99496|RING2_HUMAN	XP_028415459.1	29.577	71	48	2	43	113	357	425	0.30	33.5
sp|Q99496|RING2_HUMAN	XP_028415459.1	29.577	71	48	2	43	113	15	83	0.52	32.7
sp|Q99496|RING2_HUMAN	XP_028415433.1	29.577	71	48	2	43	113	15	83	0.32	33.1
sp|Q99496|RING2_HUMAN	XP_028415432.1	29.577	71	48	2	43	113	15	83	0.32	33.1
sp|Q99496|RING2_HUMAN	XP_028407080.1	34.783	46	29	1	49	94	21	65	0.33	33.1
sp|Q99496|RING2_HUMAN	XP_028406301.1	42.308	52	18	4	51	100	951	992	0.36	33.1
sp|Q99496|RING2_HUMAN	XP_028411699.1	34.783	46	29	1	49	94	26	70	0.37	33.1
sp|Q99496|RING2_HUMAN	XP_028392874.1	31.373	51	31	2	47	94	17	66	0.39	33.1
sp|Q99496|RING2_HUMAN	XP_028404184.1	25.581	86	61	2	51	134	23	107	0.39	32.7
sp|Q99496|RING2_HUMAN	XP_028404286.1	31.818	44	29	1	51	94	23	65	0.40	32.7
sp|Q99496|RING2_HUMAN	XP_028416168.1	29.310	58	41	0	45	102	21	78	0.40	32.7
sp|Q99496|RING2_HUMAN	XP_028413819.1	31.579	57	30	3	49	97	18	73	0.40	32.7
sp|Q99496|RING2_HUMAN	XP_028410117.1	30.645	62	34	2	49	101	14	75	0.45	32.7
sp|Q99496|RING2_HUMAN	XP_028413846.1	31.579	57	30	3	49	97	18	73	0.47	32.7
sp|Q99496|RING2_HUMAN	XP_028396458.1	36.364	44	27	1	51	94	31	73	0.48	32.7
sp|Q99496|RING2_HUMAN	XP_028409470.1	33.898	59	37	1	44	102	254	310	0.51	32.3
sp|Q99496|RING2_HUMAN	XP_028405340.1	34.043	47	30	1	44	90	40	85	0.54	32.3
sp|Q99496|RING2_HUMAN	XP_028394312.1	33.929	56	32	1	45	100	34	84	0.55	32.0
sp|Q99496|RING2_HUMAN	XP_028418074.1	30.986	71	47	2	43	113	13	81	0.57	32.3
sp|Q99496|RING2_HUMAN	XP_028407771.1	30.909	55	34	2	43	94	11	64	0.57	32.3
sp|Q99496|RING2_HUMAN	XP_028407770.1	30.909	55	34	2	43	94	11	64	0.57	32.3
sp|Q99496|RING2_HUMAN	XP_028396224.1	29.412	51	27	2	50	91	1262	1312	0.58	32.7
sp|Q99496|RING2_HUMAN	XP_028413369.1	34.694	49	28	2	49	94	20	67	0.58	32.3
sp|Q99496|RING2_HUMAN	XP_028396216.1	29.412	51	27	2	50	91	1263	1313	0.58	32.7
sp|Q99496|RING2_HUMAN	XP_028416939.1	34.783	46	29	1	49	94	26	70	0.61	32.3
sp|Q99496|RING2_HUMAN	XP_028412125.1	25.000	92	53	2	13	102	1	78	0.62	32.3
sp|Q99496|RING2_HUMAN	XP_028410598.1	34.694	49	29	2	51	97	92	139	0.63	31.2
sp|Q99496|RING2_HUMAN	XP_028415443.1	36.170	47	29	1	48	94	25	70	0.67	31.6
sp|Q99496|RING2_HUMAN	XP_028414538.1	31.034	58	40	0	45	102	21	78	0.68	31.2
sp|Q99496|RING2_HUMAN	XP_028417377.1	29.851	67	41	2	22	88	4	64	0.70	32.0
sp|Q99496|RING2_HUMAN	XP_028417376.1	29.851	67	41	2	22	88	4	64	0.70	32.0
sp|Q99496|RING2_HUMAN	XP_028417375.1	29.851	67	41	2	22	88	4	64	0.70	32.0
sp|Q99496|RING2_HUMAN	XP_028417374.1	29.851	67	41	2	22	88	4	64	0.70	32.0
sp|Q99496|RING2_HUMAN	XP_028407502.1	34.783	46	29	1	49	94	21	65	0.71	32.0
sp|Q99496|RING2_HUMAN	XP_028414528.1	27.586	58	42	0	45	102	21	78	0.72	32.0
sp|Q99496|RING2_HUMAN	XP_028407081.1	32.609	46	30	1	49	94	21	65	0.72	32.0
sp|Q99496|RING2_HUMAN	XP_028411910.1	31.818	44	29	1	51	94	23	65	0.75	32.0
sp|Q99496|RING2_HUMAN	XP_028411908.1	31.818	44	29	1	51	94	23	65	0.75	32.0
sp|Q99496|RING2_HUMAN	XP_028411907.1	31.818	44	29	1	51	94	23	65	0.75	32.0
sp|Q99496|RING2_HUMAN	XP_028411742.1	29.508	61	29	2	43	90	11	70	0.81	32.0
sp|Q99496|RING2_HUMAN	XP_028391975.1	26.471	68	36	2	43	97	11	77	0.87	32.0
sp|Q99496|RING2_HUMAN	XP_028391063.1	38.298	47	27	2	50	96	516	560	0.88	32.0
sp|Q99496|RING2_HUMAN	XP_028391976.1	26.471	68	36	2	43	97	11	77	0.88	32.0
sp|Q99496|RING2_HUMAN	XP_028391353.1	36.735	49	28	2	48	94	258	305	0.89	31.6
sp|Q99496|RING2_HUMAN	XP_028415922.1	29.231	65	40	2	24	88	5	63	0.95	31.6
sp|Q99496|RING2_HUMAN	XP_028415920.1	32.727	55	35	2	35	88	3	56	0.95	31.6
sp|Q99496|RING2_HUMAN	XP_028409695.1	36.585	41	25	1	37	77	93	132	1.0	31.6
sp|Q99496|RING2_HUMAN	XP_028409696.1	36.585	41	25	1	37	77	92	131	1.0	31.6
sp|Q99496|RING2_HUMAN	XP_028392604.1	30.435	92	42	6	45	119	14	100	1.0	31.6
sp|Q99496|RING2_HUMAN	XP_028403056.1	30.508	59	35	2	36	94	14	66	1.1	31.2
sp|Q99496|RING2_HUMAN	XP_028415424.1	28.169	71	49	2	43	113	15	83	1.1	31.6
sp|Q99496|RING2_HUMAN	XP_028396100.1	32.203	59	31	3	49	99	19	76	1.1	31.6
sp|Q99496|RING2_HUMAN	XP_028407078.1	32.609	46	30	1	49	94	21	65	1.2	31.6
sp|Q99496|RING2_HUMAN	XP_028404541.1	31.959	97	45	5	20	97	248	342	1.2	31.6
sp|Q99496|RING2_HUMAN	XP_028407625.1	30.357	56	34	2	40	95	668	718	1.3	31.6
sp|Q99496|RING2_HUMAN	XP_028397943.1	34.091	44	26	2	51	94	123	163	1.3	30.8
sp|Q99496|RING2_HUMAN	XP_028407074.1	32.609	46	30	1	49	94	21	65	1.3	31.2
sp|Q99496|RING2_HUMAN	XP_028407079.1	32.609	46	30	1	49	94	21	65	1.3	31.2
sp|Q99496|RING2_HUMAN	XP_028397942.1	34.091	44	26	2	51	94	149	189	1.3	30.8
sp|Q99496|RING2_HUMAN	XP_028392005.1	27.957	93	50	5	45	125	13	100	1.3	31.2
sp|Q99496|RING2_HUMAN	XP_028407477.1	29.787	47	32	1	43	89	12	57	1.3	31.2
sp|Q99496|RING2_HUMAN	XP_028407476.1	29.787	47	32	1	43	89	12	57	1.3	31.2
sp|Q99496|RING2_HUMAN	XP_028407475.1	29.787	47	32	1	43	89	12	57	1.3	31.2
sp|Q99496|RING2_HUMAN	XP_028408063.1	29.333	75	33	2	8	82	10	64	1.3	31.2
sp|Q99496|RING2_HUMAN	XP_028409468.1	30.769	52	36	0	51	102	421	472	1.4	31.2
sp|Q99496|RING2_HUMAN	XP_028404544.1	31.959	97	45	5	20	97	197	291	1.4	31.2
sp|Q99496|RING2_HUMAN	XP_028413820.1	31.579	57	30	3	49	97	18	73	1.4	31.2
sp|Q99496|RING2_HUMAN	XP_028404543.1	31.959	97	45	5	20	97	201	295	1.4	31.2
sp|Q99496|RING2_HUMAN	XP_028411178.1	50.000	24	12	0	96	119	1593	1616	1.4	31.2
sp|Q99496|RING2_HUMAN	XP_028409471.1	33.898	59	37	1	44	102	189	245	1.5	30.8
sp|Q99496|RING2_HUMAN	XP_028401308.1	27.273	55	39	1	50	104	382	435	1.5	31.2
sp|Q99496|RING2_HUMAN	XP_028407478.1	29.787	47	32	1	43	89	12	57	1.5	31.2
sp|Q99496|RING2_HUMAN	XP_028404542.1	31.959	97	45	5	20	97	238	332	1.5	31.2
sp|Q99496|RING2_HUMAN	XP_028392261.1	29.870	77	34	4	28	94	5	71	1.5	31.2
sp|Q99496|RING2_HUMAN	XP_028411188.1	50.000	24	12	0	96	119	1593	1616	1.5	31.2
sp|Q99496|RING2_HUMAN	XP_028411186.1	50.000	24	12	0	96	119	1593	1616	1.5	31.2
sp|Q99496|RING2_HUMAN	XP_028392260.1	29.870	77	34	4	28	94	5	71	1.5	31.2
sp|Q99496|RING2_HUMAN	XP_028392259.1	29.870	77	34	4	28	94	5	71	1.5	31.2
sp|Q99496|RING2_HUMAN	XP_028406495.1	27.869	61	42	1	42	102	821	879	1.8	30.8
sp|Q99496|RING2_HUMAN	XP_028394047.1	26.168	107	61	6	51	155	6	96	1.9	30.8
sp|Q99496|RING2_HUMAN	XP_028419249.1	29.885	87	55	2	49	130	21	106	1.9	30.0
sp|Q99496|RING2_HUMAN	XP_028411641.1	32.609	46	30	1	43	88	12	56	1.9	30.8
sp|Q99496|RING2_HUMAN	XP_028407479.1	29.787	47	32	1	43	89	12	57	2.0	30.4
sp|Q99496|RING2_HUMAN	XP_028393885.1	23.958	96	49	3	25	97	646	740	2.0	30.8
sp|Q99496|RING2_HUMAN	XP_028408841.1	32.203	59	38	2	31	88	15	72	2.1	30.8
sp|Q99496|RING2_HUMAN	XP_028399227.1	37.736	53	30	3	40	90	23	74	2.2	30.4
sp|Q99496|RING2_HUMAN	XP_028413796.1	31.579	57	30	3	49	97	19	74	2.3	30.4
sp|Q99496|RING2_HUMAN	XP_028411501.1	31.373	51	33	1	44	94	689	737	2.3	30.4
sp|Q99496|RING2_HUMAN	XP_028411500.1	31.373	51	33	1	44	94	689	737	2.3	30.4
sp|Q99496|RING2_HUMAN	XP_028406427.1	27.869	61	42	1	42	102	712	770	2.4	30.4
sp|Q99496|RING2_HUMAN	XP_028399228.1	37.736	53	30	3	40	90	23	74	2.5	30.4
sp|Q99496|RING2_HUMAN	XP_028395815.1	31.373	51	33	1	44	94	530	578	2.6	30.4
sp|Q99496|RING2_HUMAN	XP_028395814.1	31.373	51	33	1	44	94	530	578	2.6	30.4
sp|Q99496|RING2_HUMAN	XP_028395967.1	29.825	57	31	3	49	97	18	73	2.7	30.4
sp|Q99496|RING2_HUMAN	XP_028417383.1	33.333	57	32	2	32	88	6	56	3.0	30.0
sp|Q99496|RING2_HUMAN	XP_028417382.1	33.333	57	32	2	32	88	6	56	3.0	30.0
sp|Q99496|RING2_HUMAN	XP_028417381.1	33.333	57	32	2	32	88	6	56	3.0	30.0
sp|Q99496|RING2_HUMAN	XP_028417380.1	33.333	57	32	2	32	88	6	56	3.0	30.0
sp|Q99496|RING2_HUMAN	XP_028417379.1	33.333	57	32	2	32	88	10	60	3.0	30.0
sp|Q99496|RING2_HUMAN	XP_028417378.1	33.333	57	32	2	32	88	10	60	3.1	30.0
sp|Q99496|RING2_HUMAN	XP_028408842.1	32.203	59	38	2	31	88	15	72	3.1	30.0
sp|Q99496|RING2_HUMAN	XP_028414280.1	27.869	61	42	1	42	102	560	618	3.2	30.0
sp|Q99496|RING2_HUMAN	XP_028407741.1	30.435	46	31	1	43	88	12	56	3.2	30.0
sp|Q99496|RING2_HUMAN	XP_028407740.1	30.435	46	31	1	43	88	12	56	3.2	30.0
sp|Q99496|RING2_HUMAN	XP_028408843.1	32.203	59	38	2	31	88	15	72	3.2	30.0
sp|Q99496|RING2_HUMAN	XP_028408844.1	32.203	59	38	2	31	88	15	72	3.4	30.0
sp|Q99496|RING2_HUMAN	XP_028414519.1	27.586	58	42	0	45	102	21	78	3.4	30.0
sp|Q99496|RING2_HUMAN	XP_028414518.1	27.586	58	42	0	45	102	21	78	3.4	30.0
sp|Q99496|RING2_HUMAN	XP_028391080.1	46.429	28	11	2	69	94	465	490	3.5	30.0
sp|Q99496|RING2_HUMAN	XP_028414520.1	27.586	58	42	0	45	102	21	78	3.6	30.0
sp|Q99496|RING2_HUMAN	XP_028414517.1	27.586	58	42	0	45	102	21	78	3.6	30.0
sp|Q99496|RING2_HUMAN	XP_028414516.1	27.586	58	42	0	45	102	21	78	3.6	30.0
sp|Q99496|RING2_HUMAN	XP_028414515.1	27.586	58	42	0	45	102	21	78	3.6	30.0
sp|Q99496|RING2_HUMAN	XP_028414514.1	27.586	58	42	0	45	102	21	78	3.6	30.0
sp|Q99496|RING2_HUMAN	XP_028391844.1	26.389	72	39	3	39	97	7	77	3.7	29.6
sp|Q99496|RING2_HUMAN	XP_028397056.1	34.375	64	32	3	44	105	11	66	3.8	29.6
sp|Q99496|RING2_HUMAN	XP_028408543.1	26.087	92	52	2	13	102	1	78	3.8	29.6
sp|Q99496|RING2_HUMAN	XP_028415466.1	24.638	69	51	1	45	113	14	81	3.9	29.6
sp|Q99496|RING2_HUMAN	XP_028415464.1	24.638	69	51	1	45	113	14	81	3.9	29.6
sp|Q99496|RING2_HUMAN	XP_028414315.1	33.333	42	27	1	49	90	18	58	3.9	29.6
sp|Q99496|RING2_HUMAN	XP_028413821.1	29.825	57	31	3	49	97	18	73	4.0	29.6
sp|Q99496|RING2_HUMAN	XP_028394944.1	35.000	40	24	1	51	88	317	356	4.0	29.6
sp|Q99496|RING2_HUMAN	XP_028407392.1	30.435	46	31	1	43	88	12	56	4.3	29.6
sp|Q99496|RING2_HUMAN	XP_028407391.1	30.435	46	31	1	43	88	12	56	4.3	29.6
sp|Q99496|RING2_HUMAN	XP_028407390.1	30.435	46	31	1	43	88	12	56	4.3	29.6
sp|Q99496|RING2_HUMAN	XP_028407387.1	30.435	46	31	1	43	88	33	77	4.4	29.6
sp|Q99496|RING2_HUMAN	XP_028407388.1	30.435	46	31	1	43	88	27	71	4.5	29.6
sp|Q99496|RING2_HUMAN	XP_028410050.1	28.125	64	41	1	43	101	60	123	4.7	29.3
sp|Q99496|RING2_HUMAN	XP_028391845.1	26.389	72	39	3	39	97	7	77	4.8	29.3
sp|Q99496|RING2_HUMAN	XP_028392155.1	33.333	45	27	2	48	90	31	74	5.0	29.6
sp|Q99496|RING2_HUMAN	XP_028415442.1	24.638	69	51	1	45	113	14	81	5.1	29.3
sp|Q99496|RING2_HUMAN	XP_028391069.1	27.273	121	76	6	60	170	339	457	5.4	29.3
sp|Q99496|RING2_HUMAN	XP_028392603.1	26.667	150	78	8	32	155	1	144	5.4	29.3
sp|Q99496|RING2_HUMAN	XP_028396165.1	28.814	59	33	2	49	99	18	75	5.9	29.3
sp|Q99496|RING2_HUMAN	XP_028411863.1	34.615	52	30	2	43	91	14	64	6.4	28.5
sp|Q99496|RING2_HUMAN	XP_028406503.1	26.786	56	39	1	42	97	762	815	7.2	28.9
sp|Q99496|RING2_HUMAN	XP_028406502.1	26.786	56	39	1	42	97	762	815	7.2	28.9
sp|Q99496|RING2_HUMAN	XP_028407743.1	30.435	46	31	1	43	88	12	56	7.6	28.9
sp|Q99496|RING2_HUMAN	XP_028407742.1	30.435	46	31	1	43	88	12	56	7.6	28.9
sp|Q99496|RING2_HUMAN	XP_028407588.1	30.435	46	31	1	43	88	12	56	7.7	28.9
sp|Q99496|RING2_HUMAN	XP_028417285.1	26.190	84	57	2	53	136	12	90	7.9	28.5
sp|Q99496|RING2_HUMAN	XP_028403667.1	33.708	89	50	6	51	134	136	220	8.1	28.5
sp|Q99496|RING2_HUMAN	XP_028410606.1	26.190	84	57	2	53	136	12	90	8.1	28.5
sp|Q99496|RING2_HUMAN	XP_028416216.1	26.190	84	57	2	53	136	12	90	8.1	28.5
sp|Q99496|RING2_HUMAN	XP_028410588.1	26.190	84	57	2	53	136	12	90	8.1	28.5
sp|Q99496|RING2_HUMAN	XP_028407854.1	26.190	84	57	2	53	136	12	90	8.1	28.5
sp|Q99496|RING2_HUMAN	XP_028392123.1	31.429	70	32	4	40	94	7	75	8.4	28.9
sp|Q99496|RING2_HUMAN	XP_028415258.1	30.769	78	41	5	21	95	289	356	8.5	28.5
sp|Q99496|RING2_HUMAN	XP_028392122.1	31.429	70	32	4	40	94	7	75	8.6	28.9
sp|Q99496|RING2_HUMAN	XP_028399390.1	32.692	52	25	2	91	141	145	187	8.6	28.1
sp|Q99496|RING2_HUMAN	XP_028408877.1	26.190	84	57	2	53	136	12	90	8.8	28.5
sp|Q99496|RING2_HUMAN	XP_028413910.1	26.190	84	57	2	53	136	12	90	8.9	28.5
sp|Q99496|RING2_HUMAN	XP_028408895.1	26.190	84	57	2	53	136	12	90	8.9	28.1
sp|Q99496|RING2_HUMAN	XP_028392170.1	26.761	71	38	3	40	97	8	77	9.2	28.5
sp|Q99496|RING2_HUMAN	XP_028398590.1	23.423	111	76	2	162	263	328	438	9.5	28.5
sp|Q99496|RING2_HUMAN	XP_028414510.1	27.778	72	50	2	51	122	24	93	9.5	28.5
sp|Q99496|RING2_HUMAN	XP_028414501.1	27.778	72	50	2	51	122	24	93	9.5	28.5
sp|Q99496|RING2_HUMAN	XP_028409827.1	22.549	102	68	3	6	107	198	288	9.8	28.1
