sp|Q06587|RING1_HUMAN	KII64780.1	38.000	50	24	2	45	88	12	60	5.79e-04	40.0
sp|Q06587|RING1_HUMAN	KII71352.1	26.000	100	61	4	4	91	143	241	0.001	38.5
sp|Q06587|RING1_HUMAN	KII69411.1	30.645	62	39	1	43	100	60	121	0.001	38.1
sp|Q06587|RING1_HUMAN	KII62300.1	32.692	52	34	1	42	93	53	103	0.001	38.5
sp|Q06587|RING1_HUMAN	KII67065.1	35.417	48	30	1	40	87	138	184	0.003	37.0
sp|Q06587|RING1_HUMAN	KII61081.1	35.417	48	26	2	47	91	214	259	0.015	35.0
sp|Q06587|RING1_HUMAN	KII72206.1	32.812	64	37	3	30	88	7	69	0.018	35.0
sp|Q06587|RING1_HUMAN	KII66605.1	33.333	54	33	1	38	88	799	852	0.023	35.0
sp|Q06587|RING1_HUMAN	KII69485.1	31.034	58	35	1	46	98	204	261	0.024	35.0
sp|Q06587|RING1_HUMAN	KII60587.1	31.373	51	33	2	48	97	14	63	0.52	29.6
sp|Q06587|RING1_HUMAN	KII73890.1	24.242	33	25	0	276	308	17	49	3.5	27.3
sp|Q06587|RING1_HUMAN	KII67440.1	35.714	56	29	3	37	91	63	112	7.2	25.8
