sp|Q99496|RING2_HUMAN	m.61076	47.973	148	76	1	14	161	9	155	1.54e-40	143
sp|Q99496|RING2_HUMAN	m.61396	43.662	142	77	3	19	160	7	145	2.71e-34	127
sp|Q99496|RING2_HUMAN	m.152733	24.026	308	149	10	29	329	211	440	9.88e-12	65.1
sp|Q99496|RING2_HUMAN	m.328578	46.377	69	32	3	45	110	13	79	3.20e-09	57.4
sp|Q99496|RING2_HUMAN	m.8130	35.294	68	42	2	49	115	156	222	4.37e-07	50.1
sp|Q99496|RING2_HUMAN	m.187055	23.984	246	168	6	30	261	757	997	5.35e-05	44.3
sp|Q99496|RING2_HUMAN	m.11441	33.333	69	39	2	51	112	366	434	5.61e-05	44.3
sp|Q99496|RING2_HUMAN	m.214393	35.000	60	37	2	44	103	93	150	6.27e-05	43.9
sp|Q99496|RING2_HUMAN	m.207990	39.286	56	30	2	44	96	24	78	3.25e-04	41.2
sp|Q99496|RING2_HUMAN	m.34183	34.000	50	32	1	45	94	243	291	3.29e-04	41.6
sp|Q99496|RING2_HUMAN	m.11939	41.860	43	23	2	49	91	257	297	4.45e-04	40.8
sp|Q99496|RING2_HUMAN	m.147595	35.593	59	37	1	45	103	16	73	7.67e-04	40.4
sp|Q99496|RING2_HUMAN	m.54052	32.759	58	38	1	34	91	62	118	7.71e-04	40.8
sp|Q99496|RING2_HUMAN	m.68456	37.736	53	32	1	42	94	2	53	8.83e-04	40.4
sp|Q99496|RING2_HUMAN	m.168438	28.767	73	49	2	24	94	698	769	0.001	40.4
sp|Q99496|RING2_HUMAN	m.165298	38.636	44	25	2	51	94	9	50	0.001	39.3
sp|Q99496|RING2_HUMAN	m.360971	45.652	46	21	2	48	90	107	151	0.001	39.7
sp|Q99496|RING2_HUMAN	m.127038	42.857	42	22	2	51	92	255	294	0.002	39.3
sp|Q99496|RING2_HUMAN	m.49862	31.169	77	43	3	45	114	13	86	0.002	38.5
sp|Q99496|RING2_HUMAN	m.165289	39.130	46	26	2	51	96	9	52	0.005	37.0
sp|Q99496|RING2_HUMAN	m.18005	41.667	48	26	2	47	94	20	65	0.007	37.0
sp|Q99496|RING2_HUMAN	m.126991	42.857	42	22	2	51	92	293	332	0.008	37.0
sp|Q99496|RING2_HUMAN	m.52988	33.333	78	44	4	19	94	156	227	0.013	36.6
sp|Q99496|RING2_HUMAN	m.81618	40.000	45	25	2	51	94	70	113	0.024	35.0
sp|Q99496|RING2_HUMAN	m.214242	33.333	51	32	1	51	99	233	283	0.026	35.4
sp|Q99496|RING2_HUMAN	m.81616	40.000	45	25	2	51	94	70	113	0.026	35.0
sp|Q99496|RING2_HUMAN	m.98753	30.137	73	43	3	32	103	276	341	0.054	34.3
sp|Q99496|RING2_HUMAN	m.210185	24.167	120	80	5	50	161	156	272	0.063	34.7
sp|Q99496|RING2_HUMAN	m.166589	29.231	65	40	2	44	103	180	243	0.089	33.9
sp|Q99496|RING2_HUMAN	m.245938	35.484	62	34	4	50	107	440	499	0.096	33.9
sp|Q99496|RING2_HUMAN	m.68464	48.148	27	14	0	68	94	18	44	0.097	33.1
sp|Q99496|RING2_HUMAN	m.363667	31.343	67	34	4	45	102	266	329	0.098	33.9
sp|Q99496|RING2_HUMAN	m.100491	38.298	47	21	3	51	90	519	564	0.11	33.9
sp|Q99496|RING2_HUMAN	m.152742	32.353	68	43	2	14	79	194	260	0.12	33.5
sp|Q99496|RING2_HUMAN	m.361233	35.417	48	24	2	51	91	1848	1895	0.13	33.5
sp|Q99496|RING2_HUMAN	m.33122	35.294	51	26	2	51	96	116	164	0.16	32.7
sp|Q99496|RING2_HUMAN	m.166598	29.231	65	40	2	44	103	183	246	0.18	33.1
sp|Q99496|RING2_HUMAN	m.12662	34.328	67	40	3	28	94	4	66	0.19	32.7
sp|Q99496|RING2_HUMAN	m.100520	38.298	47	21	3	51	90	519	564	0.21	33.1
sp|Q99496|RING2_HUMAN	m.342013	34.615	52	30	3	51	101	214	262	0.22	32.3
sp|Q99496|RING2_HUMAN	m.796	25.676	74	53	2	31	102	745	818	0.26	32.7
sp|Q99496|RING2_HUMAN	m.56947	32.812	64	40	3	51	113	396	457	0.31	32.3
sp|Q99496|RING2_HUMAN	m.50873	31.579	76	44	3	32	99	258	333	0.43	31.6
sp|Q99496|RING2_HUMAN	m.39119	30.508	59	38	2	51	106	66	124	0.47	31.6
sp|Q99496|RING2_HUMAN	m.366655	35.714	42	26	1	52	93	154	194	0.49	31.2
sp|Q99496|RING2_HUMAN	m.53103	25.926	81	49	3	51	127	132	205	0.77	30.8
sp|Q99496|RING2_HUMAN	m.127943	29.545	44	28	1	51	91	9	52	1.3	30.4
sp|Q99496|RING2_HUMAN	m.64916	27.660	47	28	2	51	91	371	417	1.3	30.0
sp|Q99496|RING2_HUMAN	m.131328	28.571	49	31	2	46	91	156	203	1.5	29.6
sp|Q99496|RING2_HUMAN	m.59773	31.034	58	36	1	110	163	13	70	2.1	27.7
sp|Q99496|RING2_HUMAN	m.4019	38.462	52	29	3	51	101	271	320	2.1	29.6
sp|Q99496|RING2_HUMAN	m.46622	32.727	55	23	3	51	91	278	332	2.5	29.3
sp|Q99496|RING2_HUMAN	m.48084	31.081	74	37	1	124	197	1130	1189	3.5	29.3
sp|Q99496|RING2_HUMAN	m.3811	25.000	56	33	2	50	96	212	267	5.3	28.5
sp|Q99496|RING2_HUMAN	m.50891	31.373	51	33	1	32	80	58	108	6.8	27.3
sp|Q99496|RING2_HUMAN	m.97872	34.286	35	23	0	64	98	190	224	6.9	28.1
sp|Q99496|RING2_HUMAN	m.278900	29.310	58	38	2	191	246	385	441	7.7	27.7
sp|Q99496|RING2_HUMAN	m.204890	29.167	48	32	1	98	145	7	52	9.2	26.9
sp|Q99496|RING2_HUMAN	m.66527	32.500	40	26	1	51	90	522	560	9.7	27.7
