sp|Q06587|RING1_HUMAN	m.146848	42.391	184	93	4	16	191	39	217	1.61e-37	137
sp|Q06587|RING1_HUMAN	m.104002	43.448	145	80	2	13	157	29	171	5.22e-34	128
sp|Q06587|RING1_HUMAN	m.94663	34.375	64	40	2	44	106	139	201	2.46e-06	48.9
sp|Q06587|RING1_HUMAN	m.98363	32.432	74	46	2	42	112	64	136	9.93e-06	46.2
sp|Q06587|RING1_HUMAN	m.94888	32.692	52	34	1	40	91	712	762	1.09e-05	47.0
sp|Q06587|RING1_HUMAN	m.62101	31.081	74	50	1	42	115	113	185	4.19e-05	45.1
sp|Q06587|RING1_HUMAN	m.149924	42.857	63	31	3	47	106	430	490	4.26e-05	45.1
sp|Q06587|RING1_HUMAN	m.89164	35.294	68	32	2	28	89	3	64	7.99e-05	41.6
sp|Q06587|RING1_HUMAN	m.103580	39.130	69	38	3	41	107	73	139	1.95e-04	42.7
sp|Q06587|RING1_HUMAN	m.148646	34.444	90	53	4	36	121	54	141	5.45e-04	41.2
sp|Q06587|RING1_HUMAN	m.28796	37.778	45	25	1	47	88	38	82	0.002	38.9
sp|Q06587|RING1_HUMAN	m.250867	39.583	48	23	2	44	91	1193	1234	0.002	40.0
sp|Q06587|RING1_HUMAN	m.93721	25.806	124	69	5	45	157	202	313	0.003	38.9
sp|Q06587|RING1_HUMAN	m.77862	28.750	80	55	2	27	105	283	361	0.004	38.9
sp|Q06587|RING1_HUMAN	m.8823	35.556	45	27	1	46	90	29	71	0.008	37.4
sp|Q06587|RING1_HUMAN	m.27338	34.694	49	31	1	40	88	12	59	0.015	37.0
sp|Q06587|RING1_HUMAN	m.156762	36.000	50	31	1	40	88	945	994	0.015	37.0
sp|Q06587|RING1_HUMAN	m.236619	36.957	46	25	2	48	91	3586	3629	0.015	37.0
sp|Q06587|RING1_HUMAN	m.164485	38.000	50	28	2	41	88	81	129	0.018	36.6
sp|Q06587|RING1_HUMAN	m.46412	34.884	43	26	2	46	88	87	127	0.024	35.4
sp|Q06587|RING1_HUMAN	m.23910	36.765	68	39	3	42	107	28	93	0.033	35.0
sp|Q06587|RING1_HUMAN	m.8846	29.231	65	43	3	46	110	157	218	0.036	35.4
sp|Q06587|RING1_HUMAN	m.115413	37.500	48	22	2	47	87	326	372	0.045	35.0
sp|Q06587|RING1_HUMAN	m.124765	36.000	50	31	1	42	91	72	120	0.048	35.0
sp|Q06587|RING1_HUMAN	m.238245	35.417	48	29	1	44	89	302	349	0.056	35.0
sp|Q06587|RING1_HUMAN	m.177258	24.731	93	55	4	43	133	54	133	0.070	33.9
sp|Q06587|RING1_HUMAN	m.30329	30.769	65	43	2	46	110	124	186	0.071	34.7
sp|Q06587|RING1_HUMAN	m.24195	36.364	44	24	1	48	87	11	54	0.089	34.3
sp|Q06587|RING1_HUMAN	m.50301	35.065	77	46	3	42	118	100	172	0.12	33.9
sp|Q06587|RING1_HUMAN	m.173179	32.143	56	31	3	37	89	154	205	0.27	32.7
sp|Q06587|RING1_HUMAN	m.54057	39.623	53	28	2	42	91	279	330	0.28	32.3
sp|Q06587|RING1_HUMAN	m.27272	28.571	98	48	5	46	131	14	101	0.33	31.2
sp|Q06587|RING1_HUMAN	m.74829	28.235	85	56	4	27	110	35	115	0.33	32.3
sp|Q06587|RING1_HUMAN	m.78895	34.615	52	31	3	48	98	269	318	0.36	32.3
sp|Q06587|RING1_HUMAN	m.49846	27.273	55	39	1	36	89	7	61	0.39	32.0
sp|Q06587|RING1_HUMAN	m.24331	33.333	48	28	3	47	91	349	395	0.39	32.0
sp|Q06587|RING1_HUMAN	m.225465	31.081	74	36	3	64	128	3843	3910	1.2	30.8
sp|Q06587|RING1_HUMAN	m.153190	33.333	48	25	2	48	88	1842	1889	1.4	30.8
sp|Q06587|RING1_HUMAN	m.150968	25.743	101	68	2	77	175	938	1033	2.5	30.0
sp|Q06587|RING1_HUMAN	m.203676	33.333	51	34	0	57	107	98	148	3.0	29.3
sp|Q06587|RING1_HUMAN	m.138973	29.412	34	24	0	46	79	39	72	4.8	28.9
sp|Q06587|RING1_HUMAN	m.21796	27.174	92	40	5	47	121	229	310	6.2	28.1
sp|Q06587|RING1_HUMAN	m.129734	46.154	26	14	0	181	206	874	899	8.4	28.1
sp|Q06587|RING1_HUMAN	m.217371	25.000	72	40	3	26	97	458	515	8.7	27.7
sp|Q06587|RING1_HUMAN	m.30077	37.500	40	23	1	48	85	340	379	8.9	27.7
