sp|Q06587|RING1_HUMAN	maker-SC_scaffold7052-augustus-gene-0.8-mRNA-1	36.709	79	46	2	37	112	28	105	2.25e-11	59.7
sp|Q06587|RING1_HUMAN	maker-SC_scaffold140550-augustus-gene-0.25-mRNA-1	36.047	86	48	4	34	118	27	106	5.76e-08	53.9
sp|Q06587|RING1_HUMAN	maker-SC_scaffold5903-snap-gene-0.11-mRNA-1	39.344	61	30	2	41	95	214	273	1.12e-06	48.9
sp|Q06587|RING1_HUMAN	maker-SC_scaffold1297-augustus-gene-0.4-mRNA-1	35.000	100	53	5	26	117	7	102	2.19e-06	48.9
sp|Q06587|RING1_HUMAN	maker-SC_scaffold61107-snap-gene-0.4-mRNA-1	47.917	48	23	2	44	91	433	478	3.65e-06	48.1
sp|Q06587|RING1_HUMAN	maker-SC_scaffold3638-snap-gene-0.21-mRNA-1	39.583	48	28	1	40	87	26	72	4.71e-06	43.9
sp|Q06587|RING1_HUMAN	maker-SC_scaffold3087-snap-gene-0.9-mRNA-1	31.522	92	55	4	31	120	129	214	6.00e-06	47.4
sp|Q06587|RING1_HUMAN	augustus_masked-SC_scaffold119918-processed-gene-0.1-mRNA-1	32.812	64	42	1	27	90	28	90	6.75e-06	44.3
sp|Q06587|RING1_HUMAN	maker-SC_scaffold2202-augustus-gene-0.85-mRNA-1	36.765	68	40	2	33	100	5	69	7.57e-06	45.1
sp|Q06587|RING1_HUMAN	maker-SC_scaffold116372-augustus-gene-0.4-mRNA-1	39.583	48	28	1	40	87	51	97	1.08e-05	43.5
sp|Q06587|RING1_HUMAN	maker-SC_scaffold23879-snap-gene-0.3-mRNA-1	36.957	46	28	1	48	93	7	51	1.22e-05	43.5
sp|Q06587|RING1_HUMAN	snap_masked-SC_scaffold141964-processed-gene-0.2-mRNA-1	37.705	61	31	3	36	91	9	67	1.33e-05	42.4
sp|Q06587|RING1_HUMAN	maker-SC_scaffold4718-augustus-gene-0.66-mRNA-1	29.474	95	59	4	42	129	243	336	3.66e-05	45.1
sp|Q06587|RING1_HUMAN	maker-SC_scaffold32205-snap-gene-0.4-mRNA-1	29.474	95	59	4	42	129	337	430	4.78e-05	44.7
sp|Q06587|RING1_HUMAN	maker-SC_scaffold130653-snap-gene-0.51-mRNA-1	43.750	48	26	1	42	89	15	61	5.95e-05	41.2
sp|Q06587|RING1_HUMAN	augustus_masked-SC_scaffold1098-processed-gene-0.22-mRNA-1	37.681	69	35	3	34	102	12	72	6.02e-05	43.9
sp|Q06587|RING1_HUMAN	augustus_masked-SC_scaffold30438-processed-gene-0.1-mRNA-1	43.182	44	24	1	44	87	45	87	1.16e-04	43.5
sp|Q06587|RING1_HUMAN	snap_masked-SC_scaffold136697-processed-gene-0.16-mRNA-1	34.426	61	33	3	36	91	9	67	1.55e-04	39.3
sp|Q06587|RING1_HUMAN	maker-SC_scaffold24722-snap-gene-0.9-mRNA-1	35.849	53	29	2	40	88	17	68	2.68e-04	39.7
sp|Q06587|RING1_HUMAN	augustus_masked-SC_scaffold2881-processed-gene-0.4-mRNA-1	45.652	46	24	1	46	91	21	65	2.89e-04	42.0
sp|Q06587|RING1_HUMAN	augustus_masked-SC_scaffold8450-processed-gene-0.0-mRNA-1	39.655	58	31	2	48	102	29	85	3.36e-04	41.6
sp|Q06587|RING1_HUMAN	augustus_masked-SC_scaffold38581-processed-gene-0.1-mRNA-1	27.273	66	47	1	25	90	24	88	3.60e-04	39.7
sp|Q06587|RING1_HUMAN	snap_masked-SC_scaffold32313-processed-gene-0.0-mRNA-1	37.705	61	31	3	36	91	9	67	3.60e-04	38.1
sp|Q06587|RING1_HUMAN	augustus_masked-SC_scaffold2419-processed-gene-0.6-mRNA-1	30.000	70	45	2	24	90	3	71	3.74e-04	38.9
sp|Q06587|RING1_HUMAN	snap_masked-SC_scaffold143697-processed-gene-0.2-mRNA-1	25.180	139	90	4	30	159	22	155	4.40e-04	41.6
sp|Q06587|RING1_HUMAN	augustus_masked-SC_scaffold96194-processed-gene-0.0-mRNA-1	36.735	49	30	1	42	90	82	129	4.53e-04	40.0
sp|Q06587|RING1_HUMAN	snap_masked-SC_scaffold5724-processed-gene-0.12-mRNA-1	36.957	46	24	2	48	88	57	102	4.80e-04	38.5
sp|Q06587|RING1_HUMAN	augustus_masked-SC_scaffold14797-processed-gene-0.2-mRNA-1	40.909	44	25	1	44	87	13	55	6.70e-04	40.8
sp|Q06587|RING1_HUMAN	snap_masked-SC_scaffold67566-processed-gene-0.1-mRNA-1	35.294	51	32	1	48	98	22	71	7.20e-04	38.1
sp|Q06587|RING1_HUMAN	snap_masked-SC_scaffold112075-processed-gene-0.1-mRNA-1	36.765	68	37	3	33	97	36	100	0.001	38.5
sp|Q06587|RING1_HUMAN	augustus_masked-SC_scaffold20410-processed-gene-0.3-mRNA-1	33.898	59	35	2	45	103	40	94	0.001	40.4
sp|Q06587|RING1_HUMAN	maker-SC_scaffold3594-snap-gene-0.63-mRNA-1	35.294	68	38	3	33	97	39	103	0.001	40.4
sp|Q06587|RING1_HUMAN	snap_masked-SC_scaffold126422-processed-gene-0.0-mRNA-1	36.364	44	27	1	48	91	24	66	0.001	37.7
sp|Q06587|RING1_HUMAN	augustus_masked-SC_scaffold126346-processed-gene-0.0-mRNA-1	43.478	46	25	1	48	93	329	373	0.001	40.4
sp|Q06587|RING1_HUMAN	snap_masked-SC_scaffold119918-processed-gene-0.7-mRNA-1	34.483	58	37	1	30	87	31	87	0.001	40.4
sp|Q06587|RING1_HUMAN	snap_masked-SC_scaffold66841-processed-gene-0.2-mRNA-1	37.705	61	31	3	36	91	109	167	0.001	38.9
sp|Q06587|RING1_HUMAN	snap_masked-SC_scaffold66841-processed-gene-0.2-mRNA-1	37.500	48	28	2	36	83	31	76	0.077	33.5
sp|Q06587|RING1_HUMAN	maker-SC_scaffold45533-augustus-gene-0.15-mRNA-1	35.821	67	37	3	34	97	40	103	0.002	40.0
sp|Q06587|RING1_HUMAN	augustus_masked-SC_scaffold60278-processed-gene-0.2-mRNA-1	31.250	80	39	3	30	109	8	71	0.002	39.7
sp|Q06587|RING1_HUMAN	snap_masked-SC_scaffold142939-processed-gene-0.1-mRNA-1	33.929	56	32	3	40	91	13	67	0.002	37.0
sp|Q06587|RING1_HUMAN	maker-SC_scaffold6454-snap-gene-0.106-mRNA-1	47.368	38	19	1	48	85	18	54	0.003	38.9
sp|Q06587|RING1_HUMAN	maker-SC_scaffold99985-augustus-gene-0.12-mRNA-1	30.000	80	40	3	30	109	15	78	0.003	38.9
sp|Q06587|RING1_HUMAN	maker-SC_scaffold145696-snap-gene-0.26-mRNA-1	47.368	38	19	1	48	85	18	54	0.003	38.9
sp|Q06587|RING1_HUMAN	maker-SC_scaffold7460-augustus-gene-0.10-mRNA-1	36.667	60	29	3	39	90	6	64	0.004	38.5
sp|Q06587|RING1_HUMAN	snap_masked-SC_scaffold82018-processed-gene-0.1-mRNA-1	39.130	46	27	1	45	90	87	131	0.005	38.5
sp|Q06587|RING1_HUMAN	augustus_masked-SC_scaffold113490-processed-gene-0.2-mRNA-1	43.478	46	25	1	45	90	37	81	0.005	37.4
sp|Q06587|RING1_HUMAN	augustus_masked-SC_scaffold121769-processed-gene-0.0-mRNA-1	39.130	46	27	1	45	90	40	84	0.005	38.1
sp|Q06587|RING1_HUMAN	snap_masked-SC_scaffold108297-processed-gene-0.4-mRNA-1	25.758	66	48	1	25	90	24	88	0.006	36.2
sp|Q06587|RING1_HUMAN	maker-SC_scaffold123823-snap-gene-0.187-mRNA-1	39.583	48	24	2	45	88	38	84	0.006	37.7
sp|Q06587|RING1_HUMAN	augustus_masked-SC_scaffold14603-processed-gene-0.0-mRNA-1	36.842	57	35	1	32	88	9	64	0.006	38.1
sp|Q06587|RING1_HUMAN	maker-SC_scaffold5986-snap-gene-0.5-mRNA-1	45.238	42	21	1	46	85	45	86	0.006	37.0
sp|Q06587|RING1_HUMAN	maker-SC_scaffold35339-snap-gene-0.39-mRNA-1	33.898	59	35	2	45	103	40	94	0.006	37.4
sp|Q06587|RING1_HUMAN	maker-SC_scaffold142891-snap-gene-0.113-mRNA-1	39.535	43	25	1	48	90	52	93	0.006	37.7
sp|Q06587|RING1_HUMAN	maker-SC_scaffold33290-snap-gene-0.22-mRNA-1	33.333	51	31	2	39	89	133	180	0.007	38.1
sp|Q06587|RING1_HUMAN	maker-SC_scaffold2062-snap-gene-0.5-mRNA-1	36.957	46	28	1	46	91	26	70	0.008	37.7
sp|Q06587|RING1_HUMAN	maker-SC_scaffold51565-augustus-gene-0.4-mRNA-1	24.242	66	49	1	25	90	21	85	0.009	35.4
sp|Q06587|RING1_HUMAN	augustus_masked-SC_scaffold51282-processed-gene-0.0-mRNA-1	30.769	52	32	2	25	76	8	55	0.009	34.7
sp|Q06587|RING1_HUMAN	snap_masked-SC_scaffold10428-processed-gene-0.27-mRNA-1	35.185	54	32	2	34	87	47	97	0.010	37.4
sp|Q06587|RING1_HUMAN	augustus_masked-SC_scaffold41754-processed-gene-0.0-mRNA-1	30.000	80	37	4	42	108	17	90	0.010	37.4
sp|Q06587|RING1_HUMAN	maker-SC_scaffold426-augustus-gene-0.85-mRNA-1	35.185	54	30	3	40	89	1202	1254	0.011	37.4
sp|Q06587|RING1_HUMAN	maker-SC_scaffold426-augustus-gene-0.85-mRNA-1	35.185	54	30	3	40	89	763	815	0.017	37.0
sp|Q06587|RING1_HUMAN	maker-SC_scaffold5741-augustus-gene-0.145-mRNA-1	19.718	71	56	1	42	112	595	664	0.012	37.0
sp|Q06587|RING1_HUMAN	augustus_masked-SC_scaffold134114-processed-gene-0.2-mRNA-1	26.596	94	50	3	31	124	16	90	0.013	36.6
sp|Q06587|RING1_HUMAN	maker-SC_scaffold8-augustus-gene-0.31-mRNA-1	35.185	54	30	3	40	89	443	495	0.014	37.0
sp|Q06587|RING1_HUMAN	maker-SC_scaffold39825-snap-gene-0.8-mRNA-1	35.849	53	29	3	40	88	17	68	0.015	34.7
sp|Q06587|RING1_HUMAN	snap_masked-SC_scaffold42981-processed-gene-0.1-mRNA-1	29.825	57	35	2	46	98	22	77	0.015	34.3
sp|Q06587|RING1_HUMAN	maker-SC_scaffold4555-snap-gene-0.14-mRNA-1	40.476	42	24	1	48	89	73	113	0.015	36.6
sp|Q06587|RING1_HUMAN	maker-SC_scaffold26073-snap-gene-0.4-mRNA-1	37.255	51	27	2	42	88	18	67	0.017	36.6
sp|Q06587|RING1_HUMAN	snap_masked-SC_scaffold111256-processed-gene-0.4-mRNA-1	36.170	47	25	3	46	88	19	64	0.019	33.1
sp|Q06587|RING1_HUMAN	augustus_masked-SC_scaffold140852-processed-gene-0.20-mRNA-1	41.304	46	26	1	45	90	47	91	0.020	36.2
sp|Q06587|RING1_HUMAN	augustus_masked-SC_scaffold19608-processed-gene-0.0-mRNA-1	41.304	46	26	1	45	90	45	89	0.022	36.2
sp|Q06587|RING1_HUMAN	maker-SC_scaffold32573-augustus-gene-0.8-mRNA-1	30.000	80	40	3	30	109	8	71	0.024	35.8
sp|Q06587|RING1_HUMAN	snap_masked-SC_scaffold94340-processed-gene-0.2-mRNA-1	37.255	51	27	2	42	88	18	67	0.024	36.2
sp|Q06587|RING1_HUMAN	augustus_masked-SC_scaffold5881-processed-gene-0.5-mRNA-1	29.630	54	33	2	40	89	13	65	0.025	36.2
sp|Q06587|RING1_HUMAN	snap_masked-SC_scaffold768-processed-gene-0.10-mRNA-1	29.508	61	30	2	40	88	11	70	0.026	35.0
sp|Q06587|RING1_HUMAN	augustus_masked-SC_scaffold116024-processed-gene-0.0-mRNA-1	32.727	55	34	2	33	87	46	97	0.026	35.0
sp|Q06587|RING1_HUMAN	snap_masked-SC_scaffold120659-processed-gene-0.0-mRNA-1	36.170	47	25	3	46	88	19	64	0.026	32.7
sp|Q06587|RING1_HUMAN	maker-SC_scaffold114003-snap-gene-0.26-mRNA-1	35.484	62	28	2	48	109	52	101	0.030	35.4
sp|Q06587|RING1_HUMAN	augustus_masked-SC_scaffold131168-processed-gene-0.10-mRNA-1	31.250	64	40	1	25	88	7	66	0.031	34.7
sp|Q06587|RING1_HUMAN	maker-SC_scaffold17440-augustus-gene-0.14-mRNA-1	35.849	53	29	3	40	88	24	75	0.031	35.8
sp|Q06587|RING1_HUMAN	augustus_masked-SC_scaffold35339-processed-gene-0.4-mRNA-1	34.694	49	31	1	45	93	80	127	0.032	35.0
sp|Q06587|RING1_HUMAN	maker-SC_scaffold142721-snap-gene-0.4-mRNA-1	31.148	61	32	3	48	98	37	97	0.033	33.5
sp|Q06587|RING1_HUMAN	maker-SC_scaffold38775-snap-gene-0.5-mRNA-1	35.417	48	30	1	48	95	48	94	0.035	35.0
sp|Q06587|RING1_HUMAN	maker-SC_scaffold138655-snap-gene-0.14-mRNA-1	36.000	50	28	2	43	88	7	56	0.035	35.4
sp|Q06587|RING1_HUMAN	snap_masked-SC_scaffold62289-processed-gene-0.1-mRNA-1	34.247	73	38	5	46	114	19	85	0.035	35.0
sp|Q06587|RING1_HUMAN	snap_masked-SC_scaffold1484-processed-gene-0.14-mRNA-1	40.476	42	24	1	48	89	405	445	0.035	35.8
sp|Q06587|RING1_HUMAN	augustus_masked-SC_scaffold60345-processed-gene-0.0-mRNA-1	35.593	59	33	2	31	89	11	64	0.038	35.4
sp|Q06587|RING1_HUMAN	augustus_masked-SC_scaffold4817-processed-gene-0.7-mRNA-1	34.545	55	35	1	32	86	2	55	0.039	35.0
sp|Q06587|RING1_HUMAN	augustus_masked-SC_scaffold4817-processed-gene-0.5-mRNA-1	34.545	55	35	1	32	86	2	55	0.039	35.0
sp|Q06587|RING1_HUMAN	augustus_masked-SC_scaffold75569-processed-gene-0.9-mRNA-1	37.288	59	29	5	48	102	21	75	0.041	35.4
sp|Q06587|RING1_HUMAN	augustus_masked-SC_scaffold7509-processed-gene-0.7-mRNA-1	34.483	58	30	2	48	98	84	140	0.041	34.3
sp|Q06587|RING1_HUMAN	maker-SC_scaffold1925-snap-gene-0.15-mRNA-1	32.530	83	46	5	39	121	50	122	0.043	35.0
sp|Q06587|RING1_HUMAN	snap_masked-SC_scaffold2202-processed-gene-0.54-mRNA-1	42.105	38	21	1	48	85	24	60	0.044	34.7
sp|Q06587|RING1_HUMAN	augustus_masked-SC_scaffold65058-processed-gene-0.1-mRNA-1	31.579	57	36	2	33	89	46	99	0.045	34.7
sp|Q06587|RING1_HUMAN	maker-SC_scaffold145639-snap-gene-0.697-mRNA-1	31.915	47	31	1	45	90	95	141	0.046	34.7
sp|Q06587|RING1_HUMAN	maker-SC_scaffold4930-snap-gene-0.92-mRNA-1	30.000	60	40	2	48	106	122	180	0.049	34.7
sp|Q06587|RING1_HUMAN	maker-SC_scaffold1089-snap-gene-0.36-mRNA-1	38.636	44	26	1	48	91	393	435	0.049	35.0
sp|Q06587|RING1_HUMAN	maker-SC_scaffold1089-snap-gene-0.36-mRNA-1	35.000	40	25	1	48	87	29	67	5.6	28.5
sp|Q06587|RING1_HUMAN	augustus_masked-SC_scaffold130653-processed-gene-0.7-mRNA-1	44.444	45	24	1	45	89	18	61	0.049	34.7
sp|Q06587|RING1_HUMAN	maker-SC_scaffold6881-augustus-gene-0.9-mRNA-1	36.207	58	29	2	48	98	71	127	0.051	35.0
sp|Q06587|RING1_HUMAN	augustus_masked-SC_scaffold41860-processed-gene-0.0-mRNA-1	40.385	52	27	3	42	90	10	60	0.051	35.0
sp|Q06587|RING1_HUMAN	augustus_masked-SC_scaffold22514-processed-gene-0.0-mRNA-1	34.483	58	30	2	48	98	59	115	0.053	33.9
sp|Q06587|RING1_HUMAN	maker-SC_scaffold1690-snap-gene-0.103-mRNA-1	36.923	65	28	4	48	109	51	105	0.053	35.0
sp|Q06587|RING1_HUMAN	snap_masked-SC_scaffold115273-processed-gene-0.11-mRNA-1	37.255	51	27	2	42	88	18	67	0.054	34.7
sp|Q06587|RING1_HUMAN	maker-SC_scaffold52248-snap-gene-0.15-mRNA-1	30.435	69	42	2	27	90	33	100	0.054	34.3
sp|Q06587|RING1_HUMAN	snap_masked-SC_scaffold125959-processed-gene-0.1-mRNA-1	31.111	45	30	1	45	89	21	64	0.059	33.1
sp|Q06587|RING1_HUMAN	maker-SC_scaffold135260-snap-gene-0.42-mRNA-1	29.231	65	35	1	45	109	48	101	0.059	34.7
sp|Q06587|RING1_HUMAN	snap_masked-SC_scaffold1757-processed-gene-0.24-mRNA-1	32.812	64	31	2	46	109	23	74	0.060	34.7
sp|Q06587|RING1_HUMAN	maker-SC_scaffold7174-snap-gene-0.215-mRNA-1	40.476	42	24	1	48	89	207	247	0.065	34.7
sp|Q06587|RING1_HUMAN	augustus_masked-SC_scaffold85972-processed-gene-0.1-mRNA-1	32.877	73	43	3	20	89	24	93	0.066	33.5
sp|Q06587|RING1_HUMAN	maker-SC_scaffold128589-snap-gene-0.35-mRNA-1	38.095	42	25	1	48	89	46	86	0.067	33.1
sp|Q06587|RING1_HUMAN	augustus_masked-SC_scaffold11331-processed-gene-0.0-mRNA-1	33.333	54	33	2	45	96	14	66	0.068	34.7
sp|Q06587|RING1_HUMAN	augustus_masked-SC_scaffold145648-processed-gene-0.2-mRNA-1	30.612	49	33	1	45	93	16	63	0.069	34.7
sp|Q06587|RING1_HUMAN	maker-SC_scaffold7149-snap-gene-0.117-mRNA-1	35.185	54	30	3	40	89	13	65	0.071	34.7
sp|Q06587|RING1_HUMAN	augustus_masked-SC_scaffold2863-processed-gene-0.9-mRNA-1	30.769	52	35	1	42	93	43	93	0.075	34.3
sp|Q06587|RING1_HUMAN	snap_masked-SC_scaffold13016-processed-gene-0.5-mRNA-1	35.185	54	30	3	40	89	13	65	0.077	34.7
sp|Q06587|RING1_HUMAN	augustus_masked-SC_scaffold31131-processed-gene-0.0-mRNA-1	32.174	115	58	8	42	142	15	123	0.080	34.7
sp|Q06587|RING1_HUMAN	maker-SC_scaffold146083-snap-gene-0.34-mRNA-1	31.148	61	31	4	48	98	156	215	0.083	34.3
sp|Q06587|RING1_HUMAN	snap_masked-SC_scaffold6742-processed-gene-0.14-mRNA-1	40.476	42	24	1	48	89	333	373	0.083	34.3
sp|Q06587|RING1_HUMAN	maker-SC_scaffold11176-snap-gene-0.3-mRNA-1	24.194	62	35	4	48	98	12	72	0.094	31.6
sp|Q06587|RING1_HUMAN	maker-SC_scaffold9379-snap-gene-0.13-mRNA-1	32.558	43	28	1	48	90	56	97	0.099	33.9
sp|Q06587|RING1_HUMAN	augustus_masked-SC_scaffold130653-processed-gene-0.6-mRNA-1	44.444	45	24	1	45	89	18	61	0.10	33.9
sp|Q06587|RING1_HUMAN	maker-SC_scaffold6824-snap-gene-0.67-mRNA-1	31.034	58	35	2	35	88	7	63	0.10	33.9
sp|Q06587|RING1_HUMAN	augustus_masked-SC_scaffold32175-processed-gene-0.0-mRNA-1	28.571	70	46	2	24	90	3	71	0.11	33.9
sp|Q06587|RING1_HUMAN	augustus_masked-SC_scaffold56856-processed-gene-0.0-mRNA-1	26.761	71	40	2	44	114	53	111	0.12	33.9
sp|Q06587|RING1_HUMAN	maker-SC_scaffold603-augustus-gene-0.45-mRNA-1	35.897	39	24	1	40	78	11	48	0.12	33.5
sp|Q06587|RING1_HUMAN	maker-SC_scaffold50422-augustus-gene-0.15-mRNA-1	35.556	45	28	1	45	89	128	171	0.13	33.5
sp|Q06587|RING1_HUMAN	augustus_masked-SC_scaffold9926-processed-gene-0.0-mRNA-1	31.034	58	35	2	35	88	7	63	0.13	33.9
sp|Q06587|RING1_HUMAN	maker-SC_scaffold1539-snap-gene-0.6-mRNA-1	35.294	51	31	2	41	90	14	63	0.13	33.9
sp|Q06587|RING1_HUMAN	augustus_masked-SC_scaffold111601-processed-gene-0.0-mRNA-1	31.579	57	36	2	33	89	46	99	0.14	33.1
sp|Q06587|RING1_HUMAN	augustus_masked-SC_scaffold535-processed-gene-0.4-mRNA-1	35.294	68	35	4	39	102	139	201	0.15	33.5
sp|Q06587|RING1_HUMAN	augustus_masked-SC_scaffold99475-processed-gene-0.0-mRNA-1	29.730	74	45	3	37	110	22	88	0.15	33.5
sp|Q06587|RING1_HUMAN	maker-SC_scaffold53502-snap-gene-0.16-mRNA-1	31.481	54	32	2	40	89	137	189	0.15	32.7
sp|Q06587|RING1_HUMAN	snap_masked-SC_scaffold1690-processed-gene-0.38-mRNA-1	32.787	61	29	4	48	98	55	113	0.15	33.5
sp|Q06587|RING1_HUMAN	maker-SC_scaffold124722-augustus-gene-0.1-mRNA-1	31.343	67	35	4	22	87	49	105	0.16	32.0
sp|Q06587|RING1_HUMAN	augustus_masked-SC_scaffold289-processed-gene-0.22-mRNA-1	36.585	41	26	0	48	88	22	62	0.16	33.5
sp|Q06587|RING1_HUMAN	maker-SC_scaffold99087-augustus-gene-0.6-mRNA-1	35.714	42	26	1	48	89	187	227	0.17	33.5
sp|Q06587|RING1_HUMAN	maker-SC_scaffold51959-augustus-gene-0.100-mRNA-1	34.783	46	25	2	48	89	92	136	0.17	33.1
sp|Q06587|RING1_HUMAN	snap_masked-SC_scaffold12712-processed-gene-0.0-mRNA-1	28.395	81	42	4	36	106	15	89	0.18	32.3
sp|Q06587|RING1_HUMAN	maker-SC_scaffold139341-snap-gene-0.43-mRNA-1	37.778	45	27	1	45	89	41	84	0.18	33.5
sp|Q06587|RING1_HUMAN	augustus_masked-SC_scaffold34789-processed-gene-0.0-mRNA-1	36.585	41	26	0	48	88	22	62	0.19	33.1
sp|Q06587|RING1_HUMAN	snap_masked-SC_scaffold17168-processed-gene-0.1-mRNA-1	36.364	44	27	1	45	88	42	84	0.19	33.1
sp|Q06587|RING1_HUMAN	augustus_masked-SC_scaffold130653-processed-gene-0.9-mRNA-1	45.238	42	22	1	48	89	21	61	0.19	33.1
sp|Q06587|RING1_HUMAN	snap_masked-SC_scaffold68713-processed-gene-0.2-mRNA-1	31.707	41	27	1	50	90	4	43	0.23	30.4
sp|Q06587|RING1_HUMAN	augustus_masked-SC_scaffold26336-processed-gene-0.0-mRNA-1	35.714	56	32	3	38	90	6	60	0.24	33.1
sp|Q06587|RING1_HUMAN	augustus_masked-SC_scaffold13656-processed-gene-0.0-mRNA-1	33.333	66	39	2	44	105	45	109	0.24	32.7
sp|Q06587|RING1_HUMAN	maker-SC_scaffold1367-augustus-gene-0.91-mRNA-1	31.746	63	36	3	48	110	166	221	0.24	32.7
sp|Q06587|RING1_HUMAN	augustus_masked-SC_scaffold56319-processed-gene-0.0-mRNA-1	33.333	45	29	1	48	92	22	65	0.25	32.7
sp|Q06587|RING1_HUMAN	maker-SC_scaffold95239-augustus-gene-0.7-mRNA-1	30.303	66	45	1	24	89	22	86	0.27	32.3
sp|Q06587|RING1_HUMAN	augustus_masked-SC_scaffold3719-processed-gene-0.8-mRNA-1	31.507	73	48	2	45	117	19	89	0.28	32.3
sp|Q06587|RING1_HUMAN	augustus_masked-SC_scaffold123823-processed-gene-0.29-mRNA-1	37.500	48	25	2	45	88	42	88	0.29	32.7
sp|Q06587|RING1_HUMAN	snap_masked-SC_scaffold117063-processed-gene-0.1-mRNA-1	32.727	55	29	3	42	90	57	109	0.29	32.3
sp|Q06587|RING1_HUMAN	maker-SC_scaffold2185-augustus-gene-0.72-mRNA-1	34.783	46	25	2	48	89	21	65	0.32	31.6
sp|Q06587|RING1_HUMAN	snap_masked-SC_scaffold3686-processed-gene-0.11-mRNA-1	38.095	42	25	1	48	89	135	175	0.33	32.0
sp|Q06587|RING1_HUMAN	augustus_masked-SC_scaffold1232-processed-gene-0.5-mRNA-1	35.294	51	30	2	39	89	55	102	0.34	32.3
sp|Q06587|RING1_HUMAN	augustus_masked-SC_scaffold2339-processed-gene-0.15-mRNA-1	35.556	45	28	1	46	90	36	79	0.40	32.0
sp|Q06587|RING1_HUMAN	maker-SC_scaffold5822-augustus-gene-0.12-mRNA-1	35.385	65	30	4	48	112	272	324	0.40	32.0
sp|Q06587|RING1_HUMAN	maker-SC_scaffold3972-snap-gene-0.70-mRNA-1	36.957	46	27	2	46	91	22	65	0.43	32.0
sp|Q06587|RING1_HUMAN	augustus_masked-SC_scaffold108484-processed-gene-0.0-mRNA-1	35.185	54	30	3	40	89	13	65	0.45	31.6
sp|Q06587|RING1_HUMAN	maker-SC_scaffold44698-snap-gene-0.10-mRNA-1	45.455	33	17	1	42	74	226	257	0.46	32.0
sp|Q06587|RING1_HUMAN	maker-SC_scaffold44698-snap-gene-0.10-mRNA-1	40.000	30	17	1	44	73	138	166	2.1	30.0
sp|Q06587|RING1_HUMAN	augustus_masked-SC_scaffold124357-processed-gene-0.0-mRNA-1	32.759	58	34	3	34	87	6	62	0.48	32.0
sp|Q06587|RING1_HUMAN	augustus_masked-SC_scaffold5606-processed-gene-0.3-mRNA-1	38.095	42	25	1	48	89	113	153	0.49	32.0
sp|Q06587|RING1_HUMAN	maker-SC_scaffold4407-snap-gene-0.23-mRNA-1	36.842	57	30	3	38	89	10	65	0.50	32.0
sp|Q06587|RING1_HUMAN	maker-SC_scaffold96481-snap-gene-0.13-mRNA-1	26.667	90	57	3	40	121	13	101	0.54	30.8
sp|Q06587|RING1_HUMAN	maker-SC_scaffold2306-snap-gene-0.162-mRNA-1	38.182	55	26	3	39	91	179	227	0.55	31.6
sp|Q06587|RING1_HUMAN	snap_masked-SC_scaffold65685-processed-gene-0.0-mRNA-1	43.333	30	12	2	64	88	47	76	0.57	30.0
sp|Q06587|RING1_HUMAN	augustus_masked-SC_scaffold106450-processed-gene-0.2-mRNA-1	32.609	46	30	1	45	89	42	87	0.57	31.6
sp|Q06587|RING1_HUMAN	snap_masked-SC_scaffold142607-processed-gene-0.1-mRNA-1	35.849	53	30	2	48	98	51	101	0.60	30.8
sp|Q06587|RING1_HUMAN	augustus_masked-SC_scaffold50970-processed-gene-0.0-mRNA-1	32.143	56	37	1	48	103	21	75	0.66	31.6
sp|Q06587|RING1_HUMAN	snap_masked-SC_scaffold115837-processed-gene-0.0-mRNA-1	32.727	55	34	2	33	87	43	94	0.66	30.8
sp|Q06587|RING1_HUMAN	maker-SC_scaffold3404-augustus-gene-0.107-mRNA-1	32.203	59	29	3	40	91	18	72	0.69	31.2
sp|Q06587|RING1_HUMAN	snap_masked-SC_scaffold2024-processed-gene-0.10-mRNA-1	30.769	39	26	1	35	73	1	38	0.69	30.8
sp|Q06587|RING1_HUMAN	augustus_masked-SC_scaffold80312-processed-gene-0.0-mRNA-1	33.333	48	27	2	45	88	48	94	0.73	31.2
sp|Q06587|RING1_HUMAN	maker-SC_scaffold23299-augustus-gene-0.48-mRNA-1	40.625	32	18	1	42	73	152	182	0.83	31.2
sp|Q06587|RING1_HUMAN	snap_masked-SC_scaffold111612-processed-gene-0.1-mRNA-1	46.667	30	11	2	64	88	47	76	1.0	30.8
sp|Q06587|RING1_HUMAN	augustus_masked-SC_scaffold15105-processed-gene-0.0-mRNA-1	40.625	32	18	1	42	73	13	43	1.1	30.8
sp|Q06587|RING1_HUMAN	augustus_masked-SC_scaffold111402-processed-gene-0.2-mRNA-1	31.915	47	31	1	45	90	28	74	1.1	30.4
sp|Q06587|RING1_HUMAN	augustus_masked-SC_scaffold50422-processed-gene-0.0-mRNA-1	30.435	46	31	1	45	89	60	105	1.1	29.6
sp|Q06587|RING1_HUMAN	maker-SC_scaffold139303-snap-gene-0.31-mRNA-1	27.451	51	35	2	40	89	13	62	1.1	30.8
sp|Q06587|RING1_HUMAN	augustus_masked-SC_scaffold1168-processed-gene-0.2-mRNA-1	36.364	44	27	1	44	87	17	59	1.1	30.4
sp|Q06587|RING1_HUMAN	augustus_masked-SC_scaffold50806-processed-gene-0.1-mRNA-1	29.508	61	42	1	46	106	20	79	1.1	30.4
sp|Q06587|RING1_HUMAN	snap_masked-SC_scaffold22196-processed-gene-0.3-mRNA-1	32.203	59	32	2	46	97	362	419	1.2	30.8
sp|Q06587|RING1_HUMAN	maker-SC_scaffold59493-augustus-gene-0.18-mRNA-1	27.778	54	34	2	40	89	43	95	1.3	30.0
sp|Q06587|RING1_HUMAN	maker-SC_scaffold2296-augustus-gene-0.12-mRNA-1	32.609	46	29	1	48	91	308	353	1.3	30.4
sp|Q06587|RING1_HUMAN	maker-SC_scaffold144741-augustus-gene-0.14-mRNA-1	32.836	67	40	2	23	89	4	65	1.3	30.4
sp|Q06587|RING1_HUMAN	augustus_masked-SC_scaffold144835-processed-gene-0.0-mRNA-1	33.333	54	31	3	40	89	2	54	1.3	30.4
sp|Q06587|RING1_HUMAN	snap_masked-SC_scaffold60467-processed-gene-0.3-mRNA-1	32.075	53	31	2	40	88	14	65	1.3	30.4
sp|Q06587|RING1_HUMAN	maker-SC_scaffold3715-snap-gene-0.27-mRNA-1	30.645	62	31	2	48	109	327	376	1.3	30.4
sp|Q06587|RING1_HUMAN	augustus_masked-SC_scaffold8820-processed-gene-0.0-mRNA-1	30.769	65	42	2	44	106	16	79	1.3	30.4
sp|Q06587|RING1_HUMAN	snap_masked-SC_scaffold5713-processed-gene-0.6-mRNA-1	31.579	57	31	3	42	92	1	55	1.4	28.1
sp|Q06587|RING1_HUMAN	maker-SC_scaffold114277-snap-gene-0.4-mRNA-1	22.222	81	51	2	29	109	69	137	1.4	30.0
sp|Q06587|RING1_HUMAN	augustus_masked-SC_scaffold143289-processed-gene-0.0-mRNA-1	37.500	40	24	1	48	87	34	72	1.5	30.0
sp|Q06587|RING1_HUMAN	augustus_masked-SC_scaffold117781-processed-gene-0.2-mRNA-1	33.962	53	31	3	48	98	47	97	1.5	29.3
sp|Q06587|RING1_HUMAN	augustus_masked-SC_scaffold115016-processed-gene-0.0-mRNA-1	33.333	45	29	1	45	88	60	104	1.7	30.0
sp|Q06587|RING1_HUMAN	augustus_masked-SC_scaffold18302-processed-gene-0.1-mRNA-1	38.000	50	26	3	43	88	6	54	1.8	30.0
sp|Q06587|RING1_HUMAN	maker-SC_scaffold1558-augustus-gene-0.4-mRNA-1	32.653	49	30	2	44	90	59	106	1.8	29.3
sp|Q06587|RING1_HUMAN	maker-SC_scaffold146905-snap-gene-0.740-mRNA-1	24.242	99	70	3	102	199	33	127	1.9	29.6
sp|Q06587|RING1_HUMAN	augustus_masked-SC_scaffold51528-processed-gene-0.0-mRNA-1	36.735	49	29	2	42	89	15	62	1.9	30.0
sp|Q06587|RING1_HUMAN	maker-SC_scaffold6618-snap-gene-0.719-mRNA-1	36.842	38	24	0	170	207	205	242	2.0	30.0
sp|Q06587|RING1_HUMAN	maker-SC_scaffold7577-snap-gene-0.22-mRNA-1	30.233	43	30	0	31	73	42	84	2.1	29.6
sp|Q06587|RING1_HUMAN	snap_masked-SC_scaffold138967-processed-gene-0.0-mRNA-1	43.333	30	12	2	64	88	29	58	2.2	28.1
sp|Q06587|RING1_HUMAN	snap_masked-SC_scaffold5445-processed-gene-0.0-mRNA-1	46.154	26	13	1	48	73	24	48	2.3	28.9
sp|Q06587|RING1_HUMAN	maker-SC_scaffold66823-snap-gene-0.8-mRNA-1	24.658	73	43	2	42	114	188	248	2.3	29.6
sp|Q06587|RING1_HUMAN	maker-SC_scaffold61258-snap-gene-0.20-mRNA-1	31.429	35	23	1	40	74	13	46	2.4	29.6
sp|Q06587|RING1_HUMAN	snap_masked-SC_scaffold168-processed-gene-0.4-mRNA-1	36.364	55	23	2	45	88	16	69	2.6	29.3
sp|Q06587|RING1_HUMAN	augustus_masked-SC_scaffold119401-processed-gene-0.0-mRNA-1	43.333	30	12	2	64	88	40	69	2.6	29.6
sp|Q06587|RING1_HUMAN	maker-SC_scaffold564-augustus-gene-0.26-mRNA-1	31.343	67	35	4	22	87	89	145	2.7	28.9
sp|Q06587|RING1_HUMAN	augustus_masked-SC_scaffold50569-processed-gene-0.11-mRNA-1	34.783	46	29	1	48	93	387	431	2.8	29.6
sp|Q06587|RING1_HUMAN	augustus_masked-SC_scaffold3404-processed-gene-0.30-mRNA-1	32.203	59	29	3	40	91	16	70	2.9	28.9
sp|Q06587|RING1_HUMAN	snap_masked-SC_scaffold140741-processed-gene-0.14-mRNA-1	40.741	27	15	1	50	76	2	27	3.0	27.7
sp|Q06587|RING1_HUMAN	maker-SC_scaffold41246-augustus-gene-0.16-mRNA-1	26.562	64	46	1	46	109	20	82	3.2	29.3
sp|Q06587|RING1_HUMAN	maker-SC_scaffold2850-snap-gene-0.41-mRNA-1	26.984	63	41	2	48	105	622	684	3.4	29.3
sp|Q06587|RING1_HUMAN	maker-SC_scaffold2850-snap-gene-0.41-mRNA-1	25.000	52	36	1	48	96	186	237	3.4	29.3
sp|Q06587|RING1_HUMAN	maker-SC_scaffold94334-augustus-gene-0.3-mRNA-1	32.759	58	34	2	45	98	21	77	3.4	28.5
sp|Q06587|RING1_HUMAN	augustus_masked-SC_scaffold82236-processed-gene-0.0-mRNA-1	35.294	34	21	1	40	73	13	45	3.5	28.9
sp|Q06587|RING1_HUMAN	maker-SC_scaffold7802-augustus-gene-0.3-mRNA-1	30.435	46	26	2	50	89	13	58	3.5	26.9
sp|Q06587|RING1_HUMAN	augustus_masked-SC_scaffold12026-processed-gene-0.15-mRNA-1	32.353	68	31	4	31	88	6	68	3.5	28.5
sp|Q06587|RING1_HUMAN	snap_masked-SC_scaffold132111-processed-gene-0.1-mRNA-1	43.333	30	12	2	64	88	47	76	3.5	29.3
sp|Q06587|RING1_HUMAN	augustus_masked-SC_scaffold33008-processed-gene-0.1-mRNA-1	34.146	41	22	1	48	88	29	64	3.9	28.9
sp|Q06587|RING1_HUMAN	maker-SC_scaffold33795-snap-gene-0.13-mRNA-1	37.500	40	23	1	58	97	165	202	3.9	28.9
sp|Q06587|RING1_HUMAN	augustus_masked-SC_scaffold112256-processed-gene-0.0-mRNA-1	35.294	51	28	3	42	88	33	82	3.9	28.9
sp|Q06587|RING1_HUMAN	augustus_masked-SC_scaffold45143-processed-gene-0.1-mRNA-1	35.714	56	31	2	48	98	37	92	4.0	28.9
sp|Q06587|RING1_HUMAN	maker-SC_scaffold97982-augustus-gene-0.15-mRNA-1	39.216	51	26	4	42	88	12	61	4.6	28.9
sp|Q06587|RING1_HUMAN	maker-SC_scaffold29010-augustus-gene-0.97-mRNA-1	41.379	29	13	2	64	88	496	524	4.8	28.9
sp|Q06587|RING1_HUMAN	maker-SC_scaffold26186-snap-gene-0.31-mRNA-1	36.000	50	27	2	44	88	176	225	5.0	28.9
sp|Q06587|RING1_HUMAN	augustus_masked-SC_scaffold73421-processed-gene-0.6-mRNA-1	25.424	59	41	2	33	89	7	64	5.3	28.5
sp|Q06587|RING1_HUMAN	snap_masked-SC_scaffold136081-processed-gene-0.1-mRNA-1	34.091	44	27	1	48	91	51	92	5.3	27.7
sp|Q06587|RING1_HUMAN	snap_masked-SC_scaffold7843-processed-gene-0.1-mRNA-1	32.609	46	27	2	31	73	1614	1658	5.8	28.5
sp|Q06587|RING1_HUMAN	maker-SC_scaffold140058-snap-gene-0.19-mRNA-1	35.000	80	45	4	164	242	578	651	6.3	28.5
sp|Q06587|RING1_HUMAN	augustus_masked-SC_scaffold46576-processed-gene-0.1-mRNA-1	32.558	43	28	1	45	87	21	62	6.4	28.5
sp|Q06587|RING1_HUMAN	augustus_masked-SC_scaffold2372-processed-gene-0.1-mRNA-1	28.571	49	32	1	45	93	23	68	6.4	28.1
sp|Q06587|RING1_HUMAN	augustus_masked-SC_scaffold144193-processed-gene-0.4-mRNA-1	36.000	50	27	2	44	88	20	69	6.6	28.1
sp|Q06587|RING1_HUMAN	maker-SC_scaffold3110-snap-gene-0.29-mRNA-1	36.667	30	15	1	64	89	4	33	6.8	28.1
sp|Q06587|RING1_HUMAN	maker-SC_scaffold290-snap-gene-0.7-mRNA-1	39.130	46	25	1	51	96	338	380	7.0	28.1
sp|Q06587|RING1_HUMAN	maker-SC_scaffold116809-augustus-gene-0.3-mRNA-1	22.222	63	38	1	48	110	29	80	7.3	27.7
sp|Q06587|RING1_HUMAN	maker-SC_scaffold135403-snap-gene-0.21-mRNA-1	28.704	108	68	3	159	264	245	345	8.1	28.1
sp|Q06587|RING1_HUMAN	augustus_masked-SC_scaffold52322-processed-gene-0.39-mRNA-1	32.558	43	28	1	45	87	21	62	8.3	28.1
sp|Q06587|RING1_HUMAN	maker-SC_scaffold76992-augustus-gene-0.24-mRNA-1	50.000	22	10	1	68	89	16	36	8.5	27.7
sp|Q06587|RING1_HUMAN	augustus_masked-SC_scaffold74460-processed-gene-0.1-mRNA-1	28.571	56	37	2	34	89	19	71	8.5	28.1
sp|Q06587|RING1_HUMAN	maker-SC_scaffold110532-snap-gene-0.59-mRNA-1	36.585	41	24	1	57	97	214	252	8.5	27.7
sp|Q06587|RING1_HUMAN	augustus_masked-SC_scaffold110160-processed-gene-0.2-mRNA-1	46.429	28	11	2	64	87	26	53	8.5	26.2
sp|Q06587|RING1_HUMAN	augustus_masked-SC_scaffold86491-processed-gene-0.0-mRNA-1	33.333	54	31	3	40	89	13	65	8.9	27.3
sp|Q06587|RING1_HUMAN	maker-SC_scaffold126292-snap-gene-0.15-mRNA-1	37.931	29	14	2	64	88	29	57	9.1	27.7
sp|Q06587|RING1_HUMAN	maker-SC_scaffold88090-augustus-gene-0.14-mRNA-1	35.714	56	31	2	45	100	114	164	9.3	27.7
sp|Q06587|RING1_HUMAN	augustus_masked-SC_scaffold140852-processed-gene-0.26-mRNA-1	28.571	63	33	2	44	106	48	98	9.7	27.7
sp|Q06587|RING1_HUMAN	maker-SC_scaffold141983-snap-gene-0.8-mRNA-1	29.268	41	28	1	45	85	23	62	9.8	26.9
sp|Q06587|RING1_HUMAN	snap_masked-SC_scaffold26952-processed-gene-0.2-mRNA-1	28.571	49	33	1	48	94	280	328	10.0	27.7
