sp|Q99496|RING2_HUMAN	XP_012561073.1	49.855	345	134	9	1	330	2	322	1.85e-105	311
sp|Q99496|RING2_HUMAN	XP_002161941.3	49.855	345	134	9	1	330	2	322	1.85e-105	311
sp|Q99496|RING2_HUMAN	XP_002160282.3	39.189	74	40	3	44	113	13	85	1.23e-09	59.3
sp|Q99496|RING2_HUMAN	XP_012554870.1	38.596	57	34	1	51	107	714	769	6.68e-08	53.5
sp|Q99496|RING2_HUMAN	XP_002164501.2	34.921	63	39	2	48	110	87	147	4.54e-07	50.8
sp|Q99496|RING2_HUMAN	XP_012555081.1	33.333	84	48	3	37	115	8	88	1.57e-05	45.4
sp|Q99496|RING2_HUMAN	XP_002163397.1	26.596	94	63	3	40	128	5	97	1.94e-05	45.1
sp|Q99496|RING2_HUMAN	XP_002168887.1	38.235	68	40	2	45	112	13	78	4.28e-05	44.3
sp|Q99496|RING2_HUMAN	XP_002166247.2	37.097	62	31	3	47	102	180	239	1.30e-04	42.4
sp|Q99496|RING2_HUMAN	XP_002155572.2	40.385	52	27	2	44	92	12	62	2.91e-04	42.4
sp|Q99496|RING2_HUMAN	XP_012564121.1	25.000	76	56	1	43	118	410	484	4.85e-04	41.2
sp|Q99496|RING2_HUMAN	XP_012554643.1	34.545	55	34	2	37	90	807	860	5.12e-04	41.6
sp|Q99496|RING2_HUMAN	XP_012554642.1	34.545	55	34	2	37	90	807	860	5.12e-04	41.6
sp|Q99496|RING2_HUMAN	XP_012557608.1	31.081	74	47	2	45	115	10	82	5.37e-04	40.4
sp|Q99496|RING2_HUMAN	XP_012560458.1	47.500	40	19	1	37	76	46	83	5.51e-04	39.3
sp|Q99496|RING2_HUMAN	XP_002159773.1	36.364	44	27	1	51	94	357	399	6.51e-04	40.8
sp|Q99496|RING2_HUMAN	XP_012555355.1	30.769	78	45	3	47	117	11	86	7.41e-04	40.4
sp|Q99496|RING2_HUMAN	XP_002166546.1	44.444	45	22	2	49	91	16	59	0.001	39.3
sp|Q99496|RING2_HUMAN	XP_002157712.2	28.866	97	51	4	15	97	322	414	0.002	39.7
sp|Q99496|RING2_HUMAN	XP_012558638.1	38.636	44	26	1	49	91	11	54	0.003	38.9
sp|Q99496|RING2_HUMAN	XP_002157228.2	38.636	44	26	1	49	91	11	54	0.003	38.9
sp|Q99496|RING2_HUMAN	XP_012557248.1	40.000	50	29	1	45	94	19	67	0.004	38.5
sp|Q99496|RING2_HUMAN	XP_012554262.1	33.333	48	27	2	51	94	71	117	0.004	37.7
sp|Q99496|RING2_HUMAN	XP_012559827.1	36.538	52	32	1	44	94	49	100	0.005	38.1
sp|Q99496|RING2_HUMAN	XP_012558027.1	41.818	55	25	3	37	88	43	93	0.005	37.7
sp|Q99496|RING2_HUMAN	XP_012558026.1	41.818	55	25	3	37	88	43	93	0.007	37.7
sp|Q99496|RING2_HUMAN	XP_012558028.1	48.485	33	17	0	44	76	51	83	0.007	37.7
sp|Q99496|RING2_HUMAN	XP_012554996.1	32.000	75	47	3	25	96	460	533	0.007	37.7
sp|Q99496|RING2_HUMAN	XP_012559220.1	36.957	46	26	2	51	96	191	233	0.008	37.0
sp|Q99496|RING2_HUMAN	XP_012554997.1	32.000	75	47	3	25	96	460	533	0.008	37.7
sp|Q99496|RING2_HUMAN	XP_004207788.2	29.730	74	39	3	50	111	304	376	0.008	37.4
sp|Q99496|RING2_HUMAN	XP_012556447.1	29.851	67	43	1	39	101	217	283	0.009	37.4
sp|Q99496|RING2_HUMAN	XP_012553536.1	33.333	60	38	2	45	104	334	391	0.012	37.0
sp|Q99496|RING2_HUMAN	XP_012553535.1	33.333	60	38	2	45	104	334	391	0.012	37.0
sp|Q99496|RING2_HUMAN	XP_012555631.1	53.125	32	15	0	45	76	5	36	0.012	36.6
sp|Q99496|RING2_HUMAN	XP_012563599.1	38.095	42	25	1	51	91	281	322	0.013	36.6
sp|Q99496|RING2_HUMAN	XP_002155270.1	33.898	59	37	2	48	106	16	72	0.018	36.2
sp|Q99496|RING2_HUMAN	XP_002156351.3	34.615	52	31	2	38	88	16	65	0.019	36.2
sp|Q99496|RING2_HUMAN	XP_012566534.1	25.287	87	52	3	50	124	148	233	0.020	36.2
sp|Q99496|RING2_HUMAN	XP_012566801.1	38.000	50	28	2	47	94	51	99	0.027	36.2
sp|Q99496|RING2_HUMAN	XP_012566800.1	38.000	50	28	2	47	94	51	99	0.027	36.2
sp|Q99496|RING2_HUMAN	XP_012566799.1	38.000	50	28	2	47	94	51	99	0.027	36.2
sp|Q99496|RING2_HUMAN	XP_012566798.1	38.000	50	28	2	47	94	51	99	0.027	36.2
sp|Q99496|RING2_HUMAN	XP_004208086.1	35.088	57	35	2	45	101	328	382	0.044	35.0
sp|Q99496|RING2_HUMAN	XP_012555633.1	42.424	33	19	0	44	76	4	36	0.045	34.7
sp|Q99496|RING2_HUMAN	XP_004207372.1	42.424	33	19	0	44	76	4	36	0.045	34.7
sp|Q99496|RING2_HUMAN	XP_012563483.1	35.185	54	32	2	51	102	38	90	0.058	34.7
sp|Q99496|RING2_HUMAN	XP_012562696.1	35.294	51	28	1	48	98	8	53	0.058	34.3
sp|Q99496|RING2_HUMAN	XP_004209843.1	29.630	54	37	1	46	99	5	57	0.071	34.3
sp|Q99496|RING2_HUMAN	XP_012555277.1	32.500	40	24	1	37	76	7	43	0.17	33.5
sp|Q99496|RING2_HUMAN	XP_012556107.1	36.207	58	35	2	48	104	226	282	0.19	32.7
sp|Q99496|RING2_HUMAN	XP_012556687.1	34.091	44	27	1	47	88	14	57	0.21	32.7
sp|Q99496|RING2_HUMAN	XP_004211375.2	33.333	48	31	1	43	90	18	64	0.27	32.3
sp|Q99496|RING2_HUMAN	XP_002162099.1	28.378	74	47	2	27	100	23	90	0.27	32.3
sp|Q99496|RING2_HUMAN	XP_004207529.1	24.390	82	60	2	19	100	91	170	0.29	32.7
sp|Q99496|RING2_HUMAN	XP_004205675.1	34.375	32	21	0	45	76	12	43	0.31	32.3
sp|Q99496|RING2_HUMAN	XP_002165462.1	33.962	53	33	2	51	103	251	301	0.32	32.3
sp|Q99496|RING2_HUMAN	XP_012555903.1	26.042	96	58	4	53	139	152	243	0.51	31.6
sp|Q99496|RING2_HUMAN	XP_012555133.1	31.111	45	28	1	51	92	9	53	0.52	32.0
sp|Q99496|RING2_HUMAN	XP_012555474.1	33.333	36	22	1	51	84	399	434	0.59	31.6
sp|Q99496|RING2_HUMAN	XP_012555473.1	33.333	36	22	1	51	84	400	435	0.60	31.6
sp|Q99496|RING2_HUMAN	XP_012560979.1	35.000	40	21	1	60	94	31	70	0.61	31.6
sp|Q99496|RING2_HUMAN	XP_002166121.1	33.333	45	27	2	48	90	12	55	0.75	31.2
sp|Q99496|RING2_HUMAN	XP_002162097.2	27.660	47	32	1	50	94	222	268	1.2	30.4
sp|Q99496|RING2_HUMAN	XP_012558713.1	33.333	51	25	3	46	91	118	164	1.3	30.4
sp|Q99496|RING2_HUMAN	XP_012566126.1	31.250	32	22	0	50	81	148	179	1.3	30.0
sp|Q99496|RING2_HUMAN	XP_012564934.1	28.889	45	19	2	49	90	152	186	1.4	30.4
sp|Q99496|RING2_HUMAN	XP_002163269.2	34.043	47	24	2	51	97	399	438	1.6	30.0
sp|Q99496|RING2_HUMAN	XP_012554508.1	27.619	105	60	6	1	100	874	967	1.6	30.4
sp|Q99496|RING2_HUMAN	XP_012554507.1	27.619	105	60	6	1	100	891	984	1.7	30.4
sp|Q99496|RING2_HUMAN	XP_012557026.1	32.584	89	34	4	24	106	52	120	1.7	30.0
sp|Q99496|RING2_HUMAN	XP_002170590.3	31.818	44	30	0	51	94	17	60	1.7	30.0
sp|Q99496|RING2_HUMAN	XP_002159074.2	25.373	67	49	1	35	101	2	67	2.5	29.6
sp|Q99496|RING2_HUMAN	XP_012558349.1	29.545	44	30	1	51	94	261	303	2.9	29.3
sp|Q99496|RING2_HUMAN	XP_002158777.2	24.138	58	41	1	43	100	262	316	3.1	29.3
sp|Q99496|RING2_HUMAN	XP_012564817.1	36.957	46	27	2	50	95	512	555	3.3	29.3
sp|Q99496|RING2_HUMAN	XP_002159854.3	27.536	69	45	2	36	99	119	187	3.9	28.9
sp|Q99496|RING2_HUMAN	XP_012563945.1	33.333	27	18	0	50	76	149	175	7.6	27.7
sp|Q99496|RING2_HUMAN	XP_012561609.1	29.825	57	32	1	73	121	397	453	7.7	28.1
sp|Q99496|RING2_HUMAN	XP_002158303.2	40.351	57	24	4	41	88	132	187	7.7	28.1
sp|Q99496|RING2_HUMAN	XP_002167503.2	32.500	40	26	1	20	59	19	57	9.7	26.9
sp|Q99496|RING2_HUMAN	XP_012554605.1	41.379	29	16	1	68	96	1	28	10.0	27.3
