sp|Q99496|RING2_HUMAN	XP_001744915.1	51.648	91	44	0	51	141	1	91	2.29e-27	102
sp|Q99496|RING2_HUMAN	XP_001748213.1	24.779	226	112	5	49	271	167	337	1.28e-09	57.8
sp|Q99496|RING2_HUMAN	XP_001749812.1	42.857	56	28	3	41	94	4	57	9.48e-08	52.0
sp|Q99496|RING2_HUMAN	XP_001745442.1	40.741	54	28	1	43	92	26	79	4.38e-06	47.0
sp|Q99496|RING2_HUMAN	XP_001748827.1	34.615	52	33	1	43	94	1057	1107	4.76e-05	43.9
sp|Q99496|RING2_HUMAN	XP_001749668.1	40.426	47	24	2	51	94	1001	1046	5.65e-05	43.9
sp|Q99496|RING2_HUMAN	XP_001750277.1	38.235	34	21	0	43	76	5	38	0.001	38.9
sp|Q99496|RING2_HUMAN	XP_001746034.1	33.962	53	33	2	49	100	22	73	0.001	39.3
sp|Q99496|RING2_HUMAN	XP_001744891.1	34.426	61	35	3	51	108	882	940	0.002	38.9
sp|Q99496|RING2_HUMAN	XP_001744497.1	39.583	48	28	1	51	98	358	404	0.002	38.5
sp|Q99496|RING2_HUMAN	XP_001745984.1	28.409	88	56	4	37	124	7	87	0.003	37.7
sp|Q99496|RING2_HUMAN	XP_001747884.1	32.353	68	42	3	29	95	76	140	0.010	36.6
sp|Q99496|RING2_HUMAN	XP_001749063.1	25.490	102	68	3	36	131	3769	3868	0.012	36.6
sp|Q99496|RING2_HUMAN	XP_001742444.1	40.000	45	26	1	49	93	34	77	0.025	35.0
sp|Q99496|RING2_HUMAN	XP_001745620.1	38.000	50	28	2	44	91	656	704	0.061	33.9
sp|Q99496|RING2_HUMAN	XP_001742636.1	35.714	42	25	2	49	90	163	202	0.11	32.3
sp|Q99496|RING2_HUMAN	XP_001746838.1	29.730	37	26	0	47	83	27	63	0.13	33.1
sp|Q99496|RING2_HUMAN	XP_001744783.1	34.848	66	32	4	51	110	148	208	0.18	32.0
sp|Q99496|RING2_HUMAN	XP_001744385.1	32.203	59	32	3	41	96	280	333	0.26	32.0
sp|Q99496|RING2_HUMAN	XP_001745549.1	29.508	61	36	2	50	104	344	403	0.30	31.6
sp|Q99496|RING2_HUMAN	XP_001743570.1	35.417	48	28	2	49	94	10	56	0.35	28.9
sp|Q99496|RING2_HUMAN	XP_001747107.1	29.787	47	32	1	49	95	29	74	0.53	31.2
sp|Q99496|RING2_HUMAN	XP_001746192.1	28.409	88	47	4	20	94	33	117	0.54	30.4
sp|Q99496|RING2_HUMAN	XP_001749213.1	28.571	77	54	1	51	126	27	103	0.56	30.8
sp|Q99496|RING2_HUMAN	XP_001746197.1	31.522	92	56	5	31	119	2	89	0.62	30.4
sp|Q99496|RING2_HUMAN	XP_001744130.1	29.412	51	26	2	50	93	40	87	0.76	30.4
sp|Q99496|RING2_HUMAN	XP_001746132.1	38.095	42	24	2	67	108	41	80	1.0	30.0
sp|Q99496|RING2_HUMAN	XP_001742341.1	26.966	89	57	3	57	137	737	825	1.1	30.0
sp|Q99496|RING2_HUMAN	XP_001744458.1	31.507	73	30	4	51	113	33	95	1.4	29.3
sp|Q99496|RING2_HUMAN	XP_001749383.1	30.000	60	28	2	76	121	56	115	3.0	28.5
sp|Q99496|RING2_HUMAN	XP_001748573.1	31.429	35	16	1	71	105	7	33	4.4	28.1
sp|Q99496|RING2_HUMAN	XP_001747281.1	26.950	141	76	6	189	324	532	650	5.4	27.7
sp|Q99496|RING2_HUMAN	XP_001743122.1	40.000	25	15	0	103	127	2323	2347	6.2	27.7
