sp|Q99496-2|RING2_HUMAN	m.146848	49.231	65	33	0	19	83	39	103	3.97e-17	78.6
sp|Q99496-2|RING2_HUMAN	m.104002	43.939	66	35	2	16	81	29	92	4.14e-10	58.5
sp|Q99496-2|RING2_HUMAN	m.94663	41.667	36	21	0	42	77	134	169	1.68e-04	42.0
sp|Q99496-2|RING2_HUMAN	m.28796	38.889	36	22	0	50	85	38	73	0.004	37.0
sp|Q99496-2|RING2_HUMAN	m.94888	41.176	34	19	1	43	76	712	744	0.010	36.6
sp|Q99496-2|RING2_HUMAN	m.8823	46.429	28	15	0	51	78	31	58	0.015	35.4
sp|Q99496-2|RING2_HUMAN	m.98363	44.828	29	16	0	49	77	68	96	0.015	35.4
sp|Q99496-2|RING2_HUMAN	m.98363	33.333	36	19	1	175	205	216	251	4.3	27.7
sp|Q99496-2|RING2_HUMAN	m.77862	36.735	49	27	2	50	95	303	350	0.024	35.0
sp|Q99496-2|RING2_HUMAN	m.62101	41.176	34	20	0	43	76	111	144	0.045	34.3
sp|Q99496-2|RING2_HUMAN	m.27338	35.000	40	26	0	43	82	12	51	0.067	33.9
sp|Q99496-2|RING2_HUMAN	m.54057	48.387	31	15	1	45	75	279	308	0.15	32.7
sp|Q99496-2|RING2_HUMAN	m.250867	34.884	43	26	1	34	76	1180	1220	0.18	32.7
sp|Q99496-2|RING2_HUMAN	m.89164	32.759	58	33	1	31	88	3	54	0.30	30.4
sp|Q99496-2|RING2_HUMAN	m.46412	39.286	28	16	1	49	76	87	113	0.46	30.8
sp|Q99496-2|RING2_HUMAN	m.156762	39.394	33	20	0	43	75	945	977	0.55	31.2
sp|Q99496-2|RING2_HUMAN	m.103580	42.424	33	18	1	44	76	73	104	0.61	30.8
sp|Q99496-2|RING2_HUMAN	m.224155	32.787	61	35	2	184	241	390	447	0.84	30.4
sp|Q99496-2|RING2_HUMAN	m.69196	30.556	36	24	1	49	84	298	332	0.91	30.0
sp|Q99496-2|RING2_HUMAN	m.21796	32.000	50	23	2	50	88	229	278	1.5	29.3
sp|Q99496-2|RING2_HUMAN	m.177258	26.087	69	48	1	47	115	55	120	2.0	28.5
sp|Q99496-2|RING2_HUMAN	m.236619	42.308	26	13	1	51	76	3586	3609	2.2	29.3
sp|Q99496-2|RING2_HUMAN	m.124765	33.333	42	27	1	45	86	72	112	2.5	28.5
sp|Q99496-2|RING2_HUMAN	m.164485	39.394	33	19	1	44	76	81	112	2.7	28.9
sp|Q99496-2|RING2_HUMAN	m.138973	29.412	34	24	0	49	82	39	72	2.8	28.9
sp|Q99496-2|RING2_HUMAN	m.115413	36.842	38	17	1	50	80	326	363	2.8	28.5
sp|Q99496-2|RING2_HUMAN	m.69227	32.432	37	25	0	160	196	551	587	5.0	27.7
sp|Q99496-2|RING2_HUMAN	m.132093	34.091	44	29	0	50	93	127	170	6.0	27.7
sp|Q99496-2|RING2_HUMAN	m.182553	42.308	26	15	0	76	101	959	984	6.5	27.7
sp|Q99496-2|RING2_HUMAN	m.63128	31.111	45	23	1	183	219	90	134	8.1	26.9
sp|Q99496-2|RING2_HUMAN	m.254298	31.111	45	31	0	139	183	500	544	8.5	27.3
sp|Q99496-2|RING2_HUMAN	m.157786	37.209	43	24	1	86	128	695	734	9.5	26.9
