sp|Q99496|RING2_HUMAN	m.27466	44.025	159	85	2	17	171	8	166	4.08e-41	146
sp|Q99496|RING2_HUMAN	m.251238	32.794	247	151	4	45	290	58	290	1.88e-32	123
sp|Q99496|RING2_HUMAN	m.12380	41.429	70	38	3	45	113	43	110	6.49e-08	54.3
sp|Q99496|RING2_HUMAN	m.416959	21.927	301	148	10	43	331	96	321	1.02e-07	52.8
sp|Q99496|RING2_HUMAN	m.127928	44.643	56	26	3	51	106	36	86	4.43e-07	51.2
sp|Q99496|RING2_HUMAN	m.246436	39.583	48	26	1	51	95	2	49	2.83e-05	42.0
sp|Q99496|RING2_HUMAN	m.43996	39.535	43	26	0	49	91	208	250	3.86e-05	45.1
sp|Q99496|RING2_HUMAN	m.44007	39.535	43	26	0	49	91	208	250	4.12e-05	45.1
sp|Q99496|RING2_HUMAN	m.34331	37.209	43	27	0	49	91	433	475	4.29e-05	45.1
sp|Q99496|RING2_HUMAN	m.148410	38.333	60	29	3	51	108	95	148	6.46e-05	42.7
sp|Q99496|RING2_HUMAN	m.229346	27.885	104	60	3	30	119	186	288	9.42e-05	43.9
sp|Q99496|RING2_HUMAN	m.50060	39.216	51	29	2	51	101	284	332	3.23e-04	42.0
sp|Q99496|RING2_HUMAN	m.165991	39.286	56	27	3	40	91	235	287	4.69e-04	41.6
sp|Q99496|RING2_HUMAN	m.220371	34.375	64	40	2	49	112	903	964	5.11e-04	42.0
sp|Q99496|RING2_HUMAN	m.57810	29.688	128	66	6	51	171	621	731	5.17e-04	42.0
sp|Q99496|RING2_HUMAN	m.118395	40.000	50	22	3	51	94	500	547	8.88e-04	40.8
sp|Q99496|RING2_HUMAN	m.123368	30.435	69	45	3	45	113	28	93	0.001	40.8
sp|Q99496|RING2_HUMAN	m.123719	38.298	47	26	2	46	91	198	242	0.002	39.3
sp|Q99496|RING2_HUMAN	m.306057	27.027	74	46	1	36	101	100	173	0.002	39.7
sp|Q99496|RING2_HUMAN	m.37854	28.125	64	43	2	38	98	7	70	0.002	39.7
sp|Q99496|RING2_HUMAN	m.415120	26.984	63	36	1	51	103	1135	1197	0.003	39.3
sp|Q99496|RING2_HUMAN	m.90644	38.298	47	26	1	51	94	6	52	0.004	36.2
sp|Q99496|RING2_HUMAN	m.225329	36.842	57	35	1	48	103	148	204	0.006	38.5
sp|Q99496|RING2_HUMAN	m.48908	34.043	47	28	1	51	94	2	48	0.009	34.3
sp|Q99496|RING2_HUMAN	m.246378	34.091	44	26	1	51	91	2	45	0.010	33.9
sp|Q99496|RING2_HUMAN	m.362858	32.143	56	32	3	44	93	4	59	0.010	37.7
sp|Q99496|RING2_HUMAN	m.311452	34.043	47	28	1	51	94	16	62	0.010	36.2
sp|Q99496|RING2_HUMAN	m.363269	32.143	56	32	3	44	93	4	59	0.012	37.4
sp|Q99496|RING2_HUMAN	m.10710	38.298	47	26	1	51	94	1	47	0.012	34.3
sp|Q99496|RING2_HUMAN	m.348866	33.333	51	33	1	51	101	904	953	0.013	37.4
sp|Q99496|RING2_HUMAN	m.381931	30.769	91	56	4	41	126	100	188	0.016	37.0
sp|Q99496|RING2_HUMAN	m.339801	39.130	46	22	2	51	91	75	119	0.017	36.6
sp|Q99496|RING2_HUMAN	m.218376	31.818	44	27	1	51	91	11	54	0.020	33.1
sp|Q99496|RING2_HUMAN	m.218374	36.170	47	27	1	51	94	2	48	0.022	33.1
sp|Q99496|RING2_HUMAN	m.7621	46.429	28	15	0	67	94	4	31	0.025	33.5
sp|Q99496|RING2_HUMAN	m.39531	31.915	47	29	1	51	94	5	51	0.025	33.1
sp|Q99496|RING2_HUMAN	m.5563	48.276	29	12	2	66	91	16	44	0.029	32.7
sp|Q99496|RING2_HUMAN	m.218493	34.694	49	29	1	51	96	2	50	0.030	33.5
sp|Q99496|RING2_HUMAN	m.305759	39.583	48	24	2	51	94	50	96	0.037	34.3
sp|Q99496|RING2_HUMAN	m.120653	33.333	54	32	1	43	92	184	237	0.037	35.4
sp|Q99496|RING2_HUMAN	m.18780	35.417	48	26	2	51	94	1	47	0.042	32.3
sp|Q99496|RING2_HUMAN	m.428527	35.185	54	31	1	52	101	1	54	0.046	32.3
sp|Q99496|RING2_HUMAN	m.169956	32.353	68	32	3	47	100	25	92	0.047	33.9
sp|Q99496|RING2_HUMAN	m.82818	31.746	63	36	2	47	104	1007	1067	0.048	35.4
sp|Q99496|RING2_HUMAN	m.147182	30.357	56	34	2	51	102	230	284	0.050	35.4
sp|Q99496|RING2_HUMAN	m.159487	31.373	51	35	0	51	101	19	69	0.051	35.0
sp|Q99496|RING2_HUMAN	m.311480	35.417	48	28	1	51	95	80	127	0.069	33.9
sp|Q99496|RING2_HUMAN	m.58718	29.787	47	33	0	48	94	8	54	0.071	35.0
sp|Q99496|RING2_HUMAN	m.83571	37.500	48	28	1	51	96	232	279	0.079	34.7
sp|Q99496|RING2_HUMAN	m.246379	34.091	44	26	1	51	91	5	48	0.11	32.3
sp|Q99496|RING2_HUMAN	m.65176	29.762	84	36	4	31	91	280	363	0.12	34.3
sp|Q99496|RING2_HUMAN	m.246429	34.091	44	26	1	51	91	5	48	0.14	32.0
sp|Q99496|RING2_HUMAN	m.218477	34.043	47	28	1	51	94	11	57	0.14	32.0
sp|Q99496|RING2_HUMAN	m.218400	35.417	48	28	1	51	95	11	58	0.15	32.0
sp|Q99496|RING2_HUMAN	m.311477	36.170	47	27	1	51	94	15	61	0.17	32.0
sp|Q99496|RING2_HUMAN	m.217130	34.091	44	26	1	51	91	15	58	0.18	31.6
sp|Q99496|RING2_HUMAN	m.311456	36.170	47	27	1	51	94	10	56	0.18	31.6
sp|Q99496|RING2_HUMAN	m.153160	36.585	41	25	1	51	90	639	679	0.19	33.5
sp|Q99496|RING2_HUMAN	m.325179	34.000	50	32	1	49	98	7	55	0.22	33.5
sp|Q99496|RING2_HUMAN	m.246413	31.373	51	28	1	51	94	26	76	0.23	32.0
sp|Q99496|RING2_HUMAN	m.209818	28.846	52	36	1	44	94	87	138	0.24	33.1
sp|Q99496|RING2_HUMAN	m.347680	27.660	47	32	1	49	93	1268	1314	0.25	33.5
sp|Q99496|RING2_HUMAN	m.186813	31.818	44	27	1	51	91	12	55	0.29	30.8
sp|Q99496|RING2_HUMAN	m.206644	27.660	94	46	3	51	122	21	114	0.30	31.2
sp|Q99496|RING2_HUMAN	m.346830	34.091	44	26	1	51	91	12	55	0.31	31.6
sp|Q99496|RING2_HUMAN	m.431734	30.612	49	31	1	51	96	4	52	0.42	30.4
sp|Q99496|RING2_HUMAN	m.325015	25.490	102	58	4	14	105	772	865	0.44	32.3
sp|Q99496|RING2_HUMAN	m.227775	31.250	48	31	1	51	96	216	263	0.52	32.0
sp|Q99496|RING2_HUMAN	m.286510	25.397	63	36	2	43	94	277	339	0.62	32.0
sp|Q99496|RING2_HUMAN	m.176509	30.769	52	35	1	51	102	245	295	0.65	32.0
sp|Q99496|RING2_HUMAN	m.209884	35.417	48	27	1	51	94	37	84	0.69	30.4
sp|Q99496|RING2_HUMAN	m.418213	26.087	46	33	1	45	90	470	514	0.75	31.6
sp|Q99496|RING2_HUMAN	m.29170	31.818	44	30	0	51	94	1058	1101	0.81	31.6
sp|Q99496|RING2_HUMAN	m.29432	31.373	51	29	2	38	88	158	202	0.82	31.6
sp|Q99496|RING2_HUMAN	m.42998	28.261	46	32	1	45	90	38	82	0.89	31.6
sp|Q99496|RING2_HUMAN	m.311445	31.250	48	30	1	51	95	43	90	0.98	30.8
sp|Q99496|RING2_HUMAN	m.426453	34.615	26	17	0	66	91	14	39	1.0	28.1
sp|Q99496|RING2_HUMAN	m.258104	30.000	50	29	1	51	94	63	112	1.2	30.8
sp|Q99496|RING2_HUMAN	m.180360	40.741	27	16	0	67	93	17	43	1.2	28.9
sp|Q99496|RING2_HUMAN	m.119367	29.114	79	50	4	44	122	42	114	1.3	30.8
sp|Q99496|RING2_HUMAN	m.23877	29.032	62	39	3	50	108	355	414	1.5	30.8
sp|Q99496|RING2_HUMAN	m.362041	34.783	46	24	2	51	91	146	190	1.6	30.4
sp|Q99496|RING2_HUMAN	m.242783	31.111	45	29	2	51	94	32	75	1.6	30.4
sp|Q99496|RING2_HUMAN	m.303220	39.286	28	17	0	67	94	2	29	1.7	28.5
sp|Q99496|RING2_HUMAN	m.52832	42.424	33	18	1	67	98	3	35	1.8	28.5
sp|Q99496|RING2_HUMAN	m.188691	28.571	70	46	3	23	90	304	371	2.0	30.4
sp|Q99496|RING2_HUMAN	m.303218	39.286	28	17	0	67	94	2	29	2.1	28.1
sp|Q99496|RING2_HUMAN	m.246372	34.091	44	26	1	51	91	5	48	2.1	29.3
sp|Q99496|RING2_HUMAN	m.363461	48.276	29	12	2	66	91	10	38	2.5	28.5
sp|Q99496|RING2_HUMAN	m.246388	34.091	44	26	1	51	91	5	48	2.7	28.9
sp|Q99496|RING2_HUMAN	m.232331	30.435	46	28	2	34	79	202	243	2.9	29.6
sp|Q99496|RING2_HUMAN	m.241151	35.294	51	26	3	51	100	587	631	3.0	29.6
sp|Q99496|RING2_HUMAN	m.118380	40.000	30	15	1	67	93	64	93	3.0	28.1
sp|Q99496|RING2_HUMAN	m.246382	28.358	67	45	1	31	94	7	73	3.4	28.5
sp|Q99496|RING2_HUMAN	m.52583	40.909	44	24	2	51	94	266	307	3.4	29.3
sp|Q99496|RING2_HUMAN	m.401791	31.915	47	28	1	49	91	98	144	3.5	29.6
sp|Q99496|RING2_HUMAN	m.350045	36.000	50	31	1	154	203	865	913	3.8	29.6
sp|Q99496|RING2_HUMAN	m.148972	30.000	50	29	2	51	94	73	122	4.1	28.9
sp|Q99496|RING2_HUMAN	m.209875	31.818	44	27	1	51	91	27	70	4.3	28.1
sp|Q99496|RING2_HUMAN	m.120428	30.357	56	32	1	51	99	70	125	4.8	28.5
sp|Q99496|RING2_HUMAN	m.218439	44.000	25	14	0	67	91	18	42	4.9	26.6
sp|Q99496|RING2_HUMAN	m.15661	40.000	25	15	0	71	95	1	25	5.7	26.9
sp|Q99496|RING2_HUMAN	m.80041	33.962	53	30	2	44	91	5	57	5.9	28.9
sp|Q99496|RING2_HUMAN	m.303202	39.286	28	17	0	67	94	2	29	6.0	28.1
sp|Q99496|RING2_HUMAN	m.199984	26.154	65	43	2	41	101	134	197	6.7	28.1
sp|Q99496|RING2_HUMAN	m.156059	32.000	50	33	1	48	96	170	219	6.9	28.1
sp|Q99496|RING2_HUMAN	m.468382	41.379	29	16	1	71	98	2	30	6.9	26.6
sp|Q99496|RING2_HUMAN	m.90643	35.714	28	18	0	67	94	4	31	7.1	26.6
sp|Q99496|RING2_HUMAN	m.206277	31.579	38	26	0	26	63	72	109	8.3	28.5
sp|Q99496|RING2_HUMAN	m.303214	40.000	25	15	0	67	91	2	26	8.3	26.9
sp|Q99496|RING2_HUMAN	m.303198	40.000	25	15	0	67	91	2	26	8.5	26.2
sp|Q99496|RING2_HUMAN	m.303219	41.667	24	14	0	71	94	3	26	9.0	26.2
sp|Q99496|RING2_HUMAN	m.96831	23.913	46	30	1	23	68	629	669	9.1	28.1
sp|Q99496|RING2_HUMAN	m.104543	25.664	113	69	3	154	266	461	558	9.3	28.1
sp|Q99496|RING2_HUMAN	m.10675	68.750	16	5	0	102	117	304	319	9.5	28.1
