CAG33442.1	m.68598	29.310	232	123	8	109	325	706	911	8.78e-16	80.5
CAG33442.1	m.68598	31.707	82	52	2	1	79	707	787	7.46e-07	51.6
CAG33442.1	m.44273	33.333	108	60	3	68	174	135	231	5.38e-10	61.6
CAG33442.1	m.44273	29.268	82	56	2	1	81	166	246	0.003	39.7
CAG33442.1	m.64656	34.483	58	34	2	106	161	17	72	0.003	39.7
CAG33442.1	m.54289	27.957	93	60	3	493	579	975	1066	0.009	38.1
CAG33442.1	m.39135	28.846	104	70	4	496	597	323	424	0.030	36.6
CAG33442.1	m.76882	24.324	74	53	1	510	580	51	124	0.12	33.1
CAG33442.1	m.133087	28.846	52	36	1	532	583	101	151	0.26	32.7
CAG33442.1	m.67115	35.385	65	37	2	532	596	234	293	0.31	33.1
CAG33442.1	m.28173	29.730	74	45	2	118	189	38	106	0.61	32.0
CAG33442.1	m.47463	42.857	35	18	1	531	565	781	813	1.0	31.6
CAG33442.1	m.143683	71.429	14	4	0	174	187	87	100	3.4	28.1
CAG33442.1	m.67920	30.612	49	32	1	528	576	286	332	3.9	29.3
CAG33442.1	m.67928	30.612	49	32	1	528	576	286	332	4.3	29.3
CAG33442.1	m.119921	42.500	40	21	1	523	562	139	176	4.5	29.3
CAG33442.1	m.103463	28.767	73	47	1	438	505	1046	1118	4.9	29.3
