CAG33442.1	NP_191058.1	33.333	63	38	2	340	402	581	639	4.0	31.2
CAG33442.1	NP_001325869.1	33.333	63	38	2	340	402	581	639	4.0	31.2
CAG33442.1	NP_001322748.1	26.087	69	45	1	404	466	3105	3173	4.5	31.2
CAG33442.1	NP_176883.5	26.087	69	45	1	404	466	3105	3173	4.7	31.2
CAG33442.1	NP_190808.1	39.535	43	17	2	358	400	38	71	5.9	30.4
