CAG33442.1	XP_022788872.1	35.679	611	292	16	1	599	305	826	1.66e-101	326
CAG33442.1	XP_022788872.1	35.075	134	78	3	45	174	241	369	6.84e-15	78.6
CAG33442.1	XP_022788866.1	35.679	611	292	16	1	599	329	850	2.53e-101	327
CAG33442.1	XP_022788866.1	37.838	111	64	2	64	174	288	393	2.37e-13	73.6
CAG33442.1	XP_022788860.1	35.679	611	292	16	1	599	329	850	2.53e-101	327
CAG33442.1	XP_022788860.1	37.838	111	64	2	64	174	288	393	2.37e-13	73.6
CAG33442.1	XP_022804679.1	45.506	178	93	2	2	179	406	579	7.99e-41	159
CAG33442.1	XP_022804679.1	37.019	208	118	5	1	201	510	711	2.31e-28	120
CAG33442.1	XP_022804679.1	37.736	106	57	3	75	174	367	469	1.47e-15	80.5
CAG33442.1	XP_022804678.1	45.506	178	93	2	2	179	406	579	1.16e-40	159
CAG33442.1	XP_022804678.1	37.019	208	118	5	1	201	510	711	3.04e-28	120
CAG33442.1	XP_022804678.1	37.736	106	57	3	75	174	367	469	1.26e-15	80.9
CAG33442.1	XP_022804678.1	43.103	58	27	2	532	587	918	971	7.94e-05	46.2
CAG33442.1	XP_022780254.1	41.530	183	100	3	1	176	140	322	2.76e-31	130
CAG33442.1	XP_022780254.1	25.917	409	227	12	1	396	253	598	2.75e-19	92.8
CAG33442.1	XP_022780254.1	45.070	71	37	1	106	174	136	206	1.48e-12	71.2
CAG33442.1	XP_022780254.1	44.118	68	36	1	528	595	1495	1560	4.95e-11	66.2
CAG33442.1	XP_022780253.1	41.530	183	100	3	1	176	141	323	2.79e-31	130
CAG33442.1	XP_022780253.1	25.917	409	227	12	1	396	254	599	2.89e-19	92.8
CAG33442.1	XP_022780253.1	45.070	71	37	1	106	174	137	207	1.50e-12	71.2
CAG33442.1	XP_022780253.1	44.118	68	36	1	528	595	1496	1561	5.04e-11	66.2
CAG33442.1	XP_022780252.1	41.530	183	100	3	1	176	141	323	2.79e-31	130
CAG33442.1	XP_022780252.1	25.917	409	227	12	1	396	254	599	2.89e-19	92.8
CAG33442.1	XP_022780252.1	45.070	71	37	1	106	174	137	207	1.50e-12	71.2
CAG33442.1	XP_022780252.1	44.118	68	36	1	528	595	1496	1561	5.04e-11	66.2
CAG33442.1	XP_022780251.1	41.530	183	100	3	1	176	141	323	2.79e-31	130
CAG33442.1	XP_022780251.1	25.917	409	227	12	1	396	254	599	2.89e-19	92.8
CAG33442.1	XP_022780251.1	45.070	71	37	1	106	174	137	207	1.50e-12	71.2
CAG33442.1	XP_022780251.1	44.118	68	36	1	528	595	1496	1561	5.04e-11	66.2
CAG33442.1	XP_022781211.1	38.122	181	105	5	16	190	399	578	3.89e-29	123
CAG33442.1	XP_022781211.1	38.547	179	103	4	1	174	494	670	1.17e-27	119
CAG33442.1	XP_022781211.1	38.636	176	101	4	1	175	607	776	3.89e-27	117
CAG33442.1	XP_022781211.1	41.096	73	41	1	525	597	1049	1119	8.42e-08	55.8
CAG33442.1	XP_022781211.1	31.481	108	64	3	75	174	345	450	2.47e-06	51.2
CAG33442.1	XP_022781211.1	29.358	109	59	5	226	332	766	858	6.9	30.0
CAG33442.1	XP_022781210.1	38.122	181	105	5	16	190	399	578	4.29e-29	123
CAG33442.1	XP_022781210.1	29.178	377	211	11	1	332	494	859	8.02e-28	119
CAG33442.1	XP_022781210.1	41.096	73	41	1	525	597	1050	1120	8.79e-08	55.8
CAG33442.1	XP_022781210.1	31.481	108	64	3	75	174	345	450	2.58e-06	51.2
CAG33442.1	XP_022781212.1	38.122	181	105	5	16	190	321	500	5.74e-29	123
CAG33442.1	XP_022781212.1	28.354	395	222	12	1	342	416	802	7.31e-28	119
CAG33442.1	XP_022781212.1	41.096	73	41	1	525	597	972	1042	8.34e-08	55.8
CAG33442.1	XP_022781212.1	31.481	108	64	3	75	174	267	372	2.84e-06	50.8
CAG33442.1	XP_022788944.1	35.885	209	119	5	1	201	39	240	3.71e-28	118
CAG33442.1	XP_022788944.1	51.579	95	43	2	80	174	12	103	4.15e-20	94.0
CAG33442.1	XP_022788944.1	37.500	56	33	1	532	587	437	490	0.001	42.4
CAG33442.1	XP_022796962.1	33.149	181	109	5	1	174	303	478	7.00e-20	94.7
CAG33442.1	XP_022796962.1	33.333	168	107	3	1	163	73	240	6.13e-19	91.7
CAG33442.1	XP_022796962.1	32.161	199	117	5	1	183	186	382	3.66e-16	82.8
CAG33442.1	XP_022796962.1	41.791	67	37	1	530	596	885	949	3.15e-09	60.5
CAG33442.1	XP_022796962.1	31.646	79	54	0	298	376	670	748	7.70e-06	49.3
CAG33442.1	XP_022778323.1	44.545	110	57	3	1	110	393	498	1.99e-17	85.9
CAG33442.1	XP_022778323.1	38.095	105	58	2	75	174	355	457	1.33e-16	83.2
CAG33442.1	XP_022788401.1	40.580	69	40	1	528	596	171	238	1.38e-09	59.3
CAG33442.1	XP_022788400.1	40.580	69	40	1	528	596	206	273	1.80e-09	59.3
CAG33442.1	XP_022779947.1	40.845	71	38	2	525	595	359	425	2.74e-09	60.1
CAG33442.1	XP_022777953.1	44.928	69	36	1	527	595	673	739	4.11e-09	60.1
CAG33442.1	XP_022777946.1	44.928	69	36	1	527	595	673	739	4.11e-09	60.1
CAG33442.1	XP_022777959.1	44.928	69	36	1	527	595	652	718	4.31e-09	59.7
CAG33442.1	XP_022797047.1	44.286	70	33	2	528	595	418	483	5.48e-08	55.8
CAG33442.1	XP_022800980.1	40.000	65	38	1	532	596	675	738	2.10e-07	54.3
CAG33442.1	XP_022800979.1	40.000	65	38	1	532	596	676	739	2.12e-07	54.3
CAG33442.1	XP_022802938.1	30.769	65	45	0	106	170	16	80	8.84e-04	42.7
CAG33442.1	XP_022802939.1	30.769	65	45	0	106	170	16	80	0.001	42.7
CAG33442.1	XP_022802937.1	30.769	65	45	0	106	170	16	80	0.001	42.7
CAG33442.1	XP_022779929.1	43.750	48	24	2	525	571	3	48	0.007	39.7
CAG33442.1	XP_022782022.1	28.571	91	55	3	506	596	49	129	0.75	32.0
CAG33442.1	XP_022782395.1	32.857	70	33	3	530	596	365	423	1.2	32.7
CAG33442.1	XP_022782387.1	32.857	70	33	3	530	596	365	423	1.2	32.7
CAG33442.1	XP_022782378.1	32.857	70	33	3	530	596	365	423	1.2	32.7
CAG33442.1	XP_022782371.1	32.857	70	33	3	530	596	365	423	1.2	32.7
CAG33442.1	XP_022780178.1	38.462	52	30	1	516	567	626	675	1.2	32.7
CAG33442.1	XP_022780177.1	38.462	52	30	1	516	567	626	675	1.2	32.7
CAG33442.1	XP_022804166.1	31.481	54	33	2	531	584	363	412	1.7	32.0
CAG33442.1	XP_022804165.1	31.481	54	33	2	531	584	386	435	1.8	32.0
CAG33442.1	XP_022784542.1	26.562	64	44	2	533	596	7	67	1.9	31.6
CAG33442.1	XP_022791263.1	23.026	152	111	4	174	323	314	461	2.8	31.6
CAG33442.1	XP_022784541.1	26.562	64	44	2	533	596	7	67	4.2	30.8
CAG33442.1	XP_022797122.1	29.412	51	36	0	524	574	103	153	8.3	28.9
