CAG33442.1	NP_013196.1	30.189	106	61	5	412	504	290	395	0.58	31.2
CAG33442.1	NP_011263.2	22.819	149	98	4	361	497	260	403	0.86	30.4
CAG33442.1	NP_011816.2	35.000	40	26	0	4	43	154	193	2.6	28.9
CAG33442.1	NP_015117.1	45.946	37	19	1	214	250	150	185	3.2	28.5
CAG33442.1	NP_011039.1	26.250	80	54	3	520	597	254	330	4.1	28.5
CAG33442.1	NP_012405.2	33.333	117	60	8	469	576	131	238	4.6	28.1
CAG33442.1	NP_010425.1	23.404	94	62	2	474	562	588	676	7.7	27.3
CAG33442.1	NP_015022.3	24.837	153	84	7	30	180	382	505	8.5	27.3
