CAG33442.1	XP_002113069.1	54.070	172	79	0	1	172	35	206	5.23e-62	202
CAG33442.1	XP_002113069.1	36.697	109	66	2	75	183	3	108	2.03e-15	74.3
CAG33442.1	XP_002113069.1	35.714	70	45	0	1	70	144	213	2.61e-08	53.5
CAG33442.1	XP_002114363.1	37.640	178	107	2	1	178	273	446	3.03e-26	110
CAG33442.1	XP_002114363.1	42.000	100	56	1	75	174	240	337	5.65e-13	69.7
CAG33442.1	XP_002114126.1	49.153	59	30	0	106	164	601	659	3.64e-14	74.7
CAG33442.1	XP_002114126.1	34.694	98	61	2	1	97	605	700	2.23e-06	49.7
CAG33442.1	XP_002113699.1	30.120	166	94	6	450	595	10	173	3.53e-09	55.5
CAG33442.1	XP_002113858.1	43.333	60	29	2	530	587	3	59	6.78e-09	51.2
CAG33442.1	XP_002114362.1	38.462	65	38	1	531	595	190	252	1.72e-08	54.7
CAG33442.1	XP_002114362.1	35.211	71	44	1	2	72	6	74	0.004	38.1
CAG33442.1	XP_002114362.1	36.111	72	44	1	106	177	1	70	0.005	37.7
CAG33442.1	XP_002114339.1	39.706	68	39	1	528	595	475	540	1.23e-06	50.1
CAG33442.1	XP_002117097.1	31.579	57	35	2	106	160	8	62	0.027	32.7
CAG33442.1	XP_002109068.1	27.160	81	57	1	59	137	305	385	0.68	31.6
CAG33442.1	XP_002114294.1	36.000	50	27	3	21	66	3135	3183	4.3	29.3
CAG33442.1	XP_002116679.1	36.000	50	31	1	544	593	364	412	4.6	28.9
CAG33442.1	XP_002115696.1	41.379	29	17	0	524	552	1606	1634	7.2	28.5
CAG33442.1	XP_002118099.1	31.343	67	42	2	531	595	9	73	8.5	27.7
