CAG33442.1	m.292082	43.478	69	39	0	106	174	2599	2667	3.35e-12	69.3
CAG33442.1	m.292082	28.205	78	56	0	2	79	2604	2681	3.30e-06	49.7
CAG33442.1	m.280421	35.417	144	80	7	106	241	211	349	3.45e-12	68.9
CAG33442.1	m.280421	29.293	99	63	4	2	95	216	312	0.002	40.4
CAG33442.1	m.163907	29.333	75	50	1	103	174	645	719	9.03e-05	45.1
CAG33442.1	m.163907	24.719	89	62	2	1	86	652	738	0.17	34.3
CAG33442.1	m.158209	35.821	67	41	1	529	595	1268	1332	4.72e-04	42.7
CAG33442.1	m.81	38.298	47	29	0	553	599	253	299	0.15	33.9
CAG33442.1	m.30073	32.203	59	36	2	105	161	17	73	0.41	32.3
CAG33442.1	m.230726	29.167	48	34	0	532	579	395	442	0.83	32.0
CAG33442.1	m.30070	32.759	58	35	2	106	161	18	73	0.92	30.0
CAG33442.1	m.32678	32.558	43	29	0	529	571	277	319	0.99	31.6
CAG33442.1	m.7481	23.077	130	86	3	348	463	152	281	2.0	30.4
CAG33442.1	m.286663	35.849	53	30	3	528	579	313	362	2.1	30.8
CAG33442.1	m.286663	34.043	47	29	1	527	573	490	534	3.0	30.0
CAG33442.1	m.286663	31.746	63	40	2	532	594	1262	1321	9.7	28.5
CAG33442.1	m.8561	34.211	38	24	1	528	565	3	39	2.1	28.5
CAG33442.1	m.238096	26.154	65	48	0	532	596	1668	1732	2.4	30.4
CAG33442.1	m.127862	32.609	46	31	0	248	293	71	116	2.6	28.9
CAG33442.1	m.225512	36.170	47	29	1	231	276	20	66	3.6	29.6
CAG33442.1	m.180210	30.612	49	34	0	319	367	48	96	4.6	28.1
CAG33442.1	m.169528	31.959	97	59	4	386	481	177	267	6.0	29.3
CAG33442.1	m.87305	34.483	58	35	2	518	575	155	209	6.6	28.9
CAG33442.1	m.23007	25.974	77	56	1	315	391	232	307	9.3	28.5
CAG33442.1	m.262360	26.027	73	49	1	220	292	2314	2381	9.6	28.5
